mass element = 1.7358333333333333 M_sun
   t [s]      T [K]      rho [g/cm^3]      r [cm]      Ye   Entropy: S =    4.177558855893782     k  
  0.0000000000E+00	  1.0085263605E+09	  9.2337246884E+04	  7.9062500000E+08	  4.9913887418E-01
  1.0000615727E-02	  1.0084893604E+09	  9.2328665657E+04	  7.9062500000E+08	  4.9913887418E-01
  2.0001675152E-02	  1.0084648219E+09	  9.2323066057E+04	  7.9062500000E+08	  4.9913887418E-01
  3.0000780099E-02	  1.0084474962E+09	  9.2319223358E+04	  7.9062500000E+08	  4.9913887418E-01
  4.0001839524E-02	  1.0084313067E+09	  9.2315682590E+04	  7.9062500000E+08	  4.9913887418E-01
  5.0000944471E-02	  1.0084109358E+09	  9.2311130430E+04	  7.9062500000E+08	  4.9913887418E-01
  6.0000049419E-02	  1.0083824208E+09	  9.2304550163E+04	  7.9062500000E+08	  4.9913887418E-01
  7.0001108844E-02	  1.0083430698E+09	  9.2295227405E+04	  7.9062500000E+08	  4.9913887418E-01
  8.0000213791E-02	  1.0082913368E+09	  9.2282746602E+04	  7.9062500000E+08	  4.9913887418E-01
  9.0001273216E-02	  1.0082270150E+09	  9.2267051645E+04	  7.9062500000E+08	  4.9913887418E-01
  1.0000037816E-01	  1.0081518113E+09	  9.2248581085E+04	  7.9062500000E+08	  4.9913887418E-01
  1.1000143759E-01	  1.0080695271E+09	  9.2228296640E+04	  7.9062500000E+08	  4.9913887418E-01
  1.2000054254E-01	  1.0079858377E+09	  9.2207613710E+04	  7.9062500000E+08	  4.9913887418E-01
  1.3000160196E-01	  1.0079070720E+09	  9.2188093708E+04	  7.9062500000E+08	  4.9913887418E-01
  1.4000070691E-01	  1.0078387401E+09	  9.2171082758E+04	  7.9062500000E+08	  4.9913887418E-01
  1.5000176633E-01	  1.0077838443E+09	  9.2157302018E+04	  7.9062500000E+08	  4.9913887418E-01
  1.6000087128E-01	  1.0077419825E+09	  9.2146631512E+04	  7.9062500000E+08	  4.9913887418E-01
  1.7000095347E-01	  1.0077092055E+09	  9.2138076448E+04	  7.9062500000E+08	  4.9913887418E-01
  1.8000005841E-01	  1.0076789506E+09	  9.2129994290E+04	  7.9062500000E+08	  4.9913887418E-01
  1.9000014060E-01	  1.0076435790E+09	  9.2120471797E+04	  7.9062500000E+08	  4.9913887418E-01
  2.0000022278E-01	  1.0075962914E+09	  9.2107799007E+04	  7.9062500000E+08	  4.9913887418E-01
  2.1000030497E-01	  1.0075327630E+09	  9.2090878792E+04	  7.9062500000E+08	  4.9913887418E-01
  2.2000038716E-01	  1.0074523476E+09	  9.2069532994E+04	  7.9062500000E+08	  4.9913887418E-01
  2.3000046934E-01	  1.0073581290E+09	  9.2044522026E+04	  7.9062500000E+08	  4.9913887418E-01
  2.4000006291E-01	  1.0072561784E+09	  9.2017362076E+04	  7.9062500000E+08	  4.9913887418E-01
  2.5000014509E-01	  1.0071542139E+09	  9.1989989083E+04	  7.9062500000E+08	  4.9913887418E-01
  2.6000022728E-01	  1.0070597290E+09	  9.1964285796E+04	  7.9062500000E+08	  4.9913887418E-01
  2.7000030947E-01	  1.0069780874E+09	  9.1941596777E+04	  7.9062500000E+08	  4.9913887418E-01
  2.8000039165E-01	  1.0069110748E+09	  9.1922358836E+04	  7.9062500000E+08	  4.9913887418E-01
  2.9000047384E-01	  1.0068564076E+09	  9.1905974280E+04	  7.9062500000E+08	  4.9913887418E-01
  3.0000006741E-01	  1.0068082596E+09	  9.1890942766E+04	  7.9062500000E+08	  4.9913887418E-01
  3.1000014959E-01	  1.0067587075E+09	  9.1875226035E+04	  7.9062500000E+08	  4.9913887418E-01
  3.2000023178E-01	  1.0066998248E+09	  9.1856779900E+04	  7.9062500000E+08	  4.9913887418E-01
  3.3000031397E-01	  1.0066259053E+09	  9.1834120499E+04	  7.9062500000E+08	  4.9913887418E-01
  3.4000039615E-01	  1.0065309822E+09	  9.1806764929E+04	  7.9062500000E+08	  4.9913887418E-01
  3.5000047834E-01	  1.0063955334E+09	  9.1775668512E+04	  7.9062500000E+08	  4.9913887418E-01
  3.6000007191E-01	  1.0062526344E+09	  9.1742909965E+04	  7.9062500000E+08	  4.9913887418E-01
  3.7000015409E-01	  1.0061120163E+09	  9.1710786551E+04	  7.9062500000E+08	  4.9913887418E-01
  3.8000023628E-01	  1.0059796424E+09	  9.1682228485E+04	  7.8437500000E+08	  4.9913887418E-01
  3.9000031846E-01	  1.0058613355E+09	  9.1657945023E+04	  7.8437500000E+08	  4.9913887418E-01
  4.0000028199E-01	  1.0057573660E+09	  9.1636634832E+04	  7.8437500000E+08	  4.9913887418E-01
  4.1000037133E-01	  1.0056613054E+09	  9.1616745506E+04	  7.8437500000E+08	  4.9913887418E-01
  4.2000028086E-01	  1.0055642706E+09	  9.1596123179E+04	  7.8437500000E+08	  4.9913887418E-01
  4.3000005580E-01	  1.0054575420E+09	  9.1572642581E+04	  7.8437500000E+08	  4.9913887418E-01
  4.4000033296E-01	  1.0053351785E+09	  9.1544842147E+04	  7.8437500000E+08	  4.9913887418E-01
  4.5000035246E-01	  1.0051959302E+09	  9.1512392106E+04	  7.8437500000E+08	  4.9913887418E-01
  4.6000002996E-01	  1.0050436577E+09	  9.1476203239E+04	  7.8437500000E+08	  4.9913887418E-01
  4.7000002504E-01	  1.0048860723E+09	  9.1438126475E+04	  7.8437500000E+08	  4.9913887418E-01
  4.8000026749E-01	  1.0047322601E+09	  9.1400352144E+04	  7.8437500000E+08	  4.9913887418E-01
  4.9000010819E-01	  1.0045897203E+09	  9.1364686056E+04	  7.8437500000E+08	  4.9913887418E-01
  5.0000002879E-01	  1.0044618682E+09	  9.1331933003E+04	  7.8437500000E+08	  4.9913887418E-01
  5.1000016235E-01	  1.0043470401E+09	  9.1301646985E+04	  7.8437500000E+08	  4.9913887418E-01
  5.2000034769E-01	  1.0042392157E+09	  9.1272303826E+04	  7.8437500000E+08	  4.9913887418E-01
  5.3000022949E-01	  1.0041301347E+09	  9.1241820231E+04	  7.8437500000E+08	  4.9913887418E-01
  5.4000031482E-01	  1.0040120878E+09	  9.1208244758E+04	  7.8437500000E+08	  4.9913887418E-01
  5.5000017386E-01	  1.0038555042E+09	  9.1170486481E+04	  7.8437500000E+08	  4.9913887418E-01
  5.6000008950E-01	  1.0036786431E+09	  9.1128874124E+04	  7.8437500000E+08	  4.9913887418E-01
  5.7000033035E-01	  1.0034905236E+09	  9.1084713941E+04	  7.8437500000E+08	  4.9913887418E-01
  5.8000001179E-01	  1.0032985549E+09	  9.1039764089E+04	  7.8437500000E+08	  4.9913887418E-01
  5.9000032777E-01	  1.0031094227E+09	  9.0995616764E+04	  7.8437500000E+08	  4.9913887418E-01
  6.0000020793E-01	  1.0029269730E+09	  9.0953195079E+04	  7.8437500000E+08	  4.9913887418E-01
  6.1000023161E-01	  1.0027510205E+09	  9.0912467859E+04	  7.8437500000E+08	  4.9913887418E-01
  6.2000008696E-01	  1.0025777995E+09	  9.0872552668E+04	  7.8437500000E+08	  4.9913887418E-01
  6.3000016914E-01	  1.0024018173E+09	  9.0832152440E+04	  7.8437500000E+08	  4.9913887418E-01
  6.4000025133E-01	  1.0022187989E+09	  9.0790256383E+04	  7.7812500000E+08	  4.9913887418E-01
  6.5000033351E-01	  1.0020348133E+09	  9.0747717197E+04	  7.7812500000E+08	  4.9913887418E-01
  6.6000041570E-01	  1.0018565287E+09	  9.0705370571E+04	  7.7812500000E+08	  4.9913887418E-01
  6.7000000927E-01	  1.0016966725E+09	  9.0666313079E+04	  7.7812500000E+08	  4.9913887418E-01
  6.8000009145E-01	  1.0015697611E+09	  9.0634118336E+04	  7.7812500000E+08	  4.9913887418E-01
  6.9000017364E-01	  1.0014883553E+09	  9.0611919719E+04	  7.7812500000E+08	  4.9913887418E-01
  7.0000025582E-01	  1.0014491608E+09	  9.0601496004E+04	  7.7812500000E+08	  4.9913887418E-01
  7.1000033801E-01	  1.0014576832E+09	  9.0602861937E+04	  7.7812500000E+08	  4.9913887418E-01
  7.2000042019E-01	  1.0015074110E+09	  9.0614174493E+04	  7.7812500000E+08	  4.9913887418E-01
  7.3000001376E-01	  1.0015836127E+09	  9.0631967590E+04	  7.7812500000E+08	  4.9913887418E-01
  7.4000009594E-01	  1.0016679022E+09	  9.0651902510E+04	  7.7812500000E+08	  4.9913887418E-01
  7.5000017813E-01	  1.0017419663E+09	  9.0669650528E+04	  7.7812500000E+08	  4.9913887418E-01
  7.6000026031E-01	  1.0017909610E+09	  9.0681697955E+04	  7.7812500000E+08	  4.9913887418E-01
  7.7000034250E-01	  1.0018053746E+09	  9.0685789544E+04	  7.7812500000E+08	  4.9913887418E-01
  7.8000042468E-01	  1.0017810862E+09	  9.0680945159E+04	  7.7812500000E+08	  4.9913887418E-01
  7.9000001825E-01	  1.0017180828E+09	  9.0667158191E+04	  7.7812500000E+08	  4.9913887418E-01
  8.0000010044E-01	  1.0016184661E+09	  9.0644923832E+04	  7.7812500000E+08	  4.9913887418E-01
  8.0848644009E-01	  1.0015071059E+09	  9.0619875884E+04	  7.7812500000E+08	  4.9913887418E-01
  8.1000018262E-01	  1.0014847662E+09	  9.0614838086E+04	  7.7812500000E+08	  4.9913887418E-01
  8.2000026481E-01	  1.0013189902E+09	  9.0577370877E+04	  7.7812500000E+08	  4.9913887418E-01
  8.3000034699E-01	  1.0011271289E+09	  9.0532230089E+04	  7.7187500000E+08	  4.9913887418E-01
  8.4000042918E-01	  1.0009150609E+09	  9.0479791278E+04	  7.7187500000E+08	  4.9913887418E-01
  8.5000002274E-01	  1.0006767857E+09	  9.0420992229E+04	  7.7187500000E+08	  4.9913887418E-01
  8.6000010493E-01	  1.0004126176E+09	  9.0356865725E+04	  7.7187500000E+08	  4.9913887418E-01
  8.7000018711E-01	  1.0001324117E+09	  9.0289125282E+04	  7.7187500000E+08	  4.9913887418E-01
  8.8000026930E-01	  9.9984292744E+08	  9.0219397911E+04	  7.7187500000E+08	  4.9913887418E-01
  8.9000035148E-01	  9.9954867028E+08	  9.0148780839E+04	  7.7187500000E+08	  4.9913887418E-01
  9.0000043367E-01	  9.9925113929E+08	  9.0077658785E+04	  7.7187500000E+08	  4.9913887418E-01
  9.1000002723E-01	  9.9894919265E+08	  9.0005786288E+04	  7.7187500000E+08	  4.9913887418E-01
  9.2000010942E-01	  9.9864003987E+08	  8.9932520211E+04	  7.7187500000E+08	  4.9913887418E-01
  9.3000019160E-01	  9.9832070548E+08	  8.9857166164E+04	  7.7187500000E+08	  4.9913887418E-01
  9.4000027379E-01	  9.9798846031E+08	  8.9779081055E+04	  7.7187500000E+08	  4.9913887418E-01
  9.5000035598E-01	  9.9764074448E+08	  8.9697654055E+04	  7.7187500000E+08	  4.9913887418E-01
  9.6000043816E-01	  9.9727846519E+08	  8.9613093983E+04	  7.7187500000E+08	  4.9913887418E-01
  9.7000003173E-01	  9.9690987994E+08	  8.9526226634E+04	  7.6562500000E+08	  4.9913887418E-01
  9.8000011391E-01	  9.9654885129E+08	  8.9438385440E+04	  7.6562500000E+08	  4.9913887418E-01
  9.9000019610E-01	  9.9618585957E+08	  8.9350253726E+04	  7.6562500000E+08	  4.9913887418E-01
  1.0000002783E+00	  9.9581987571E+08	  8.9261631291E+04	  7.6562500000E+08	  4.9913887418E-01
  1.0100003605E+00	  9.9544756357E+08	  8.9171766944E+04	  7.6562500000E+08	  4.9913887418E-01
  1.0200004427E+00	  9.9506364907E+08	  8.9079440619E+04	  7.6562500000E+08	  4.9913887418E-01
  1.0300000362E+00	  9.9466347472E+08	  8.8983570971E+04	  7.6562500000E+08	  4.9913887418E-01
  1.0400001184E+00	  9.9424612244E+08	  8.8883963433E+04	  7.6562500000E+08	  4.9913887418E-01
  1.0500002006E+00	  9.9381424633E+08	  8.8781271940E+04	  7.6562500000E+08	  4.9913887418E-01
  1.0600002828E+00	  9.9337246174E+08	  8.8676616349E+04	  7.6562500000E+08	  4.9913887418E-01
  1.0700003650E+00	  9.9292540483E+08	  8.8571117165E+04	  7.6562500000E+08	  4.9913887418E-01
  1.0800004472E+00	  9.9247590559E+08	  8.8465455684E+04	  7.6562500000E+08	  4.9913887418E-01
  1.0900000407E+00	  9.9203792326E+08	  8.8359389656E+04	  7.5937500000E+08	  4.9913887418E-01
  1.1000001229E+00	  9.9159287723E+08	  8.8251089544E+04	  7.5937500000E+08	  4.9913887418E-01
  1.1100002051E+00	  9.9113409430E+08	  8.8139787847E+04	  7.5937500000E+08	  4.9913887418E-01
  1.1200002873E+00	  9.9066142739E+08	  8.8025492160E+04	  7.5937500000E+08	  4.9913887418E-01
  1.1300003695E+00	  9.9016713514E+08	  8.7912068040E+04	  7.5781250000E+08	  4.9913887417E-01
  1.1400004517E+00	  9.8966928994E+08	  8.7792574295E+04	  7.5781250000E+08	  4.9913887417E-01
  1.1500000452E+00	  9.8916563395E+08	  8.7672211338E+04	  7.5781250000E+08	  4.9913887417E-01
  1.1600001274E+00	  9.8865617141E+08	  8.7549697904E+04	  7.5468750000E+08	  4.9913887417E-01
  1.1700002096E+00	  9.8813535578E+08	  8.7423777305E+04	  7.5468750000E+08	  4.9913887417E-01
  1.1800002918E+00	  9.8759846220E+08	  8.7294393272E+04	  7.5468750000E+08	  4.9913887417E-01
  1.1900003740E+00	  9.8704731582E+08	  8.7162070670E+04	  7.5468750000E+08	  4.9913887417E-01
  1.2000004562E+00	  9.8648584960E+08	  8.7027299209E+04	  7.5156250000E+08	  4.9913887417E-01
  1.2100000497E+00	  1.1920040965E+09	  1.1696876874E+05	  7.5156250000E+08	  4.9913887462E-01
  1.2200001319E+00	  1.7697593425E+09	  2.7992623929E+05	  7.5781250000E+08	  4.9913890204E-01
  1.2300002141E+00	  1.9496574302E+09	  3.6455055865E+05	  7.6406250000E+08	  4.9913911470E-01
  1.2400002963E+00	  1.9580439894E+09	  3.6259512387E+05	  7.7343750000E+08	  4.9914006333E-01
  1.2500003785E+00	  1.9471543535E+09	  3.5238624543E+05	  7.7968750000E+08	  4.9914113295E-01
  1.2600004607E+00	  1.9306293424E+09	  3.4026966765E+05	  7.8593750000E+08	  4.9914197874E-01
  1.2700000542E+00	  1.9132185980E+09	  3.2919202338E+05	  7.9531250000E+08	  4.9914270617E-01
  1.2800001364E+00	  1.8905885008E+09	  3.1552981923E+05	  8.0312500000E+08	  4.9914305499E-01
  1.2900002186E+00	  1.8700649015E+09	  3.0237222295E+05	  8.0937500000E+08	  4.9914395519E-01
  1.3000003008E+00	  1.8558908185E+09	  2.9326692100E+05	  8.1562500000E+08	  4.9914462498E-01
  1.3100003830E+00	  1.8435335335E+09	  2.8607134644E+05	  8.2812500000E+08	  4.9914519299E-01
  1.3200004652E+00	  1.8325808443E+09	  2.7989976486E+05	  8.3437500000E+08	  4.9914565724E-01
  1.3300000588E+00	  1.8207471892E+09	  2.7362817024E+05	  8.4062500000E+08	  4.9914623196E-01
  1.3400001409E+00	  1.8072479858E+09	  2.6701691962E+05	  8.4687500000E+08	  4.9914678613E-01
  1.3500002231E+00	  1.7934607624E+09	  2.6024714455E+05	  8.5312500000E+08	  4.9914738173E-01
  1.3600003053E+00	  1.7798662083E+09	  2.5351219293E+05	  8.5937500000E+08	  4.9914800615E-01
  1.3700003875E+00	  1.7660830169E+09	  2.4695681785E+05	  8.6562500000E+08	  4.9914863877E-01
  1.3800004697E+00	  1.7528400397E+09	  2.4060368690E+05	  8.7187500000E+08	  4.9914928995E-01
  1.3900000633E+00	  1.7401343275E+09	  2.3447504844E+05	  8.8437500000E+08	  4.9914996173E-01
  1.4000001454E+00	  1.7279747962E+09	  2.2861975931E+05	  8.9062500000E+08	  4.9915068011E-01
  1.4100002276E+00	  1.7152516726E+09	  2.2307173827E+05	  8.9687500000E+08	  4.9915141334E-01
  1.4200003098E+00	  1.7027409890E+09	  2.1779214747E+05	  9.0312500000E+08	  4.9915215758E-01
  1.4300003920E+00	  1.6905993068E+09	  2.1274058675E+05	  9.0937500000E+08	  4.9915291183E-01
  1.4400004742E+00	  1.6789679279E+09	  2.0788347818E+05	  9.1562500000E+08	  4.9915367528E-01
  1.4500000678E+00	  1.6677719039E+09	  2.0318800927E+05	  9.2187500000E+08	  4.9915444704E-01
  1.4600001500E+00	  1.6569444803E+09	  1.9861954483E+05	  9.2812500000E+08	  4.9915522692E-01
  1.4700002321E+00	  1.6464529283E+09	  1.9416113719E+05	  9.3437500000E+08	  4.9915601452E-01
  1.4800003143E+00	  1.6356729755E+09	  1.8981358922E+05	  9.4062500000E+08	  4.9915680981E-01
  1.4900003965E+00	  1.6241267923E+09	  1.8559077050E+05	  9.4687500000E+08	  4.9915761302E-01
  1.5000004787E+00	  1.6130451632E+09	  1.8150919316E+05	  9.5312500000E+08	  4.9915842395E-01
  1.5100000723E+00	  1.6024235893E+09	  1.7757621126E+05	  9.5937500000E+08	  4.9915924184E-01
  1.5200001545E+00	  1.5922353298E+09	  1.7378855804E+05	  9.6562500000E+08	  4.9916006598E-01
  1.5300002366E+00	  1.5824346695E+09	  1.7013130010E+05	  9.7187500000E+08	  4.9916089585E-01
  1.5400003188E+00	  1.5728008550E+09	  1.6658260662E+05	  9.7812500000E+08	  4.9916173081E-01
  1.5500004010E+00	  1.5631659553E+09	  1.6313012695E+05	  9.9062500000E+08	  4.9916257941E-01
  1.5600004832E+00	  1.5538486236E+09	  1.5977469844E+05	  9.9687500000E+08	  4.9916343108E-01
  1.5700000768E+00	  1.5439838234E+09	  1.5651264347E+05	  1.0031250000E+09	  4.9916428502E-01
  1.5800001590E+00	  1.5342381540E+09	  1.5334306432E+05	  1.0093750000E+09	  4.9916514044E-01
  1.5900002412E+00	  1.5248344765E+09	  1.5026887431E+05	  1.0156250000E+09	  4.9916599683E-01
  1.6000003233E+00	  1.5157673688E+09	  1.4729294304E+05	  1.0218750000E+09	  4.9916685385E-01
  1.6100004055E+00	  1.5067524650E+09	  1.4441189549E+05	  1.0281250000E+09	  4.9916771108E-01
  1.6200004877E+00	  1.4978613627E+09	  1.4161663829E+05	  1.0343750000E+09	  4.9916856839E-01
  1.6300000813E+00	  1.4892502016E+09	  1.3889745196E+05	  1.0406250000E+09	  4.9916942567E-01
  1.6400001635E+00	  1.4808965068E+09	  1.3624710045E+05	  1.0468750000E+09	  4.9917028269E-01
  1.6500002457E+00	  1.4727901447E+09	  1.3366313720E+05	  1.0531250000E+09	  4.9917113903E-01
  1.6600003278E+00	  1.4642814586E+09	  1.3114419166E+05	  1.0593750000E+09	  4.9917199468E-01
  1.6700004100E+00	  1.4557558508E+09	  1.2869100191E+05	  1.0656250000E+09	  4.9917284872E-01
  1.6800000036E+00	  1.4473416268E+09	  1.2630613394E+05	  1.0718750000E+09	  4.9917370048E-01
  1.6900000858E+00	  1.4389598753E+09	  1.2399180693E+05	  1.0781250000E+09	  4.9917454978E-01
  1.7000001680E+00	  1.4308589920E+09	  1.2174743755E+05	  1.0843750000E+09	  4.9917539664E-01
  1.7100002502E+00	  1.4230194248E+09	  1.1956876181E+05	  1.0906250000E+09	  4.9917624119E-01
  1.7200003324E+00	  1.4154184263E+09	  1.1744969479E+05	  1.0968750000E+09	  4.9917708351E-01
  1.7300004145E+00	  1.4080357490E+09	  1.1538450251E+05	  1.1031250000E+09	  4.9917792351E-01
  1.7400000081E+00	  1.4008566951E+09	  1.1336907533E+05	  1.1093750000E+09	  4.9917876095E-01
  1.7500000903E+00	  1.3938710365E+09	  1.1140087442E+05	  1.1156250000E+09	  4.9917959578E-01
  1.7600001725E+00	  1.3861261214E+09	  1.0947841724E+05	  1.1218750000E+09	  4.9918042804E-01
  1.7700002547E+00	  1.3783878274E+09	  1.0760166517E+05	  1.1281250000E+09	  4.9918125676E-01
  1.7800003369E+00	  1.3708733776E+09	  1.0577077655E+05	  1.1343750000E+09	  4.9918208169E-01
  1.7900004190E+00	  1.3635764428E+09	  1.0398515438E+05	  1.1406250000E+09	  4.9918290251E-01
  1.8000000126E+00	  1.3564909705E+09	  1.0224414480E+05	  1.1468750000E+09	  4.9918371920E-01
  1.8100000948E+00	  1.3496138526E+09	  1.0054818246E+05	  1.1531250000E+09	  4.9918453192E-01
  1.8200001770E+00	  1.3429336747E+09	  9.8894783044E+04	  1.1593750000E+09	  4.9918534018E-01
  1.8300002592E+00	  1.3364423720E+09	  9.7282547030E+04	  1.1656250000E+09	  4.9918614328E-01
  1.8400003414E+00	  1.3299842191E+09	  9.5711139344E+04	  1.1718750000E+09	  4.9918694072E-01
  1.8500004236E+00	  1.3235582844E+09	  9.4180734936E+04	  1.1781250000E+09	  4.9918773206E-01
  1.8600000171E+00	  1.3170495259E+09	  9.2691347347E+04	  1.1843750000E+09	  4.9918851777E-01
  1.8700000993E+00	  1.3103224024E+09	  9.1242264929E+04	  1.1843750000E+09	  4.9918930179E-01
  1.8800001815E+00	  1.3037966943E+09	  8.9832473313E+04	  1.1906250000E+09	  4.9919008300E-01
  1.8900002637E+00	  1.2974603453E+09	  8.8460268667E+04	  1.1968750000E+09	  4.9919085858E-01
  1.9000003459E+00	  1.2913029750E+09	  8.7123836856E+04	  1.2031250000E+09	  4.9919162926E-01
  1.9100004281E+00	  1.2853150337E+09	  8.5821450198E+04	  1.2093750000E+09	  4.9919239606E-01
  1.9200000216E+00	  1.2794871903E+09	  8.4551496293E+04	  1.2156250000E+09	  4.9919315884E-01
  1.9300001038E+00	  1.2736544930E+09	  8.3311848590E+04	  1.2218750000E+09	  4.9919391693E-01
  1.9356930070E+00	  1.2703328086E+09	  8.2618872375E+04	  1.2281250000E+09	  4.9919434689E-01
  1.9356934957E+00	  1.2703325258E+09	  8.2618813236E+04	  1.2281250000E+09	  4.9919434693E-01
  1.9356939843E+00	  1.2703322431E+09	  8.2618754096E+04	  1.2281250000E+09	  4.9919434696E-01
