mass element = 1.454537037037037 M_sun
   t [s]      T [K]      rho [g/cm^3]      r [cm]      Ye   Entropy: S =    4.557858677729639     k  
  0.0000000000E+00	  3.2256035833E+09	  2.6603351398E+06	  1.9570312500E+08	  4.9899322964E-01
  1.0000615727E-02	  3.2305833008E+09	  2.6734135075E+06	  1.9492187500E+08	  4.9899254734E-01
  2.0001675152E-02	  3.2362091863E+09	  2.6882783961E+06	  1.9414062500E+08	  4.9899183612E-01
  3.0000780099E-02	  3.2388793001E+09	  2.6954831277E+06	  1.9335937500E+08	  4.9899108729E-01
  4.0001839524E-02	  3.2463206725E+09	  2.7155193833E+06	  1.9257812500E+08	  4.9899030936E-01
  5.0000944471E-02	  3.2530267465E+09	  2.7335207672E+06	  1.9101562500E+08	  4.9898945154E-01
  6.0000049419E-02	  3.2586046825E+09	  2.7484509940E+06	  1.9023437500E+08	  4.9898852202E-01
  7.0001108844E-02	  3.2655087532E+09	  2.7669066302E+06	  1.8945312500E+08	  4.9898752673E-01
  8.0000213791E-02	  3.2734186708E+09	  2.7880075708E+06	  1.8789062500E+08	  4.9898637480E-01
  9.0001273216E-02	  3.2797488909E+09	  2.8048480189E+06	  1.8710937500E+08	  4.9898509001E-01
  1.0000037816E-01	  3.2860948492E+09	  2.8216910387E+06	  1.8554687500E+08	  4.9898367144E-01
  1.1000143759E-01	  3.2944067878E+09	  2.8437011821E+06	  1.8398437500E+08	  4.9898208793E-01
  1.2000054254E-01	  3.3040290686E+09	  2.8690863851E+06	  1.8320312500E+08	  4.9898005781E-01
  1.3000160196E-01	  3.3130865057E+09	  2.8952012221E+06	  1.8203125000E+08	  4.9897734708E-01
  1.4000070691E-01	  3.3219792480E+09	  2.9201700605E+06	  1.8046875000E+08	  4.9897419759E-01
  1.5000176633E-01	  3.3294501703E+09	  2.9415811031E+06	  1.7890625000E+08	  4.9897073608E-01
  1.6000087128E-01	  3.3378589197E+09	  2.9656684237E+06	  1.7734375000E+08	  4.9896714764E-01
  1.7000095347E-01	  3.3485980569E+09	  2.9963950600E+06	  1.7460937500E+08	  4.9896370627E-01
  1.8000005841E-01	  3.3569063911E+09	  3.0200309643E+06	  1.7226562500E+08	  4.9896071345E-01
  1.9000014060E-01	  3.3657321524E+09	  3.0438165112E+06	  1.6992187500E+08	  4.9895817041E-01
  2.0000022278E-01	  3.3743903909E+09	  3.0670523550E+06	  1.6757812500E+08	  4.9895598245E-01
  2.1000030497E-01	  3.3833088430E+09	  3.0932445647E+06	  1.6523437500E+08	  4.9895402891E-01
  2.2000038716E-01	  3.3915901634E+09	  3.1175848923E+06	  1.6289062500E+08	  4.9895220810E-01
  2.3000046934E-01	  3.4010779471E+09	  3.1454659159E+06	  1.5976562500E+08	  4.9895050210E-01
  2.4000006291E-01	  3.4064718447E+09	  3.1608619375E+06	  1.5703125000E+08	  4.9894889761E-01
  2.5000014509E-01	  3.4104248922E+09	  3.1719860757E+06	  1.5390625000E+08	  4.9894721527E-01
  2.6000022728E-01	  3.4142421693E+09	  3.1826145603E+06	  1.4882812500E+08	  4.9894553799E-01
  2.7000030947E-01	  3.4172307767E+09	  3.1906653540E+06	  1.4414062500E+08	  4.9894385993E-01
  2.8000039165E-01	  3.4215484539E+09	  3.2025709423E+06	  1.3984375000E+08	  4.9894215204E-01
  2.9000047384E-01	  3.4294654866E+09	  3.2251004766E+06	  1.3359375000E+08	  4.9894043345E-01
  3.0000006741E-01	  3.4449629087E+09	  3.2698843680E+06	  1.2734375000E+08	  4.9893868129E-01
  3.1000014959E-01	  3.4738296297E+09	  3.3535661318E+06	  1.2109375000E+08	  4.9893684828E-01
  3.2000023178E-01	  3.5186506586E+09	  3.4908590794E+06	  1.1406250000E+08	  4.9893479181E-01
  3.3000031397E-01	  3.5848810086E+09	  3.7087762414E+06	  1.0468750000E+08	  4.9893227210E-01
  3.4000039615E-01	  3.6908935835E+09	  4.0580670902E+06	  9.2968750000E+07	  4.9892838339E-01
  3.5000047834E-01	  3.8485419375E+09	  4.6428041919E+06	  8.2031250000E+07	  4.9891205765E-01
  3.6000007191E-01	  4.1103272904E+09	  5.7429842010E+06	  6.6796875000E+07	  4.9887994868E-01
  3.7000015409E-01	  4.5900168412E+09	  8.3544292059E+06	  4.8632812500E+07	  4.9881518455E-01
  3.8000023628E-01	  9.9566008954E+09	  9.6395938984E+07	  2.3095703125E+07	  4.9846864194E-01
  3.9000031846E-01	  1.2881240446E+10	  2.7240553898E+08	  2.0068359375E+07	  5.0060464958E-01
  4.0000028199E-01	  1.5308236037E+10	  3.4180414823E+08	  1.6845703125E+07	  5.0208267388E-01
  4.1000037133E-01	  2.1040622380E+10	  4.7029517883E+08	  1.3037109375E+07	  5.0171446901E-01
  4.2000028086E-01	  3.0259649704E+10	  1.1031489132E+09	  8.5327148438E+06	  4.8767298410E-01
  4.3000005580E-01	  4.6921607684E+10	  6.2395010879E+09	  4.9194335938E+06	  3.9159010733E-01
  4.4000033296E-01	  4.8337494188E+10	  6.2026642316E+10	  3.8452148438E+06	  1.8082227868E-01
  4.5000035246E-01	  5.1554438674E+10	  1.5547115483E+11	  3.5034179688E+06	  1.3423983096E-01
  4.6000002996E-01	  5.5041116002E+10	  2.7580138108E+11	  3.2836914062E+06	  1.1619126945E-01
  4.7000002504E-01	  5.8327638000E+10	  4.1964009190E+11	  3.1372070312E+06	  1.0673472996E-01
  4.8000026749E-01	  6.1511844561E+10	  5.8352428537E+11	  3.0151367188E+06	  1.0106209610E-01
  4.9000010819E-01	  6.4537657396E+10	  7.6544074347E+11	  2.9174804688E+06	  9.7441153212E-02
  5.0000002879E-01	  6.7289813902E+10	  9.6613519403E+11	  2.8198242188E+06	  9.4676069880E-02
  5.1000016235E-01	  7.0032754237E+10	  1.1788626104E+12	  2.7465820312E+06	  9.2840169657E-02
  5.2000034769E-01	  7.2561213479E+10	  1.4057451952E+12	  2.6733398438E+06	  9.1304401464E-02
  5.3000022949E-01	  7.4854148650E+10	  1.6459190862E+12	  2.6245117188E+06	  8.9895973136E-02
  5.4000031482E-01	  7.6995468762E+10	  1.8954577268E+12	  2.5512695312E+06	  8.8813272122E-02
  5.5000017386E-01	  7.9101792004E+10	  2.1487868049E+12	  2.5024414062E+06	  8.8056708967E-02
  5.6000008950E-01	  8.1007047319E+10	  2.4077544352E+12	  2.4536132812E+06	  8.7288834072E-02
  5.7000033035E-01	  8.2656710883E+10	  2.6718140161E+12	  2.4291992188E+06	  8.6490248284E-02
  5.8000001179E-01	  8.4140779541E+10	  2.9365210838E+12	  2.3803710938E+06	  8.5678324127E-02
  5.9000032777E-01	  8.5423967794E+10	  3.2011413419E+12	  2.3559570312E+06	  8.4841536743E-02
  6.0000020793E-01	  8.6617883104E+10	  3.4587684025E+12	  2.3315429688E+06	  8.4070384881E-02
  6.1000023161E-01	  8.7692885547E+10	  3.7094575486E+12	  2.2827148438E+06	  8.3368788902E-02
  6.2000008696E-01	  8.8648632120E+10	  3.9504459205E+12	  2.2583007812E+06	  8.2687570506E-02
  6.3000016914E-01	  8.9484378128E+10	  4.1847581290E+12	  2.2338867188E+06	  8.2002631829E-02
  6.4000025133E-01	  9.0208635615E+10	  4.4102777291E+12	  2.2094726562E+06	  8.1318151418E-02
  6.5000033351E-01	  9.0857735634E+10	  4.6272993482E+12	  2.2094726562E+06	  8.0693924219E-02
  6.6000041570E-01	  9.1414841241E+10	  4.8394790224E+12	  2.1850585938E+06	  8.0050705557E-02
  6.7000000927E-01	  9.1927284846E+10	  5.0443996310E+12	  2.1606445312E+06	  7.9503934831E-02
  6.8000009145E-01	  9.2427143240E+10	  5.2432730034E+12	  2.1362304688E+06	  7.8994775982E-02
  6.9000017364E-01	  9.2852569088E+10	  5.4366037644E+12	  2.1362304688E+06	  7.8461749170E-02
  7.0000025582E-01	  9.3234828977E+10	  5.6284180985E+12	  2.1118164062E+06	  7.7980103158E-02
  7.1000033801E-01	  9.3608625480E+10	  5.8143451456E+12	  2.0874023438E+06	  7.7487523064E-02
  7.2000042019E-01	  9.3958532261E+10	  5.9960468927E+12	  2.0874023438E+06	  7.7048241978E-02
  7.3000001376E-01	  9.4282211049E+10	  6.1790779930E+12	  2.0629882812E+06	  7.6590162884E-02
  7.4000009594E-01	  9.4623017671E+10	  6.3575460296E+12	  2.0629882812E+06	  7.6168648454E-02
  7.5000017813E-01	  9.4872691604E+10	  6.5444763795E+12	  2.0385742188E+06	  7.5674984599E-02
  7.6000026031E-01	  9.5224981558E+10	  6.7238899215E+12	  2.0141601562E+06	  7.5257506068E-02
  7.7000034250E-01	  9.5446397787E+10	  6.9097306579E+12	  2.0141601562E+06	  7.4815805725E-02
  7.8000042468E-01	  9.5783489304E+10	  7.0888765021E+12	  1.9897460938E+06	  7.4402268733E-02
  7.9000001825E-01	  9.6013707950E+10	  7.2778768115E+12	  1.9897460938E+06	  7.4000030777E-02
  8.0000010044E-01	  9.6321123647E+10	  7.4596519905E+12	  1.9653320312E+06	  7.3556023573E-02
  8.0848644009E-01	  9.6525730834E+10	  7.6169436378E+12	  1.9653320312E+06	  7.3257487950E-02
  8.1000018262E-01	  9.6558616411E+10	  7.6461745355E+12	  1.9653320312E+06	  7.3200134807E-02
  8.2000026481E-01	  9.6796432015E+10	  7.8416834489E+12	  1.9653320312E+06	  7.2729167307E-02
  8.3000034699E-01	  9.7072088522E+10	  8.0278635939E+12	  1.9409179688E+06	  7.2349012637E-02
  8.4000042918E-01	  9.7245434727E+10	  8.2243020225E+12	  1.9409179688E+06	  7.1895945424E-02
  8.5000002274E-01	  9.7532645004E+10	  8.4100028844E+12	  1.9165039062E+06	  7.1561612461E-02
  8.6000010493E-01	  9.7773768601E+10	  8.6052767390E+12	  1.9165039062E+06	  7.1143209938E-02
  8.7000018711E-01	  9.7916302705E+10	  8.8116433318E+12	  1.8920898438E+06	  7.0623627511E-02
  8.8000026930E-01	  9.8200890279E+10	  8.9966578349E+12	  1.8920898438E+06	  7.0356120260E-02
  8.9000035148E-01	  9.8429846121E+10	  9.2007769365E+12	  1.8920898438E+06	  6.9924675450E-02
  9.0000043367E-01	  9.8564078553E+10	  9.4114673739E+12	  1.8676757812E+06	  6.9501509406E-02
  9.1000002723E-01	  9.8803943318E+10	  9.6055077107E+12	  1.8676757812E+06	  6.9217184332E-02
  9.2000010942E-01	  9.9042218147E+10	  9.8026327773E+12	  1.8676757812E+06	  6.8881705860E-02
  9.3000019160E-01	  9.9138478997E+10	  1.0014135623E+13	  1.8432617188E+06	  6.8486945421E-02
  9.4000027379E-01	  9.9340631761E+10	  1.0211171606E+13	  1.8432617188E+06	  6.8186009206E-02
  9.5000035598E-01	  9.9541924647E+10	  1.0413570562E+13	  1.8432617188E+06	  6.7846598421E-02
  9.6000043816E-01	  9.9664810237E+10	  1.0620225311E+13	  1.8188476562E+06	  6.7483920822E-02
  9.7000003173E-01	  9.9843691520E+10	  1.0822594138E+13	  1.8188476562E+06	  6.7151027263E-02
  9.8000011391E-01	  1.0004271593E+11	  1.1026077995E+13	  1.8188476562E+06	  6.6834980355E-02
  9.9000019610E-01	  1.0019315888E+11	  1.1232583366E+13	  1.7944335938E+06	  6.6545849523E-02
  1.0000002783E+00	  1.0031723739E+11	  1.1441529146E+13	  1.7944335938E+06	  6.6192451758E-02
  1.0100003605E+00	  1.0051159750E+11	  1.1649250393E+13	  1.7944335938E+06	  6.5857444203E-02
  1.0200004427E+00	  1.0066164285E+11	  1.1863166862E+13	  1.7700195312E+06	  6.5488749440E-02
  1.0300000362E+00	  1.0070771670E+11	  1.2077465042E+13	  1.7700195312E+06	  6.5197121000E-02
  1.0400001184E+00	  1.0082099795E+11	  1.2289542368E+13	  1.7700195312E+06	  6.4856684056E-02
  1.0500002006E+00	  1.0099551033E+11	  1.2496285532E+13	  1.7700195312E+06	  6.4494341183E-02
  1.0600002828E+00	  1.0112108894E+11	  1.2705147916E+13	  1.7456054688E+06	  6.4174090835E-02
  1.0700003650E+00	  1.0118559541E+11	  1.2923351022E+13	  1.7456054688E+06	  6.3879264450E-02
  1.0800004472E+00	  1.0128780678E+11	  1.3137253121E+13	  1.7456054688E+06	  6.3577041625E-02
  1.0900000407E+00	  1.0148668849E+11	  1.3342250176E+13	  1.7456054688E+06	  6.3273390046E-02
  1.1000001229E+00	  1.0161681586E+11	  1.3550128053E+13	  1.7211914062E+06	  6.2954796416E-02
  1.1100002051E+00	  1.0172031265E+11	  1.3755447473E+13	  1.7211914062E+06	  6.2709856482E-02
  1.1200002873E+00	  1.0183702507E+11	  1.3973806402E+13	  1.7211914062E+06	  6.2425684903E-02
  1.1300003695E+00	  1.0194956124E+11	  1.4201393783E+13	  1.7211914062E+06	  6.2062415922E-02
  1.1400004517E+00	  1.0207687401E+11	  1.4424155247E+13	  1.6967773438E+06	  6.1731438837E-02
  1.1500000452E+00	  1.0212746583E+11	  1.4646229648E+13	  1.6967773438E+06	  6.1432878700E-02
  1.1600001274E+00	  1.0220511265E+11	  1.4871519523E+13	  1.6967773438E+06	  6.1133283879E-02
  1.1700002096E+00	  1.0232511313E+11	  1.5098239461E+13	  1.6967773438E+06	  6.0807265601E-02
  1.1800002918E+00	  1.0241666832E+11	  1.5349110248E+13	  1.6967773438E+06	  6.0372877792E-02
  1.1900003740E+00	  1.0243435803E+11	  1.5589941847E+13	  1.6723632812E+06	  6.0033906295E-02
  1.2000004562E+00	  1.0247712043E+11	  1.5819923160E+13	  1.6723632812E+06	  5.9817291013E-02
  1.2100000497E+00	  1.0257867295E+11	  1.6044365066E+13	  1.6723632812E+06	  5.9574679240E-02
  1.2200001319E+00	  1.0270539092E+11	  1.6275823938E+13	  1.6723632812E+06	  5.9285798688E-02
  1.2300002141E+00	  1.0285664969E+11	  1.6512458111E+13	  1.6723632812E+06	  5.8977558823E-02
  1.2400002963E+00	  1.0291357182E+11	  1.6749053854E+13	  1.6479492188E+06	  5.8760227253E-02
  1.2500003785E+00	  1.0293754536E+11	  1.6998946797E+13	  1.6479492188E+06	  5.8509759407E-02
  1.2600004607E+00	  1.0297303664E+11	  1.7248993583E+13	  1.6479492188E+06	  5.8237871941E-02
  1.2700000542E+00	  1.0306547520E+11	  1.7491660432E+13	  1.6479492188E+06	  5.7966553369E-02
  1.2800001364E+00	  1.0318881567E+11	  1.7734710430E+13	  1.6479492188E+06	  5.7630282169E-02
  1.2900002186E+00	  1.0324051307E+11	  1.7965609944E+13	  1.6235351562E+06	  5.7405000523E-02
  1.3000003008E+00	  1.0328534121E+11	  1.8206139166E+13	  1.6235351562E+06	  5.7199281950E-02
  1.3100003830E+00	  1.0333791344E+11	  1.8465245176E+13	  1.6235351562E+06	  5.6933021330E-02
  1.3200004652E+00	  1.0333159817E+11	  1.8747564417E+13	  1.6235351562E+06	  5.6588030944E-02
  1.3300000588E+00	  1.0335535377E+11	  1.9024531441E+13	  1.6235351562E+06	  5.6218649504E-02
  1.3400001409E+00	  1.0338587028E+11	  1.9280791974E+13	  1.5991210938E+06	  5.5931174589E-02
  1.3500002231E+00	  1.0337557271E+11	  1.9521342439E+13	  1.5991210938E+06	  5.5729430172E-02
  1.3600003053E+00	  1.0342965150E+11	  1.9754887701E+13	  1.5991210938E+06	  5.5532316721E-02
  1.3700003875E+00	  1.0347290096E+11	  2.0010613156E+13	  1.5991210938E+06	  5.5278960308E-02
  1.3800004697E+00	  1.0347429232E+11	  2.0291867539E+13	  1.5991210938E+06	  5.4941941332E-02
  1.3900000633E+00	  1.0350904338E+11	  2.0567701972E+13	  1.5991210938E+06	  5.4583707523E-02
  1.4000001454E+00	  1.0349686854E+11	  2.0836889719E+13	  1.5747070312E+06	  5.4263040597E-02
  1.4100002276E+00	  1.0348818572E+11	  2.1070092715E+13	  1.5747070312E+06	  5.4107714021E-02
  1.4200003098E+00	  1.0351525190E+11	  2.1307602504E+13	  1.5747070312E+06	  5.3944055374E-02
  1.4300003920E+00	  1.0352633525E+11	  2.1567467626E+13	  1.5747070312E+06	  5.3706103174E-02
  1.4400004742E+00	  1.0357806481E+11	  2.1831876795E+13	  1.5747070312E+06	  5.3437891146E-02
  1.4500000678E+00	  1.0362408560E+11	  2.2106916246E+13	  1.5747070312E+06	  5.3119406370E-02
  1.4600001500E+00	  1.0365061696E+11	  2.2397792291E+13	  1.5747070312E+06	  5.2744203872E-02
  1.4700002321E+00	  1.0359036219E+11	  2.2665470893E+13	  1.5502929688E+06	  5.2461066804E-02
  1.4800003143E+00	  1.0345226296E+11	  2.2944907622E+13	  1.5502929688E+06	  5.2185760087E-02
  1.4900003965E+00	  1.0340388594E+11	  2.3202033674E+13	  1.5502929688E+06	  5.1957274454E-02
  1.5000004787E+00	  1.0343900215E+11	  2.3431099557E+13	  1.5502929688E+06	  5.1789498895E-02
  1.5100000723E+00	  1.0350195667E+11	  2.3659224616E+13	  1.5502929688E+06	  5.1613826127E-02
  1.5200001545E+00	  1.0358674620E+11	  2.3895427598E+13	  1.5502929688E+06	  5.1416331000E-02
  1.5300002366E+00	  1.0366922377E+11	  2.4150178539E+13	  1.5502929688E+06	  5.1164069328E-02
  1.5400003188E+00	  1.0369360110E+11	  2.4439013576E+13	  1.5502929688E+06	  5.0804761203E-02
  1.5500004010E+00	  1.0358537848E+11	  2.4685344593E+13	  1.5258789062E+06	  5.0582064089E-02
  1.5600004832E+00	  1.0344442076E+11	  2.4958722065E+13	  1.5258789062E+06	  5.0324920164E-02
  1.5700000768E+00	  1.0333262775E+11	  2.5228389049E+13	  1.5258789062E+06	  5.0070399659E-02
  1.5800001590E+00	  1.0331902437E+11	  2.5467695046E+13	  1.5258789062E+06	  4.9893439480E-02
  1.5900002412E+00	  1.0334907318E+11	  2.5699532480E+13	  1.5258789062E+06	  4.9750252437E-02
  1.6000003233E+00	  1.0342579830E+11	  2.5925444949E+13	  1.5258789062E+06	  4.9612613072E-02
  1.6100004055E+00	  1.0350293041E+11	  2.6160564936E+13	  1.5258789062E+06	  4.9453342568E-02
  1.6200004877E+00	  1.0356131548E+11	  2.6414510750E+13	  1.5258789062E+06	  4.9248814069E-02
  1.6300000813E+00	  1.0357622434E+11	  2.6673606839E+13	  1.5014648438E+06	  4.9027600123E-02
  1.6400001635E+00	  1.0345260713E+11	  2.6909760970E+13	  1.5014648438E+06	  4.8883870008E-02
  1.6500002457E+00	  1.0327906933E+11	  2.7184494853E+13	  1.5014648438E+06	  4.8679831306E-02
  1.6600003278E+00	  1.0314901727E+11	  2.7456415749E+13	  1.5014648438E+06	  4.8477807370E-02
  1.6700004100E+00	  1.0308527793E+11	  2.7715632942E+13	  1.5014648438E+06	  4.8299738630E-02
  1.6800000036E+00	  1.0305802585E+11	  2.7963110468E+13	  1.5014648438E+06	  4.8118941967E-02
  1.6900000858E+00	  1.0308501228E+11	  2.8199874812E+13	  1.5014648438E+06	  4.7947841889E-02
  1.7000001680E+00	  1.0313330259E+11	  2.8443397292E+13	  1.5014648438E+06	  4.7779331203E-02
  1.7100002502E+00	  1.0318758861E+11	  2.8694515506E+13	  1.5014648438E+06	  4.7600549555E-02
  1.7200003324E+00	  1.0323849861E+11	  2.8960358204E+13	  1.5014648438E+06	  4.7401302115E-02
  1.7300004145E+00	  1.0324665121E+11	  2.9189729770E+13	  1.4770507812E+06	  4.7254777280E-02
  1.7400000081E+00	  1.0318778615E+11	  2.9382080911E+13	  1.4770507812E+06	  4.7198311983E-02
  1.7500000903E+00	  1.0305984298E+11	  2.9625887235E+13	  1.4770507812E+06	  4.7067715324E-02
  1.7600001725E+00	  1.0292396493E+11	  2.9888094679E+13	  1.4770507812E+06	  4.6900748336E-02
  1.7700002547E+00	  1.0283788887E+11	  3.0142654844E+13	  1.4770507812E+06	  4.6737687162E-02
  1.7800003369E+00	  1.0281333843E+11	  3.0382539507E+13	  1.4770507812E+06	  4.6600342676E-02
  1.7900004190E+00	  1.0282140614E+11	  3.0624567552E+13	  1.4770507812E+06	  4.6449357506E-02
  1.8000000126E+00	  1.0283579331E+11	  3.0877675971E+13	  1.4770507812E+06	  4.6278633518E-02
  1.8100000948E+00	  1.0286452076E+11	  3.1140090684E+13	  1.4770507812E+06	  4.6096478189E-02
  1.8200001770E+00	  1.0290164459E+11	  3.1411085762E+13	  1.4770507812E+06	  4.5886916795E-02
  1.8300002592E+00	  1.0293535503E+11	  3.1683908226E+13	  1.4770507812E+06	  4.5649996118E-02
  1.8400003414E+00	  1.0293591009E+11	  3.1918389611E+13	  1.4526367188E+06	  4.5484404360E-02
  1.8500004236E+00	  1.0289581333E+11	  3.2079346632E+13	  1.4526367188E+06	  4.5460134034E-02
  1.8600000171E+00	  1.0285172290E+11	  3.2261462537E+13	  1.4526367188E+06	  4.5418380347E-02
  1.8700000993E+00	  1.0277037219E+11	  3.2481215021E+13	  1.4526367188E+06	  4.5341196108E-02
  1.8800001815E+00	  1.0264652797E+11	  3.2735504955E+13	  1.4526367188E+06	  4.5210977064E-02
  1.8900002637E+00	  1.0257738429E+11	  3.2976122971E+13	  1.4526367188E+06	  4.5083961648E-02
  1.9000003459E+00	  1.0252687839E+11	  3.3222875036E+13	  1.4526367188E+06	  4.4942724733E-02
  1.9100004281E+00	  1.0250655939E+11	  3.3466819500E+13	  1.4526367188E+06	  4.4807840579E-02
  1.9200000216E+00	  1.0250413802E+11	  3.3713146969E+13	  1.4526367188E+06	  4.4666033322E-02
  1.9300001038E+00	  1.0250566388E+11	  3.3958769422E+13	  1.4526367188E+06	  4.4515959920E-02
  1.9356930070E+00	  1.0250802819E+11	  3.4098641790E+13	  1.4526367188E+06	  4.4426682252E-02
  1.9356934957E+00	  1.0250802848E+11	  3.4098653821E+13	  1.4526367188E+06	  4.4426674465E-02
  1.9356939843E+00	  1.0250802874E+11	  3.4098665837E+13	  1.4526367188E+06	  4.4426666677E-02
