n 2.589534936936456e-40
h1 0.07389506580216548
he4 0.22789174619522154
h2 2.8758645841380104e-19
h3 7.932835422773385e-34
he3 5.355800355765022e-10
li6 6.118103047754214e-26
li7 2.573440758583492e-20
li8 4.9293536106668825e-40
li9 8.392992403752047e-78
be7 8.311985361078942e-21
be9 1.2912526634074945e-54
be10 2.059227752232727e-22
be11 4.486419045595129e-59
be12 0.0
b8 6.885140054433965e-37
b10 3.3376573343211188e-25
b11 3.288486296189483e-32
b12 1.2813647467502129e-71
b13 0.0
b14 0.0
c10 0.0
c11 1.5801528464456807e-41
c12 1.0105353484917548e-05
c13 2.9898992360789097e-06
c14 4.153659528023028e-23
c15 2.0930435619345076e-62
c16 0.0
c17 0.0
c18 0.0
n11 0.0
n12 1.996389678300852e-65
n13 5.6505951571392384e-24
n14 0.0006533974650742477
n15 2.3540823065933235e-08
n16 2.064357694402803e-46
n17 2.7711788550688937e-84
n18 0.0
n19 0.0
n20 0.0
n21 0.0
o13 5.670373950631291e-90
o14 0.0
o15 1.297333330182156e-25
o16 1.1322384748367703e-05
o17 2.2449209281000303e-08
o18 2.398335362506366e-11
o19 1.3668413241251366e-48
o20 3.596266294698337e-87
o21 0.0
o22 0.0
f16 0.0
f17 3.936933091298538e-30
f18 9.88606256072031e-31
f19 2.0797115166694074e-12
f20 2.9715115017995826e-87
f21 0.0
f22 0.0
f23 0.0
f24 0.0
f25 0.0
f26 0.0
ne16 0.0
ne17 0.0
ne18 1.8591487384062962e-59
ne19 4.7570916485708254e-55
ne20 5.704045128328009e-05
ne21 1.491830825943814e-07
ne22 1.289941889643765e-07
ne23 1.329657052252652e-42
ne24 1.659458482017046e-75
ne25 0.0
ne26 0.0
ne27 0.0
ne28 0.0
ne29 0.0
na19 0.0
na20 4.855952609964763e-89
na21 1.0059123765306381e-30
na22 4.315297678898807e-26
na23 7.282853438349415e-06
na24 5.0397593887777296e-36
na25 4.1172311503784034e-69
na26 0.0
na27 0.0
na28 0.0
na29 0.0
na30 0.0
na31 0.0
na32 0.0
mg20 0.0
mg21 0.0
mg22 1.8813576371085248e-64
mg23 3.883410474446137e-51
mg24 2.3554102414175497e-05
mg25 9.226978629733122e-08
mg26 4.979601962774353e-06
mg27 1.9929952198029396e-39
mg28 1.9470570390810124e-69
mg29 0.0
mg30 0.0
mg31 0.0
mg32 0.0
mg33 0.0
mg34 0.0
mg35 0.0
al22 0.0
al23 0.0
al24 3.21313009113233e-87
al25 3.282877708016325e-36
al26 7.219754265411112e-07
al27 2.932379895183402e-06
al28 9.013617603129333e-39
al29 1.826477551255097e-70
al30 0.0
al31 0.0
al32 0.0
al33 0.0
al34 0.0
al35 0.0
al36 0.0
al37 0.0
al38 0.0
si23 0.0
si24 0.0
si25 0.0
si26 3.3316773194919225e-73
si27 2.114746221083861e-42
si28 2.69645203483412e-05
si29 1.3692571306627477e-06
si30 9.026180298987599e-07
si31 3.1393961465573686e-37
si32 5.934297707047651e-61
si33 7.3179010609092264e-96
si34 0.0
si35 0.0
si36 0.0
si37 0.0
si38 0.0
si39 0.0
si40 0.0
si41 0.0
p25 0.0
p26 0.0
p27 0.0
p28 4.280320064459297e-77
p29 4.316248526040858e-37
p30 4.80796051548407e-45
p31 2.4563869520323703e-07
p32 2.9879886180427286e-36
p33 1.0322597273553655e-36
p34 1.948962017947348e-70
p35 5.869601438364087e-89
p36 0.0
p37 0.0
p38 0.0
p39 0.0
p40 0.0
p41 0.0
p42 0.0
p43 0.0
p44 0.0
s27 0.0
s28 0.0
s29 0.0
s30 4.124685511170951e-80
s31 9.841441683765662e-80
s32 1.2374683635565369e-05
s33 9.782111459883888e-08
s34 5.4705865e-07
s35 2.3729536946771172e-35
s36 2.2223137722222224e-09
s37 5.04382434199188e-43
s38 3.506083722794091e-74
s39 0.0
s40 0.0
s41 0.0
s42 0.0
s43 0.0
s44 0.0
s45 0.0
s46 0.0
s47 0.0
cl29 0.0
cl30 0.0
cl31 0.0
cl32 0.0
cl33 1.8166771322659142e-50
cl34 1.4958847638720407e-41
cl35 1.1599475457142859e-07
cl36 3.082514018250069e-21
cl37 3.7115309189189184e-08
cl38 1.0475921105517359e-39
cl39 2.4863364476441087e-70
cl40 0.0
cl41 0.0
cl42 0.0
cl43 0.0
cl44 0.0
cl45 0.0
cl46 0.0
cl47 0.0
cl48 0.0
cl49 0.0
cl50 0.0
ar31 0.0
ar32 0.0
ar33 0.0
ar34 1.2272702737862111e-88
ar35 2.1245197183839345e-79
ar36 2.536014297222222e-06
ar37 3.1324534058735766e-34
ar38 4.605179526315789e-07
ar39 1.1889587640153579e-31
ar40 7.0266872116172e-10
ar41 5.894827540346633e-41
ar42 2.7240210221068057e-66
ar43 9.880055324186698e-99
ar44 0.0
ar45 0.0
ar46 0.0
ar47 0.0
ar48 0.0
ar49 0.0
ar50 0.0
ar51 0.0
ar52 0.0
k32 0.0
k33 0.0
k34 0.0
k35 0.0
k36 0.0
k37 6.995166073501041e-42
k38 1.0895991061316446e-73
k39 1.0076923846153844e-07
k40 1.6137260567130474e-10
k41 7.318359097560976e-09
k42 3.901785986710607e-38
k43 9.97505982568638e-67
k44 9.904823246440583e-98
k45 0.0
k46 0.0
k47 0.0
k48 0.0
k49 0.0
k50 0.0
k51 0.0
k52 0.0
k53 0.0
k54 0.0
k55 0.0
ca35 0.0
ca36 0.0
ca37 0.0
ca38 0.0
ca39 0.0
ca40 1.782441325e-06
ca41 2.6159838249704294e-20
ca42 1.190473407411184e-08
ca43 2.488468206681459e-09
ca44 3.840808500640325e-08
ca45 2.2386655967832944e-35
ca46 7.304163413043479e-11
ca47 6.565950776687671e-40
ca48 3.458302958333333e-09
ca49 7.067039363919308e-42
ca50 6.844043101491177e-76
ca51 0.0
ca52 0.0
ca53 0.0
ca54 0.0
ca55 0.0
ca56 0.0
ca57 0.0
sc36 0.0
sc37 0.0
sc38 0.0
sc39 0.0
sc40 0.0
sc41 2.0794219494046587e-42
sc42 4.7637003537200176e-79
sc43 5.696130242613354e-47
sc44 1.1201429133851319e-76
sc45 1.0011078346164118e-09
sc46 2.7464161199498962e-36
sc47 4.848105296825926e-40
sc48 1.175835675835744e-68
sc49 4.636783662484262e-41
sc50 7.95148897696798e-74
sc51 0.0
sc52 0.0
sc53 0.0
sc54 0.0
sc55 0.0
sc56 0.0
sc57 0.0
sc58 0.0
sc59 0.0
ti39 0.0
ti40 0.0
ti41 0.0
ti42 0.0
ti43 0.0
ti44 0.0
ti45 0.0
ti46 5.8475261521739125e-09
ti47 5.2541297452803046e-09
ti48 5.228682230927562e-08
ti49 3.842672716294323e-09
ti50 3.6803477200000006e-09
ti51 1.899163385607186e-41
ti52 5.608606199247639e-74
ti53 0.0
ti54 0.0
ti55 0.0
ti56 0.0
ti57 0.0
ti58 0.0
ti59 0.0
ti60 0.0
ti61 0.0
ti62 0.0
v41 0.0
v42 0.0
v43 0.0
v44 0.0
v45 0.0
v46 0.0
v47 0.0
v48 2.421961823730374e-45
v49 7.191904650972098e-42
v50 2.09945236e-11
v51 8.413300176470588e-09
v52 3.8403810408306885e-40
v53 6.40333818170182e-72
v54 0.0
v55 0.0
v56 0.0
v57 0.0
v58 0.0
v59 0.0
v60 0.0
v61 0.0
v62 0.0
v63 0.0
v64 0.0
v65 0.0
cr43 0.0
cr44 0.0
cr45 0.0
cr46 0.0
cr47 0.0
cr48 0.0
cr49 0.0
cr50 1.6336785840000003e-08
cr51 7.982191790156742e-36
cr52 3.153741288461538e-07
cr53 3.566051603773585e-08
cr54 8.898800907407406e-09
cr55 4.699007422494388e-41
cr56 1.0292866897632335e-72
cr57 0.0
cr58 0.0
cr59 0.0
cr60 0.0
cr61 0.0
cr62 0.0
cr63 0.0
cr64 0.0
cr65 0.0
cr66 0.0
cr67 0.0
cr68 0.0
mn45 0.0
mn46 0.0
mn47 0.0
mn48 0.0
mn49 0.0
mn50 0.0
mn51 0.0
mn52 0.0
mn53 2.2416023285982648e-22
mn54 2.505803945903518e-48
mn55 2.6737974181818186e-07
mn56 4.959931200392807e-37
mn57 1.3532590818394887e-68
mn58 0.0
mn59 0.0
mn60 0.0
mn61 0.0
mn62 0.0
mn63 0.0
mn64 0.0
mn65 0.0
mn66 0.0
mn67 0.0
mn68 0.0
mn69 0.0
mn70 0.0
mn71 0.0
fe47 0.0
fe48 0.0
fe49 0.0
fe50 0.0
fe51 0.0
fe52 0.0
fe53 0.0
fe54 1.4313164648148147e-06
fe55 1.4511635411760753e-32
fe56 2.2499013214285717e-05
fe57 5.200918210526316e-07
fe58 6.90872474137931e-08
fe59 1.2016348855865058e-35
fe60 7.066425957679162e-20
fe61 5.25412580615025e-52
fe62 2.0401163308029092e-84
fe63 0.0
fe64 0.0
fe65 0.0
fe66 0.0
fe67 0.0
fe68 0.0
fe69 0.0
fe70 0.0
fe71 0.0
fe72 0.0
fe73 0.0
fe74 0.0
co48 0.0
co49 0.0
co50 0.0
co51 0.0
co52 0.0
co53 0.0
co54 0.0
co55 0.0
co56 0.0
co57 0.0
co58 5.7712480308823845e-43
co59 6.810516237288135e-08
co60 2.4846805478611215e-25
co61 8.698879258622608e-51
co62 1.0477703564253023e-82
co63 1.9657925172271528e-98
co64 0.0
co65 0.0
co66 0.0
co67 0.0
co68 0.0
co69 0.0
co70 0.0
co71 0.0
co72 0.0
co73 0.0
co74 0.0
co75 0.0
co76 0.0
co77 0.0
ni51 0.0
ni52 0.0
ni53 0.0
ni54 0.0
ni55 0.0
ni56 0.0
ni57 0.0
ni58 9.515705810344829e-07
ni59 7.441080326164211e-20
ni60 3.6663709666666666e-07
ni61 1.5967537967213114e-08
ni62 5.0806117258064515e-08
ni63 2.7814457097307516e-32
ni64 1.2924232859375e-08
ni65 4.052509645875396e-39
ni66 8.895846393364665e-68
ni67 0.0
ni68 6.172331139056342e-89
ni69 0.0
ni70 0.0
ni71 0.0
ni72 0.0
ni73 0.0
ni74 0.0
ni75 0.0
ni76 0.0
ni77 0.0
ni78 0.0
ni79 0.0
cu52 0.0
cu53 0.0
cu54 0.0
cu55 0.0
cu56 0.0
cu57 0.0
cu58 0.0
cu59 0.0
cu60 0.0
cu61 2.28070009751943e-65
cu62 3.1347550651239206e-96
cu63 1.0668634634920636e-08
cu64 2.2957696833155086e-37
cu65 4.757335430769231e-09
cu66 2.856728964718475e-40
cu67 6.934736395325491e-55
cu68 8.173562747861148e-73
cu69 1.2253936010009473e-82
cu70 0.0
cu71 0.0
cu72 0.0
cu73 0.0
cu74 0.0
cu75 0.0
cu76 0.0
cu77 0.0
cu78 0.0
cu79 0.0
cu80 0.0
cu81 0.0
cu82 0.0
zn55 0.0
zn56 0.0
zn57 0.0
zn58 0.0
zn59 0.0
zn60 0.0
zn61 0.0
zn62 0.0
zn63 0.0
zn64 1.749777609375e-08
zn65 8.946136231229008e-35
zn66 9.99949146969697e-09
zn67 1.4719763985074626e-09
zn68 6.721050382352942e-09
zn69 1.7214709559081633e-39
zn70 2.2283978714285713e-10
zn71 2.802068627800439e-42
zn72 1.0669392817873206e-70
zn73 0.0
zn74 0.0
zn75 0.0
zn76 0.0
zn77 0.0
zn78 0.0
zn79 0.0
zn80 0.0
zn81 0.0
zn82 0.0
zn83 0.0
zn84 0.0
ga57 0.0
ga58 0.0
ga59 0.0
ga60 0.0
ga61 0.0
ga62 0.0
ga63 0.0
ga64 0.0
ga65 0.0
ga66 0.0
ga67 0.0
ga68 0.0
ga69 6.319840405797102e-10
ga70 5.119739133776599e-40
ga71 4.1976148732394367e-10
ga72 1.2067220510711774e-38
ga73 2.5494354717701474e-67
ga74 3.512772172371901e-98
ga75 0.0
ga76 0.0
ga77 0.0
ga78 0.0
ga79 0.0
ga80 0.0
ga81 0.0
ga82 0.0
ga83 0.0
ga84 0.0
ga85 0.0
ga86 0.0
ge59 0.0
ge60 0.0
ge61 0.0
ge62 0.0
ge63 0.0
ge64 0.0
ge65 0.0
ge66 0.0
ge67 0.0
ge68 0.0
ge69 0.0
ge70 7.486887857142858e-10
ge71 2.666227821192624e-37
ge72 9.763367722222222e-10
ge73 2.725778575342466e-10
ge74 1.2662395608108108e-09
ge75 1.3972785988805411e-39
ge76 2.631227802631579e-10
ge77 1.4587159163512756e-39
ge78 1.865334250089007e-69
ge79 0.0
ge80 0.0
ge81 0.0
ge82 0.0
ge83 0.0
ge84 0.0
ge85 0.0
ge86 0.0
ge87 0.0
ge88 0.0
ge89 0.0
as61 0.0
as62 0.0
as63 0.0
as64 0.0
as65 0.0
as66 0.0
as67 0.0
as68 0.0
as69 0.0
as70 0.0
as71 0.0
as72 0.0
as73 0.0
as74 0.0
as75 1.78543588e-10
as76 3.944112681815295e-38
as77 5.0126029696612e-39
as78 1.9120731846568867e-68
as79 1.7404505821020612e-96
as80 0.0
as81 0.0
as82 0.0
as83 0.0
as84 0.0
as85 0.0
as86 0.0
as87 0.0
as88 0.0
as89 0.0
as90 0.0
as91 0.0
se64 0.0
se65 0.0
se66 0.0
se67 0.0
se68 0.0
se69 0.0
se70 0.0
se71 0.0
se72 0.0
se73 0.0
se74 1.7010418513513514e-11
se75 1.8370044019344289e-37
se76 1.8055146578947369e-10
se77 1.4669075194805195e-10
se78 4.577060371794872e-10
se79 4.063484448237091e-18
se80 9.5485856125e-10
se81 1.9591751166223767e-40
se82 1.682856e-10
se83 8.869370589284626e-42
se84 2.3618126819654457e-73
se85 0.0
se86 0.0
se87 0.0
se88 0.0
se89 0.0
se90 0.0
se91 0.0
se92 0.0
se93 0.0
br66 0.0
br67 0.0
br68 0.0
br69 0.0
br70 0.0
br71 0.0
br72 0.0
br73 0.0
br74 0.0
br75 0.0
br76 0.0
br77 0.0
br78 4.321979063194393e-72
br79 1.6820356962025315e-10
br80 3.941369570712336e-40
br81 1.6296280987654322e-10
br82 2.7254702293959314e-38
br83 5.727309078043539e-41
br84 5.114779343707112e-71
br85 1.4911646637060567e-96
br86 0.0
br87 0.0
br88 0.0
br89 0.0
br90 0.0
br91 0.0
br92 0.0
br93 0.0
br94 0.0
br95 0.0
kr69 0.0
kr70 0.0
kr71 0.0
kr72 0.0
kr73 0.0
kr74 0.0
kr75 0.0
kr76 0.0
kr77 0.0
kr78 5.8404149743589736e-12
kr79 7.825482553401656e-40
kr80 3.7657127875e-11
kr81 2.3714259168737602e-23
kr82 1.8794158902439025e-10
kr83 1.8662498313253014e-10
kr84 9.179063821428572e-10
kr85 5.119226417161952e-35
kr86 2.7790157441860466e-10
kr87 1.9490151148705974e-41
kr88 1.7958655508298989e-71
kr89 0.0
kr90 0.0
kr91 0.0
kr92 0.0
kr93 0.0
kr94 0.0
kr95 0.0
kr96 0.0
kr97 0.0
rb72 0.0
rb73 0.0
rb74 0.0
rb75 0.0
rb76 0.0
rb77 0.0
rb78 0.0
rb79 0.0
rb80 0.0
rb81 0.0
rb82 0.0
rb83 0.0
rb84 0.0
rb85 1.3886292470588236e-10
rb86 1.815921851339001e-37
rb87 5.6997021380951197e-11
rb88 4.591792500309382e-42
rb89 2.537567811869032e-72
rb90 0.0
rb91 0.0
rb92 0.0
rb93 0.0
rb94 0.0
rb95 0.0
rb96 0.0
rb97 0.0
rb98 0.0
rb99 0.0
sr75 0.0
sr76 0.0
sr77 0.0
sr78 0.0
sr79 0.0
sr80 0.0
sr81 0.0
sr82 0.0
sr83 0.0
sr84 3.828474476190476e-12
sr85 2.910930931717059e-38
sr86 6.79925873255814e-11
sr87 4.748679287516078e-11
sr88 5.681814977272727e-10
sr89 7.095270513784925e-38
sr90 2.450161307847261e-49
sr91 2.598391121771937e-61
sr92 4.767586974974529e-81
sr93 0.0
sr94 0.0
sr95 0.0
sr96 0.0
sr97 0.0
sr98 0.0
sr99 0.0
sr100 0.0
sr101 0.0
y77 0.0
y78 0.0
y79 0.0
y80 0.0
y81 0.0
y82 0.0
y83 0.0
y84 0.0
y85 0.0
y86 0.0
y87 0.0
y88 0.0
y89 1.3483561235955057e-10
y90 2.7055848456285274e-39
y91 4.945253288506688e-59
y92 1.0822768667612006e-78
y93 0.0
y94 2.1590752412255443e-91
y95 0.0
y96 0.0
y97 0.0
y98 0.0
y99 0.0
y100 0.0
y101 0.0
y102 0.0
y103 0.0
zr80 0.0
zr81 0.0
zr82 0.0
zr83 0.0
zr84 0.0
zr85 0.0
zr86 0.0
zr87 0.0
zr88 0.0
zr89 8.52201604697873e-59
zr90 1.6999433222222222e-10
zr91 3.7258436593406587e-11
zr92 5.684949228260869e-11
zr93 3.3254837790492412e-18
zr94 5.7546690212765956e-11
zr95 3.880760535629404e-38
zr96 9.270376531250001e-12
zr97 2.8183061460385183e-41
zr98 6.33823671224672e-74
zr99 0.0
zr100 0.0
zr101 0.0
zr102 0.0
zr103 0.0
zr104 0.0
zr105 0.0
nb83 0.0
nb84 0.0
nb85 0.0
nb86 0.0
nb87 0.0
nb88 0.0
nb89 0.0
nb90 0.0
nb91 1.7491367604963188e-63
nb92 7.791464051988361e-36
nb93 2.2034712795698926e-11
nb94 1.9839947608622255e-24
nb95 2.1216410846081582e-38
nb96 6.384037554311085e-63
nb97 2.0226144955278724e-42
nb98 1.1919173532885792e-74
nb99 0.0
nb100 0.0
nb101 0.0
nb102 0.0
nb103 0.0
nb104 0.0
nb105 0.0
nb106 0.0
nb107 0.0
mo85 0.0
mo86 0.0
mo87 0.0
mo88 0.0
mo89 0.0
mo90 0.0
mo91 0.0
mo92 1.1301648152173914e-11
mo93 4.989377772862398e-27
mo94 7.0580935e-12
mo95 1.2100334000000001e-11
mo96 1.2716479583333333e-11
mo97 7.276631811528422e-12
mo98 1.8369692959183675e-11
mo99 2.0176718295407287e-39
mo100 7.33663778e-12
mo101 3.179490883474014e-42
mo102 1.706358584475018e-72
mo103 0.0
mo104 0.0
mo105 0.0
mo106 0.0
mo107 0.0
mo108 0.0
mo109 0.0
tc88 0.0
tc89 0.0
tc90 0.0
tc91 0.0
tc92 0.0
tc93 0.0
tc94 0.0
tc95 0.0
tc96 3.657421022335199e-55
tc97 1.3736066919892236e-16
tc98 1.3376872815677107e-21
tc99 3.017284852592383e-24
tc100 1.486531236593195e-55
tc101 3.094617439238126e-42
tc102 4.067769769231767e-74
tc103 0.0
tc104 0.0
tc105 0.0
tc106 0.0
tc107 0.0
tc108 0.0
tc109 0.0
tc110 0.0
ru91 0.0
ru92 0.0
ru93 0.0
ru94 0.0
ru95 0.0
ru96 3.0810152916666665e-12
ru97 6.133584381600996e-40
ru98 1.040123418367347e-12
ru99 7.075666030303031e-12
ru100 6.9978577199999995e-12
ru101 9.449813405940594e-12
ru102 1.7570641666666666e-11
ru103 4.6196623900029695e-38
ru104 1.0378124423076924e-11
ru105 1.1162495845024332e-40
ru106 5.322909011010302e-66
ru107 2.945601993071592e-97
ru108 0.0
ru109 0.0
ru110 0.0
ru111 0.0
ru112 0.0
rh93 0.0
rh94 0.0
rh95 0.0
rh96 0.0
rh97 0.0
rh98 0.0
rh99 0.0
rh100 0.0
rh101 0.0
rh102 0.0
rh103 1.0862164563106796e-11
rh104 1.1774138901687351e-42
rh105 8.889834190056349e-40
rh106 2.758582799496124e-60
rh107 2.110380489746674e-84
rh108 1.1524227045427949e-96
rh109 0.0
rh110 0.0
rh111 0.0
rh112 0.0
rh113 0.0
rh114 0.0
pd96 0.0
pd97 0.0
pd98 0.0
pd99 0.0
pd100 0.0
pd101 0.0
pd102 4.2689146960784314e-13
pd103 8.90952164998707e-40
pd104 4.70242725e-12
pd105 9.342499571428573e-12
pd106 1.1529846603773585e-11
pd107 1.6372105120028326e-15
pd108 1.110341675925926e-11
pd109 4.381428525460865e-40
pd110 4.906445545454545e-12
pd111 4.095438898459077e-42
pd112 5.5879290043850403e-70
pd113 0.0
pd114 0.0
pd115 0.0
ag98 0.0
ag99 0.0
ag100 0.0
ag101 0.0
ag102 0.0
ag103 0.0
ag104 0.0
ag105 0.0
ag106 6.033932018675383e-58
ag107 7.442404237457597e-12
ag108 2.4347434768903008e-42
ag109 6.9082188715596334e-12
ag110 4.75694733538678e-43
ag111 1.877657721273892e-39
ag112 3.04602582391909e-63
ag113 1.2221199840787289e-85
ag114 0.0
ag115 0.0
ag116 0.0
cd101 0.0
cd102 0.0
cd103 0.0
cd104 0.0
cd105 0.0
cd106 5.787522273584906e-13
cd107 1.2690956162790294e-41
cd108 4.2648448981481484e-13
cd109 1.2520181993840803e-38
cd110 5.803668363636364e-12
cd111 5.9240950630630626e-12
cd112 1.1172119017857145e-11
cd113 5.667589318584071e-12
cd114 1.3341116140350877e-11
cd115 1.2601984502262952e-39
cd116 3.4820397155172413e-12
cd117 7.083627544777068e-42
in102 0.0
in103 0.0
in104 0.0
in105 0.0
in106 0.0
in107 0.0
in108 0.0
in109 0.0
in110 0.0
in111 0.0
in112 2.891991221825856e-79
in113 2.2851084159292035e-13
in114 3.638680415748565e-44
in115 5.055826486956521e-12
in116 1.7816087028294633e-43
in117 2.048278079815532e-42
in118 7.254400991081253e-66
