n 1.3414823502913666e-28
h1 4.5079254651362165e-23
he4 6.582647247584192e-17
h2 8.83267098649199e-33
h3 3.0565941330332683e-23
he3 2.611175492779557e-23
li6 1.1677381855496955e-39
li7 3.203973556584302e-28
li8 4.004299386871502e-45
li9 1.9352611619803293e-65
be7 1.3819427795301883e-32
be9 1.640438690586104e-41
be10 2.5921162412278636e-36
be11 2.005669379398282e-65
be12 8.426717670206437e-88
b8 3.1406374217757877e-59
b10 8.671775412187631e-26
b11 1.9913125388565411e-16
b12 8.73551098044944e-38
b13 2.4661796203635103e-59
b14 5.308673806697367e-85
c10 0.0
c11 7.756277727313419e-24
c12 0.0009963457233460287
c13 8.493222504915462e-15
c14 5.685820269907296e-10
c15 1.7127540314357562e-33
c16 2.7059322074028926e-54
c17 3.9944425665695984e-81
c18 0.0
n11 0.0
n12 4.507421343378521e-47
n13 1.8515554246608517e-16
n14 2.890869795482209e-09
n15 3.216388434604238e-10
n16 8.032179278559727e-29
n17 1.0213196250169551e-47
n18 1.1714476449336497e-68
n19 7.163613878338656e-90
n20 0.0
n21 0.0
o13 1.467456677905295e-65
o14 6.000755026307665e-25
o15 2.880521146776548e-17
o16 0.041648589488127906
o17 1.8606442056856627e-09
o18 8.905842786058001e-11
o19 1.722899890110269e-25
o20 6.382924494329503e-36
o21 6.039798964149163e-54
o22 1.4886366649025624e-71
f16 3.8106245960731497e-44
f17 1.8022413084035382e-24
f18 4.74794667950958e-12
f19 3.7177812420334003e-10
f20 2.8072854075946665e-35
f21 1.0590695615595712e-48
f22 2.1991202524223172e-54
f23 6.626247270656354e-64
f24 4.5517995895915665e-84
f25 0.0
f26 0.0
ne16 0.0
ne17 0.0
ne18 1.1601965311759482e-42
ne19 1.9090182446222845e-26
ne20 0.011976109457003097
ne21 2.1827682222905606e-05
ne22 2.9770390568092907e-05
ne23 4.335338410922662e-18
ne24 1.1965278527247973e-18
ne25 9.316715663816438e-38
ne26 1.689847410362966e-57
ne27 1.8678662673645158e-79
ne28 0.0
ne29 0.0
na19 2.2550492110051914e-72
na20 1.9670959125686098e-45
na21 8.029176939725948e-19
na22 8.496997391517204e-08
na23 0.00026087620485381257
na24 2.0882769873415375e-07
na25 2.4279452965860523e-17
na26 1.8503614951357554e-35
na27 4.4765004762184404e-54
na28 6.144663289362444e-75
na29 6.487821886693501e-95
na30 0.0
na31 0.0
na32 0.0
mg20 1.6723991739382153e-94
mg21 4.89425541755972e-64
mg22 2.473176820118112e-33
mg23 6.451833356828195e-21
mg24 0.0018942106435984828
mg25 0.0004471746004961627
mg26 0.00029100168360773703
mg27 7.522124823353808e-11
mg28 4.2182057040299815e-11
mg29 1.3013981261147456e-29
mg30 1.8027321645443332e-48
mg31 1.5678429460021076e-68
mg32 4.6440881401974206e-88
mg33 0.0
mg34 0.0
mg35 0.0
al22 9.438680820780954e-95
al23 2.0628918469563547e-59
al24 2.2432103018701008e-37
al25 6.5880989295209636e-18
al26 2.8176406170077477e-08
al27 0.0001457764114388317
al28 9.662436085624718e-12
al29 6.675602893777555e-14
al30 3.4727760197583477e-31
al31 3.640724528211019e-49
al32 2.433092498834163e-69
al33 3.16115705033866e-89
al34 0.0
al35 0.0
al36 0.0
al37 0.0
al38 0.0
si23 0.0
si24 7.211378418652125e-79
si25 1.6991710404027085e-55
si26 5.623990633012048e-34
si27 5.556091832435863e-23
si28 0.00013227400361609068
si29 2.2940105666859815e-05
si30 1.0409610082831413e-05
si31 2.320822639794586e-08
si32 3.4656213347060553e-09
si33 1.2095240627394013e-26
si34 6.065697319790642e-44
si35 5.766912195162992e-63
si36 1.5501735942406669e-80
si37 0.0
si38 0.0
si39 0.0
si40 0.0
si41 0.0
p25 0.0
p26 5.1945550239692725e-83
p27 1.8670792898211662e-54
p28 6.518540994099226e-41
p29 2.6380783979319194e-21
p30 1.8349381986385658e-12
p31 4.559998044949664e-06
p32 6.17861686241563e-08
p33 1.201221820187784e-08
p34 1.0667035300680808e-24
p35 2.261621926236736e-24
p36 1.0102881216524561e-41
p37 1.637218918063576e-57
p38 1.1858860626638977e-75
p39 2.967157899181195e-94
p40 0.0
p41 0.0
p42 0.0
p43 0.0
p44 0.0
s27 0.0
s28 3.909203666824926e-77
s29 5.836380188328605e-59
s30 4.2771032773124155e-39
s31 1.6190717076532345e-28
s32 8.344501251597992e-06
s33 1.0803395172351592e-07
s34 1.0427776922090255e-06
s35 2.5647626096221135e-08
s36 9.017498378672986e-08
s37 6.003484887948958e-16
s38 2.6177157685203178e-17
s39 3.4902189315386485e-34
s40 5.0237554659723275e-43
s41 1.4276798633436641e-59
s42 6.615013293738894e-78
s43 1.3132133405938433e-97
s44 0.0
s45 0.0
s46 0.0
s47 0.0
cl29 0.0
cl30 1.5249912261038991e-89
cl31 4.768605527299661e-64
cl32 6.424309799605584e-48
cl33 1.5911616405941403e-22
cl34 1.2077830103666321e-24
cl35 1.140012259951803e-07
cl36 5.7324423492533215e-09
cl37 9.219082332781486e-07
cl38 2.4491701487646213e-11
cl39 7.576109501375205e-14
cl40 2.184412808113705e-22
cl41 5.719619988022798e-29
cl42 1.9390355895322023e-43
cl43 6.4425987065475555e-49
cl44 3.486859435715618e-67
cl45 5.008234553560602e-84
cl46 0.0
cl47 0.0
cl48 0.0
cl49 0.0
cl50 0.0
ar31 0.0
ar32 1.6309785565732067e-87
ar33 9.440411910499825e-68
ar34 3.1917333127580517e-40
ar35 8.422764848108056e-41
ar36 9.338433827525865e-07
ar37 7.922318399943871e-09
ar38 1.1849231824797469e-06
ar39 1.2207327137574491e-07
ar40 5.364439198498354e-08
ar41 2.1294315086125904e-11
ar42 1.6654800790399006e-11
ar43 2.2079395159589465e-17
ar44 2.1213419346114752e-20
ar45 3.091298895253393e-33
ar46 4.504618242303924e-44
ar47 1.578534050977757e-62
ar48 6.563996338825665e-82
ar49 0.0
ar50 0.0
ar51 0.0
ar52 0.0
k32 0.0
k33 0.0
k34 0.0
k35 7.570776159430237e-67
k36 6.575646293956675e-61
k37 2.5241607483583917e-24
k38 2.205412803654098e-21
k39 1.5760224234322446e-07
k40 1.5599721592555363e-08
k41 3.926113599523512e-08
k42 1.931529056347706e-09
k43 9.275112502110041e-11
k44 3.134067571260853e-15
k45 3.4856657469046585e-18
k46 1.2419903803155614e-25
k47 4.716123449395045e-37
k48 1.342703132485873e-50
k49 1.066856236337593e-67
k50 1.700116356432193e-86
k51 0.0
k52 0.0
k53 0.0
k54 0.0
k55 0.0
ca35 0.0
ca36 6.390180517945535e-88
ca37 5.099822706709364e-80
ca38 5.6524696884529e-43
ca39 2.983743029812142e-39
ca40 8.164180805002917e-07
ca41 1.674474203520722e-08
ca42 6.918722924583554e-08
ca43 2.8848894668755036e-08
ca44 6.743854023169722e-08
ca45 1.535389511317265e-08
ca46 4.89987424641264e-09
ca47 2.0394295708822945e-10
ca48 2.8328495784673203e-09
ca49 3.536646794605491e-15
ca50 2.8897863873288816e-30
ca51 7.292081509690835e-39
ca52 6.628076604067038e-52
ca53 2.730298836422849e-72
ca54 3.22561854441594e-92
ca55 0.0
ca56 0.0
ca57 0.0
sc36 0.0
sc37 0.0
sc38 0.0
sc39 6.275929096945883e-75
sc40 1.5739324302104613e-62
sc41 6.484570315371707e-27
sc42 1.6515140709652114e-27
sc43 5.916402777316656e-12
sc44 5.159235108905396e-12
sc45 4.81282315155288e-09
sc46 2.290851787895725e-09
sc47 6.057059918911293e-10
sc48 7.93811142793866e-11
sc49 1.9149658484261603e-13
sc50 2.4185887704263547e-21
sc51 1.836455697634013e-34
sc52 1.2497254007782031e-42
sc53 4.754474322402049e-61
sc54 2.66546986178108e-80
sc55 0.0
sc56 0.0
sc57 0.0
sc58 0.0
sc59 0.0
ti39 0.0
ti40 6.342492437200404e-96
ti41 1.0105662629425146e-82
ti42 1.4538710097725816e-46
ti43 3.973589983944905e-46
ti44 4.557801404697709e-14
ti45 2.018434935227165e-15
ti46 7.124431799916314e-09
ti47 7.577606242985483e-09
ti48 1.0193063921222759e-08
ti49 2.4164441305035267e-08
ti50 4.8300622408476387e-08
ti51 1.1529093230151363e-13
ti52 8.914142095794094e-20
ti53 7.746627568918295e-28
ti54 5.681018571126195e-33
ti55 9.555497360656977e-52
ti56 7.434448425673313e-71
ti57 6.769479757782954e-91
ti58 0.0
ti59 0.0
ti60 0.0
ti61 0.0
ti62 0.0
v41 0.0
v42 0.0
v43 1.3670426730746755e-72
v44 1.9078476860955365e-66
v45 1.219536829424969e-34
v46 8.974253116401035e-35
v47 4.002705813409058e-14
v48 1.026285169989783e-12
v49 1.4342515166830234e-10
v50 2.7590025671295037e-10
v51 6.648013184587538e-09
v52 2.535776132519445e-14
v53 6.268828402674205e-20
v54 6.761401754183896e-27
v55 1.6318465119430563e-41
v56 1.0431391473081611e-59
v57 4.073267319443903e-77
v58 1.7374664179030848e-95
v59 0.0
v60 0.0
v61 0.0
v62 0.0
v63 0.0
v64 0.0
v65 0.0
cr43 0.0
cr44 1.798235122805516e-93
cr45 6.12510706685173e-87
cr46 3.247015527729839e-54
cr47 1.169973812859926e-53
cr48 1.3134723413678662e-16
cr49 3.662267870858229e-18
cr50 1.3556112044749768e-10
cr51 6.269778807033406e-11
cr52 1.2814910720038225e-07
cr53 2.9434357259668576e-08
cr54 1.4666853883675719e-07
cr55 1.0631328958042984e-13
cr56 2.1528818388772225e-16
cr57 1.1014662058628652e-28
cr58 1.3466580442423068e-40
cr59 1.6108857554080194e-58
cr60 1.5448000531598075e-75
cr61 6.767637987895468e-93
cr62 0.0
cr63 0.0
cr64 0.0
cr65 0.0
cr66 0.0
cr67 0.0
cr68 0.0
mn45 0.0
mn46 0.0
mn47 5.709284766872687e-81
mn48 4.472627464062171e-75
mn49 4.647405724103791e-37
mn50 5.979941357664915e-38
mn51 4.586296576041904e-16
mn52 6.333915708619011e-15
mn53 7.711140837032429e-11
mn54 7.193880671486295e-11
mn55 1.550021143044644e-07
mn56 2.0531924157357565e-11
mn57 4.965775820005557e-18
mn58 5.09800571104624e-34
mn59 1.592708728425115e-41
mn60 2.435107088397044e-40
mn61 3.3266724825157976e-57
mn62 1.6724954302333566e-74
mn63 8.683375850142846e-92
mn64 0.0
mn65 0.0
mn66 0.0
mn67 0.0
mn68 0.0
mn69 0.0
mn70 0.0
mn71 0.0
fe47 0.0
fe48 0.0
fe49 4.5754160356970157e-97
fe50 1.6238389720511465e-62
fe51 1.6547121990141678e-58
fe52 8.113241415478577e-20
fe53 4.771884154590452e-22
fe54 7.114406313862142e-08
fe55 3.9285127285868585e-08
fe56 6.514913269417778e-06
fe57 3.2657217970248245e-06
fe58 6.981684302267957e-06
fe59 1.192678358613158e-06
fe60 4.6028681180680224e-07
fe61 1.5715628009900902e-12
fe62 1.5811082827122899e-19
fe63 9.81589974233032e-36
fe64 1.5343085364446204e-51
fe65 1.6474258549982714e-69
fe66 4.644710599954508e-81
fe67 5.279143689804443e-88
fe68 0.0
fe69 0.0
fe70 0.0
fe71 0.0
fe72 0.0
fe73 0.0
fe74 0.0
co48 0.0
co49 0.0
co50 0.0
co51 9.376964139260041e-89
co52 1.803657241714483e-80
co53 1.4567149622817588e-40
co54 5.338973617777802e-43
co55 1.3652610957491293e-12
co56 8.713094395883067e-13
co57 1.7081624260511366e-09
co58 1.2587612616944544e-09
co59 1.4330466462193018e-06
co60 2.7360358055013496e-07
co61 2.531462653221573e-09
co62 9.336663747394215e-15
co63 1.1404990477378974e-23
co64 3.738837107213619e-41
co65 1.0750752380494378e-56
co66 2.7671672208646205e-74
co67 1.8643577648564338e-81
co68 1.0711807551482556e-96
co69 0.0
co70 0.0
co71 0.0
co72 0.0
co73 0.0
co74 0.0
co75 0.0
co76 0.0
co77 0.0
ni51 0.0
ni52 0.0
ni53 0.0
ni54 4.88374883270684e-62
ni55 5.246044659674645e-64
ni56 9.409832666195883e-17
ni57 4.7867900493537576e-18
ni58 1.312381308810992e-08
ni59 8.826683492015881e-09
ni60 9.430758513276704e-07
ni61 9.75252379311142e-07
ni62 9.94847062971886e-07
ni63 1.1287410502426567e-06
ni64 1.0356864168489931e-06
ni65 3.830280647892019e-09
ni66 1.1428335777923878e-09
ni67 2.961644633322415e-23
ni68 2.0050113237783936e-26
ni69 6.452667698176288e-37
ni70 8.281051459675143e-47
ni71 9.303936507586928e-61
ni72 6.1894954703256e-72
ni73 2.51645740781911e-85
ni74 5.439972273251104e-92
ni75 0.0
ni76 0.0
ni77 0.0
ni78 0.0
ni79 0.0
cu52 0.0
cu53 0.0
cu54 0.0
cu55 6.764080281471877e-92
cu56 1.5606592904989482e-87
cu57 8.098993963800512e-39
cu58 4.753208180592007e-38
cu59 5.413294633873171e-20
cu60 2.4034206176309974e-16
cu61 2.4055029696920288e-12
cu62 9.717671003166703e-14
cu63 2.2966139545443793e-08
cu64 3.4426911046040887e-09
cu65 2.1648830318701758e-07
cu66 5.237133810975875e-12
cu67 1.2924986077199203e-09
cu68 1.5206393453009473e-20
cu69 7.227672462581913e-19
cu70 1.1705487605444323e-34
cu71 3.869928112120508e-34
cu72 1.3638560671186991e-45
cu73 1.701130421917458e-54
cu74 3.2468177021046934e-68
cu75 2.109585786443883e-76
cu76 4.4474021117822055e-89
cu77 8.704315741358313e-99
cu78 0.0
cu79 0.0
cu80 0.0
cu81 0.0
cu82 0.0
zn55 0.0
zn56 0.0
zn57 0.0
zn58 5.001695915328048e-61
zn59 7.792334885878633e-60
zn60 1.5517446092912778e-25
zn61 2.1846589047414886e-26
zn62 8.346859298008361e-17
zn63 7.668566229310749e-19
zn64 1.560082447018677e-08
zn65 4.7520221051526285e-09
zn66 1.6342577990464343e-07
zn67 5.585317856893287e-08
zn68 1.7393420782640466e-07
zn69 1.1100006620305456e-10
zn70 4.96988892775849e-09
zn71 2.0858020356782712e-14
zn72 4.052766080347783e-12
zn73 8.67716791393205e-25
zn74 6.2488373783541624e-24
zn75 2.6928416144366113e-38
zn76 1.3463562578550697e-47
zn77 1.5068145821999996e-62
zn78 1.2825434514199156e-72
zn79 3.096634015900824e-83
zn80 5.614336419383773e-97
zn81 0.0
zn82 0.0
zn83 0.0
zn84 0.0
ga57 0.0
ga58 0.0
ga59 1.6479603046464426e-95
ga60 1.7088235112104761e-87
ga61 2.8971997594700244e-51
ga62 1.1841046569350444e-48
ga63 3.015238400509411e-32
ga64 1.5751143384426151e-27
ga65 6.98710664878359e-16
ga66 2.9201903085008884e-14
ga67 1.1061659472494566e-11
ga68 1.469879612137993e-13
ga69 3.138280268442842e-08
ga70 2.9958523977004605e-11
ga71 7.695517414074758e-09
ga72 1.503977143989966e-09
ga73 3.5418609892594815e-10
ga74 1.2590846994806198e-15
ga75 2.999330963515463e-19
ga76 1.852432422914711e-27
ga77 1.0832805580637631e-35
ga78 1.4414815732554208e-47
ga79 9.676961846055887e-58
ga80 8.062431916885297e-69
ga81 1.9407270553168968e-77
ga82 3.126319579264241e-93
ga83 0.0
ga84 0.0
ga85 0.0
ga86 0.0
ge59 0.0
ge60 0.0
ge61 0.0
ge62 9.982249871899198e-73
ge63 5.838869575490419e-71
ge64 3.147118149015083e-39
ge65 1.2668571190146472e-39
ge66 9.311184284479959e-21
ge67 3.044592477345599e-21
ge68 6.598407418726838e-16
ge69 9.51624301393161e-16
ge70 2.4093510280354998e-08
ge71 7.882039383564107e-09
ge72 2.482887571889685e-08
ge73 1.4686187484144316e-08
ge74 3.033282779516962e-08
ge75 1.4276116767470322e-10
ge76 1.7513412342937467e-09
ge77 7.860459509696112e-13
ge78 1.2225927944282573e-13
ge79 1.2013023602176246e-26
ge80 1.4054590105378064e-29
ge81 2.6963129806633127e-42
ge82 7.934177065877259e-52
ge83 1.1939772783412717e-67
ge84 4.088794964537717e-82
ge85 8.472326446893122e-98
ge86 0.0
ge87 0.0
ge88 0.0
ge89 0.0
as61 0.0
as62 0.0
as63 0.0
as64 2.4719356834757696e-99
as65 4.693182219592214e-67
as66 4.694530635373765e-63
as67 1.5012504716905955e-36
as68 1.9719056139383326e-30
as69 7.278954738227624e-24
as70 1.8662358027170047e-22
as71 2.8335612686673626e-13
as72 1.0084063763405195e-13
as73 2.0360354458995604e-12
as74 9.281476039284385e-13
as75 6.280449453223048e-09
as76 2.6542576841066675e-09
as77 2.259514203388754e-09
as78 1.5094197845234804e-11
as79 2.2444523934200585e-14
as80 2.5086224104633056e-27
as81 6.748297023279373e-27
as82 1.0184781569519931e-33
as83 1.5707670405798446e-39
as84 1.1687955907495526e-55
as85 1.1129408192675105e-66
as86 5.292370203805783e-81
as87 9.972779720322949e-95
as88 0.0
as89 0.0
as90 0.0
as91 0.0
se64 0.0
se65 0.0
se66 5.357770129384047e-91
se67 7.267868549216403e-87
se68 3.233247235945746e-46
se69 6.242880975729631e-43
se70 6.398299666702251e-30
se71 2.813654918780762e-30
se72 7.221096658532797e-18
se73 7.8496850747656475e-19
se74 1.8162129587822667e-14
se75 5.406021558805083e-14
se76 3.359877352806214e-09
se77 4.135841314208427e-09
se78 9.940289471946545e-09
se79 6.33400626145777e-09
se80 1.636725073162101e-08
se81 5.47214276718009e-12
se82 6.069668476183679e-10
se83 3.6511359706492204e-14
se84 5.665618352107781e-19
se85 5.89243999689451e-29
se86 7.629448646183368e-38
se87 4.0779162412204025e-51
se88 1.539233092324421e-67
se89 6.73925299145675e-86
se90 0.0
se91 0.0
se92 0.0
se93 0.0
br66 0.0
br67 0.0
br68 0.0
br69 1.4815580834630348e-76
br70 5.5646196797312195e-67
br71 2.4719003218782273e-47
br72 8.688467996206426e-41
br73 2.7709913636224278e-28
br74 8.008173866545646e-26
br75 3.720693951724361e-21
br76 1.198115316610492e-19
br77 4.7286770053727285e-14
br78 4.08787147894477e-17
br79 2.397547596658628e-13
br80 8.442474056538202e-16
br81 3.1529290822476096e-09
br82 9.298236564122159e-10
br83 1.3186017910404338e-10
br84 1.5511929590924222e-13
br85 9.11482701595499e-18
br86 1.062436314185463e-24
br87 8.40092520273519e-29
br88 1.1569571400957402e-38
br89 6.056533372593657e-52
br90 1.7956607006941842e-65
br91 8.098130896547583e-82
br92 4.5844495371535984e-97
br93 0.0
br94 0.0
br95 0.0
kr69 0.0
kr70 0.0
kr71 6.574188243301957e-91
kr72 2.3869717762574504e-59
kr73 7.320816040682383e-52
kr74 6.963285305138806e-34
kr75 6.950097625461638e-34
kr76 2.0654592581403786e-25
kr77 1.291229799215097e-25
kr78 7.395055639449787e-19
kr79 3.0082737751456837e-19
kr80 2.403750111432057e-13
kr81 1.1021694020259742e-13
kr82 2.5102447140318614e-09
kr83 3.3035085469643603e-09
kr84 1.0439931103340207e-08
kr85 5.7086468692271276e-09
kr86 7.177537304887983e-09
kr87 8.596523261371502e-13
kr88 1.1466299056385411e-13
kr89 3.8258942525727094e-20
kr90 4.3905296845098967e-29
kr91 1.0247681971398078e-41
kr92 3.000469228269762e-58
kr93 4.4793569111262024e-72
kr94 1.0159886526124748e-89
kr95 0.0
kr96 0.0
kr97 0.0
rb72 0.0
rb73 3.51717810731836e-91
rb74 3.43064798621766e-76
rb75 5.2014839997125885e-52
rb76 6.026857703895133e-45
rb77 2.5196477693294517e-35
rb78 9.899369281863059e-34
rb79 1.4456538652477463e-26
rb80 5.951991623777798e-32
rb81 1.8750347484415253e-19
rb82 3.4689101935991034e-23
rb83 1.5876143438514175e-14
rb84 9.959338322806422e-15
rb85 2.0217589188862696e-10
rb86 1.863125583261612e-10
rb87 2.1868133094245738e-09
rb88 2.0493985637827196e-13
rb89 7.389196242344709e-16
rb90 5.516601095711994e-20
rb91 6.845919146534496e-26
rb92 2.1355121586798972e-41
rb93 5.191069480890782e-47
rb94 3.567232337761684e-60
rb95 1.1783844195392367e-76
rb96 1.3272060581130998e-94
rb97 0.0
rb98 0.0
rb99 0.0
sr75 0.0
sr76 1.535584456824473e-74
sr77 1.4908765530704026e-64
sr78 4.1896526100262005e-40
sr79 3.8534955586730925e-37
sr80 5.078575609364235e-30
sr81 4.489624076588087e-29
sr82 3.269218550992372e-24
sr83 5.2420172677140856e-23
sr84 9.784819261575302e-18
sr85 1.0278410821175835e-16
sr86 2.428398447844129e-10
sr87 3.6400358732698384e-10
sr88 6.211364900378458e-09
sr89 9.070549979270577e-10
sr90 2.5527701470615527e-10
sr91 3.3941773817091025e-12
sr92 8.720200135038415e-14
sr93 1.3090096862808647e-18
sr94 4.0988307127729197e-25
sr95 4.653911265423009e-35
sr96 5.70947356039753e-52
sr97 6.733093540606739e-70
sr98 1.8396686881426366e-86
sr99 0.0
sr100 0.0
sr101 0.0
y77 0.0
y78 1.3174681009094729e-89
y79 1.9200763373206056e-61
y80 2.2124732889197968e-48
y81 1.5738362427783674e-40
y82 6.010590080188734e-47
y83 5.394509806147814e-32
y84 1.0358864098206604e-36
y85 1.455671883326135e-24
y86 4.274865680565137e-23
y87 2.6139449473768055e-16
y88 6.880354234878043e-16
y89 5.559689040591444e-10
y90 3.174130754980778e-11
y91 8.89855280206712e-11
y92 3.984294215602067e-12
y93 7.037711206353417e-12
y94 7.446831640087545e-15
y95 3.396362082067201e-17
y96 1.2296961695690474e-32
y97 6.413888492485115e-45
y98 7.078331977488053e-62
y99 7.767180262904204e-70
y100 1.3818761771002e-84
y101 0.0
y102 0.0
y103 0.0
zr80 2.9678821602646424e-87
zr81 3.997516791053592e-72
zr82 5.137790782808403e-62
zr83 1.420938813788125e-42
zr84 3.48913600937227e-34
zr85 2.1134024398238296e-33
zr86 3.381904735256104e-28
zr87 1.3920784778709807e-27
zr88 4.888557815102817e-22
zr89 6.132339255701353e-20
zr90 2.799079107990794e-10
zr91 1.5083869669289054e-10
zr92 3.0648732183211484e-10
zr93 1.3995436356662418e-10
zr94 2.451530081584571e-10
zr95 7.334458559812072e-11
zr96 1.1803258298038e-10
zr97 2.056693351118559e-13
zr98 1.726783756730542e-24
zr99 6.698067962240956e-41
zr100 4.477219006275514e-54
zr101 2.409568719002006e-67
zr102 3.8002276152442275e-83
zr103 0.0
zr104 0.0
zr105 0.0
nb83 3.08650331308783e-87
nb84 6.22938044004837e-58
nb85 1.055691618176471e-47
nb86 6.581133970226337e-42
nb87 2.6681254749552582e-36
nb88 8.02657261849998e-35
nb89 2.093208234268574e-29
nb90 1.4483158163805937e-26
nb91 3.496427557218495e-16
nb92 2.9157116694475434e-16
nb93 1.5582582229255535e-15
nb94 1.4757950648649523e-15
nb95 8.900321153643216e-13
nb96 8.239181933271831e-13
nb97 4.1516287873693406e-14
nb98 3.5770265999649984e-25
nb99 6.978864576583426e-31
nb100 2.3107566356254703e-46
nb101 2.20775404493322e-43
nb102 1.3518370091950436e-58
nb103 6.196342817783266e-66
nb104 4.088173958660346e-82
nb105 0.0
nb106 0.0
nb107 0.0
mo85 2.74058422264635e-84
mo86 7.638591936867005e-73
mo87 1.4041725412958286e-57
mo88 1.5892257797749996e-39
mo89 9.853413055857667e-38
mo90 3.083539342348233e-31
mo91 1.4012929343043188e-29
mo92 1.55328789255124e-14
mo93 4.41976207815788e-15
mo94 4.100609968666819e-14
mo95 5.432604451967767e-13
mo96 3.954468033293941e-12
mo97 4.8834119939057125e-12
mo98 2.4337800106002575e-11
mo99 1.468695866208378e-12
mo100 1.4860239155408118e-11
mo101 3.973424855052716e-15
mo102 1.5102590298569844e-17
mo103 1.7440200606523638e-24
mo104 6.6478979301999355e-28
mo105 3.5283600895358414e-44
mo106 1.1558429539606113e-60
mo107 2.535446841799048e-78
mo108 2.866714764653723e-96
mo109 0.0
tc88 1.2100946227675877e-83
tc89 2.653456949928743e-64
tc90 3.250713990310625e-55
tc91 9.973381010363622e-41
tc92 3.5015022414249644e-37
tc93 5.103667099804811e-22
tc94 5.258854127249852e-22
tc95 1.3753060918492515e-20
tc96 9.263443381928879e-20
tc97 1.3583274815869077e-18
tc98 1.0432607687904772e-18
tc99 9.637654424675799e-13
tc100 1.372315814977098e-25
tc101 6.711841225683181e-15
tc102 1.1853618666548622e-19
tc103 5.94644952813262e-24
tc104 2.7674555930377134e-22
tc105 2.1075852569789733e-24
tc106 6.578023491767791e-33
tc107 4.076798542687851e-38
tc108 4.244296260194214e-51
tc109 3.558339962782377e-67
tc110 2.579522006347957e-84
ru91 5.069251394380681e-81
ru92 5.778429896839577e-64
ru93 1.3575686750438024e-38
ru94 1.1378121193726803e-27
ru95 6.467151962595175e-27
ru96 1.2381983697764655e-20
ru97 5.3350461039106656e-21
ru98 6.047901811945764e-19
ru99 1.237045629433387e-16
ru100 4.4586049565367666e-12
ru101 2.0393274201532698e-12
ru102 1.0729518601879186e-11
ru103 5.630605861226321e-12
ru104 1.653162969430917e-11
ru105 5.859497103514858e-13
ru106 6.4414699775399425e-12
ru107 4.605409053507448e-17
ru108 8.245193783254769e-19
ru109 1.972683765490707e-27
ru110 6.224138263012632e-35
ru111 1.1828052615263183e-52
ru112 2.95986404041242e-70
rh93 1.7007844662402505e-90
rh94 1.858428290757547e-50
rh95 2.7151681660911433e-37
rh96 1.4285327870945136e-35
rh97 7.488661938676124e-30
rh98 1.8996010761287555e-29
rh99 8.04598988392806e-26
rh100 4.782453939039541e-24
rh101 2.353002223032557e-19
rh102 1.4552369833096798e-19
rh103 1.1082225916443829e-13
rh104 5.309921840665303e-22
rh105 1.3180633672578545e-12
rh106 8.232295435433894e-18
rh107 3.661480863102149e-15
rh108 5.406685762014811e-20
rh109 2.9692710362982086e-23
rh110 1.7550467402169944e-35
rh111 3.0627918405376717e-38
rh112 8.933180248208446e-51
rh113 1.6138258904751267e-56
rh114 5.706940927281979e-65
pd96 4.1329570407331466e-39
pd97 3.782487064439554e-35
pd98 7.445934527200978e-29
pd99 1.1364015274864253e-27
pd100 4.968133449166244e-25
pd101 8.854397488415083e-27
pd102 8.873340061552875e-23
pd103 2.2595191798420752e-21
pd104 5.565175573459528e-13
pd105 4.613054872500863e-13
pd106 4.617069917711357e-12
pd107 1.5636854098367038e-12
pd108 1.0642601984378225e-11
pd109 2.160439159512043e-12
pd110 9.69715533808247e-12
pd111 1.5822126226979877e-14
pd112 2.571679309035913e-13
pd113 2.6381988275017192e-20
pd114 1.0885458459176096e-21
pd115 8.121239878202784e-30
ag98 2.456902012590663e-47
ag99 1.0172894954438808e-39
ag100 5.947840010626752e-38
ag101 1.3954653857313857e-33
ag102 1.8690822820985242e-31
ag103 9.02731190997795e-29
ag104 4.204103553588049e-27
ag105 7.208120861111028e-21
ag106 1.9380730084272134e-22
ag107 1.2035067551759224e-18
ag108 1.961765614582558e-23
ag109 1.1985185662174834e-12
ag110 1.380672733506213e-20
ag111 8.755976272156675e-13
ag112 1.1366173201561432e-13
ag113 4.9339563578191644e-17
ag114 3.5613869014033393e-23
ag115 6.483664748539572e-28
ag116 3.4695489935940504e-33
cd101 8.491733451893511e-40
cd102 1.3868344275422e-31
cd103 4.148088692691627e-30
cd104 4.130951972322223e-26
cd105 2.9110714006627716e-27
cd106 2.040242693909586e-23
cd107 3.1864774966429224e-24
cd108 9.191248638310588e-18
cd109 1.905044715863829e-18
cd110 2.3276121728954466e-12
cd111 7.299477031649313e-13
cd112 5.099184071359746e-12
cd113 2.1301243263673953e-12
cd114 1.7198413224355736e-11
cd115 3.2190513364485186e-12
cd116 2.4841627739307498e-11
cd117 1.7353312526448045e-13
in102 2.1493178106761887e-54
in103 4.168489879681181e-44
in104 1.398015715849786e-41
in105 1.726889225197611e-36
in106 9.658813674849113e-36
in107 1.2856685093858002e-31
in108 3.367772502832961e-29
in109 7.438817096108482e-27
in110 2.7339169456232146e-26
in111 7.769642140074822e-21
in112 6.820982677274618e-23
in113 3.2561456462923547e-16
in114 9.72762452066498e-23
in115 4.921843825319938e-13
in116 8.649119745239731e-24
in117 5.029255520633126e-14
in118 8.357348073434253e-18
