n 8.067408915947477e-30
h1 3.723585015556917e-24
he4 1.9501981124915448e-17
h2 1.4183097713784976e-32
h3 3.066611229828674e-23
he3 2.6014631543495992e-23
li6 2.4586385490596682e-39
li7 3.320506452211416e-28
li8 1.7534937500964771e-44
li9 3.898761618198983e-66
be7 2.3562055750326448e-32
be9 1.4484399869756353e-40
be10 2.7739569795128382e-36
be11 2.81190116652803e-66
be12 5.73420204140715e-90
b8 5.082832898762085e-60
b10 9.025940612259697e-26
b11 1.8275881191661343e-16
b12 4.043748927926278e-39
b13 5.461996044831152e-62
b14 3.446724136252269e-88
c10 0.0
c11 4.50375248300017e-24
c12 0.0009999296126485164
c13 9.398360862749074e-15
c14 5.690849568243957e-10
c15 7.869725924594907e-34
c16 5.232652570104005e-56
c17 1.539245173390669e-83
c18 0.0
n11 0.0
n12 5.596177986117149e-48
n13 1.1001083422864255e-16
n14 2.884225114221474e-09
n15 3.2858294229433896e-10
n16 3.2767721254893634e-30
n17 9.25085036325002e-51
n18 4.4484999331032937e-73
n19 1.1380692376990775e-95
n20 0.0
n21 0.0
o13 7.765429495565462e-68
o14 8.552320263271811e-26
o15 7.076698046905452e-18
o16 0.04164944208773295
o17 1.899324700160829e-09
o18 9.053968385277258e-11
o19 7.200779657158231e-27
o20 7.53961647922153e-38
o21 1.5083930567916972e-57
o22 5.237502976398222e-77
f16 3.809321386341291e-44
f17 3.826535692894643e-25
f18 3.953298211281513e-12
f19 3.6671827337903063e-10
f20 3.4293627084325755e-37
f21 6.529157023249428e-52
f22 1.8366312724569966e-57
f23 3.008767277003875e-68
f24 9.998769462491386e-90
f25 0.0
f26 0.0
ne16 0.0
ne17 0.0
ne18 8.938176078545956e-45
ne19 4.201186355329203e-28
ne20 0.011974238673814704
ne21 2.1834430722443956e-05
ne22 2.9835567547951132e-05
ne23 2.869199497413151e-19
ne24 4.611723181833321e-19
ne25 1.791811044467272e-39
ne26 1.707289855859361e-60
ne27 1.5878864002419055e-83
ne28 0.0
ne29 0.0
na19 8.205125955625583e-76
na20 1.1927841198575593e-48
na21 2.332385939724143e-20
na22 8.41154659272177e-08
na23 0.0002608648104357393
na24 2.1243769311826024e-07
na25 2.889980097088706e-18
na26 1.1397633806341418e-37
na27 1.4703590261873192e-57
na28 1.098962839198049e-79
na29 0.0
na30 0.0
na31 0.0
na32 0.0
mg20 2.2653813772563276e-99
mg21 1.084544985781073e-68
mg22 2.902507362663665e-36
mg23 5.765097360690578e-23
mg24 0.001893593920401217
mg25 0.0004471353520361651
mg26 0.00029094766076541884
mg27 3.7899049903995267e-11
mg28 4.237971548578136e-11
mg29 6.367862258818278e-31
mg30 4.5855922572737755e-51
mg31 2.0399907507335205e-72
mg32 3.2329353624817343e-93
mg33 0.0
mg34 0.0
mg35 0.0
al22 0.0
al23 2.498612752805345e-63
al24 6.722716650967227e-41
al25 3.384201049539739e-19
al26 1.9914272827898956e-08
al27 0.0001457292019941571
al28 2.6888222972112627e-12
al29 3.069912482622279e-14
al30 7.499631284648239e-33
al31 3.976975543572476e-52
al32 1.4248659031009602e-73
al33 1.013160911684852e-94
al34 0.0
al35 0.0
al36 0.0
al37 0.0
al38 0.0
si23 0.0
si24 5.980086632598308e-84
si25 2.36175256509982e-60
si26 1.1023476014031699e-36
si27 1.3598703293652625e-24
si28 0.00013222030240245017
si29 2.2929631144272008e-05
si30 1.0406468186652414e-05
si31 2.267416395690526e-08
si32 3.4671674826981793e-09
si33 5.409537436574122e-28
si34 6.68301389563364e-47
si35 1.472023977172103e-67
si36 6.332638139206309e-87
si37 0.0
si38 0.0
si39 0.0
si40 0.0
si41 0.0
p25 0.0
p26 1.16831138642618e-89
p27 1.3369225162473567e-57
p28 7.103478689127064e-44
p29 1.1337188658558507e-22
p30 5.266491412640033e-13
p31 4.5595188290035835e-06
p32 6.175856856734913e-08
p33 1.2010038627257648e-08
p34 3.191743417271989e-26
p35 2.1722571672176287e-25
p36 3.5945562031372894e-44
p37 8.396497497570641e-62
p38 2.4594754710426977e-81
p39 0.0
p40 0.0
p41 0.0
p42 0.0
p43 0.0
p44 0.0
s27 0.0
s28 9.26624282701495e-82
s29 2.6235892282727323e-63
s30 7.512555499245648e-42
s31 1.633401771156666e-30
s32 8.344618668446324e-06
s33 1.0803661011969693e-07
s34 1.0426595643610957e-06
s35 2.564263791845255e-08
s36 9.016921008423512e-08
s37 2.420039412035709e-16
s38 2.5749189881332342e-17
s39 1.2326217827549236e-35
s40 1.94992749176657e-45
s41 1.2886251096031892e-63
s42 2.8842484197045945e-83
s43 0.0
s44 0.0
s45 0.0
s46 0.0
s47 0.0
cl29 0.0
cl30 3.5101785323189796e-95
cl31 1.13572850961224e-67
cl32 1.9795986231273997e-51
cl33 4.974304874291317e-24
cl34 3.910438852175308e-26
cl35 1.1397184242793025e-07
cl36 5.732702047450891e-09
cl37 9.220111397568683e-07
cl38 1.5392791921801225e-11
cl39 7.033128538890473e-14
cl40 3.828464537349383e-23
cl41 4.209649537625309e-30
cl42 4.6124052842090785e-46
cl43 8.016228019107001e-53
cl44 2.2345435749475375e-72
cl45 1.5023056218139489e-90
cl46 0.0
cl47 0.0
cl48 0.0
cl49 0.0
cl50 0.0
ar31 0.0
ar32 1.2103979777722449e-92
ar33 8.967904640856052e-73
ar34 3.5957947393076266e-43
ar35 8.977055721582756e-44
ar36 9.33933947878505e-07
ar37 7.922987448437454e-09
ar38 1.1848742974476628e-06
ar39 1.220593365063166e-07
ar40 5.363848597100775e-08
ar41 2.023743713340213e-11
ar42 1.6655109400911283e-11
ar43 9.457201246832156e-18
ar44 1.067906158356567e-20
ar45 1.025148247363867e-34
ar46 1.6303253234071894e-46
ar47 2.975076858772995e-66
ar48 6.696525793870805e-87
ar49 0.0
ar50 0.0
ar51 0.0
ar52 0.0
k32 0.0
k33 0.0
k34 0.0
k35 8.05727595056871e-71
k36 2.7995244441405025e-65
k37 1.1825670564659289e-25
k38 3.6109952396070026e-22
k39 1.5757677757586487e-07
k40 1.559871307791293e-08
k41 3.926229182992991e-08
k42 1.9216886085702833e-09
k43 9.394433770387864e-11
k44 1.898939824461181e-15
k45 1.8630421920924013e-18
k46 3.03114418281901e-26
k47 1.2144945236603671e-38
k48 4.533107616597677e-53
k49 1.695943662808037e-71
k50 8.145112271897635e-92
k51 0.0
k52 0.0
k53 0.0
k54 0.0
k55 0.0
ca35 0.0
ca36 1.9028306821476516e-93
ca37 7.573173932286436e-86
ca38 8.659386081786627e-46
ca39 1.5483267008448985e-41
ca40 8.164810600428512e-07
ca41 1.6745973213550345e-08
ca42 6.919821748647542e-08
ca43 2.884640009606568e-08
ca44 6.743544393580817e-08
ca45 1.5350003327951933e-08
ca46 4.897879361557619e-09
ca47 2.036249387036045e-10
ca48 2.8330183114254976e-09
ca49 1.759728285077624e-15
ca50 3.720308975288105e-32
ca51 3.8870582728764023e-41
ca52 6.397281482504964e-55
ca53 1.4127002045162196e-76
ca54 9.182515695574432e-98
ca55 0.0
ca56 0.0
ca57 0.0
sc36 0.0
sc37 0.0
sc38 0.0
sc39 2.971407505696979e-79
sc40 1.3856087903792683e-65
sc41 1.8055339120316789e-28
sc42 5.252057118411514e-29
sc43 5.609543447520489e-12
sc44 4.874723921500436e-12
sc45 4.812096592038132e-09
sc46 2.291380785686958e-09
sc47 6.048098973135896e-10
sc48 7.928408263897874e-11
sc49 1.406128764805726e-13
sc50 5.26942111186006e-22
sc51 1.7831535509537407e-36
sc52 4.277649359710423e-45
sc53 8.792094789809428e-65
sc54 2.68912585731192e-85
sc55 0.0
sc56 0.0
sc57 0.0
sc58 0.0
sc59 0.0
ti39 0.0
ti40 0.0
ti41 2.917483753609971e-87
ti42 1.2823257148876564e-49
ti43 3.8148223112371505e-49
ti44 4.556964849670116e-14
ti45 1.945187194483065e-15
ti46 7.125145686593513e-09
ti47 7.57859045148742e-09
ti48 1.0193827850954635e-08
ti49 2.416528810112144e-08
ti50 4.82979392880886e-08
ti51 5.1038711957809745e-14
ti52 2.1200754084653653e-20
ti53 4.7008664788937953e-29
ti54 3.642699920441153e-34
ti55 3.1424956965349785e-54
ti56 1.3070838176048535e-74
ti57 6.376745110545796e-96
ti58 0.0
ti59 0.0
ti60 0.0
ti61 0.0
ti62 0.0
v41 0.0
v42 0.0
v43 1.3900159056496517e-76
v44 5.980568663672251e-71
v45 4.383123500432205e-36
v46 2.0597073558715512e-36
v47 2.5066875727912396e-14
v48 1.030545856458191e-12
v49 1.4333502615777806e-10
v50 2.757525296416338e-10
v51 6.64776832798391e-09
v52 9.487650550190126e-15
v53 1.4285090489268506e-20
v54 7.421463127800135e-28
v55 4.3274734664195913e-44
v56 1.4857036529994783e-63
v57 3.0485429567172723e-82
v58 0.0
v59 0.0
v60 0.0
v61 0.0
v62 0.0
v63 0.0
v64 0.0
v65 0.0
cr43 0.0
cr44 5.465618212411253e-99
cr45 5.612715816691855e-93
cr46 3.306099796025924e-57
cr47 8.786854796405289e-57
cr48 1.320895281006521e-16
cr49 2.3328864813250017e-18
cr50 1.356018197580483e-10
cr51 6.270846785676551e-11
cr52 1.281618641552769e-07
cr53 2.943556340862805e-08
cr54 1.4666395950537676e-07
cr55 3.853117752346398e-14
cr56 9.624478213961481e-17
cr57 3.7248361666473734e-30
cr58 3.634932103924781e-43
cr59 2.2858587395396407e-62
cr60 8.06524260504431e-81
cr61 7.1356363579315e-100
cr62 0.0
cr63 0.0
cr64 0.0
cr65 0.0
cr66 0.0
cr67 0.0
cr68 0.0
mn45 0.0
mn46 0.0
mn47 1.4872501283812227e-85
mn48 7.041189841634616e-80
mn49 1.3046894904515882e-38
mn50 8.41465860092464e-40
mn51 3.0374959315518737e-16
mn52 6.346431804044375e-15
mn53 7.7063978309703e-11
mn54 7.189757625343112e-11
mn55 1.5503118165795005e-07
mn56 1.526721061187398e-11
mn57 9.773248717011505e-19
mn58 4.3279754517390356e-36
mn59 1.2355626359535408e-44
mn60 4.4590424751933413e-41
mn61 3.1030034555673094e-59
mn62 7.845443386871009e-78
mn63 2.1032673566071483e-96
mn64 0.0
mn65 0.0
mn66 0.0
mn67 0.0
mn68 0.0
mn69 0.0
mn70 0.0
mn71 0.0
fe47 0.0
fe48 0.0
fe49 0.0
fe50 9.673572832426738e-66
fe51 5.5433056570234465e-62
fe52 8.126964227532633e-20
fe53 2.352405956825079e-22
fe54 7.117138469896394e-08
fe55 3.928800670778873e-08
fe56 6.51585136934342e-06
fe57 3.265826720705179e-06
fe58 6.981614094919084e-06
fe59 1.192872612336149e-06
fe60 4.6009461856093937e-07
fe61 7.035295965465636e-13
fe62 2.385397681625474e-20
fe63 5.11286436604482e-38
fe64 1.239840480399243e-55
fe65 6.083087510852287e-75
fe66 1.1304931476075724e-87
fe67 1.386599371042697e-94
fe68 0.0
fe69 0.0
fe70 0.0
fe71 0.0
fe72 0.0
fe73 0.0
fe74 0.0
co48 0.0
co49 0.0
co50 0.0
co51 5.449356261037282e-93
co52 1.4622295350081657e-85
co53 3.929958956503262e-42
co54 5.505609554794512e-45
co55 1.3517772382252665e-12
co56 8.694783412359154e-13
co57 1.7071178957353146e-09
co58 1.2577961461053067e-09
co59 1.4325550591084037e-06
co60 2.7418827492152826e-07
co61 2.3684138911399317e-09
co62 3.1747059178172024e-15
co63 5.4069899966917895e-25
co64 9.147314429294172e-44
co65 8.625814286475574e-61
co66 1.4472125894823015e-79
co67 4.031640415072633e-88
co68 0.0
co69 0.0
co70 0.0
co71 0.0
co72 0.0
co73 0.0
co74 0.0
co75 0.0
co76 0.0
co77 0.0
ni51 0.0
ni52 0.0
ni53 0.0
ni54 2.9718897902732516e-65
ni55 1.375342992670676e-67
ni56 9.400704673580016e-17
ni57 4.764012725129373e-18
ni58 1.3131464837229915e-08
ni59 8.831567170300563e-09
ni60 9.425422736289358e-07
ni61 9.753320696724558e-07
ni62 9.947670536692604e-07
ni63 1.1285292857378655e-06
ni64 1.0355558634703699e-06
ni65 3.739663745560051e-09
ni66 1.1420529472222168e-09
ni67 9.007890319257777e-25
ni68 1.0322319763501217e-27
ni69 5.082964818393655e-39
ni70 1.5976612945268335e-49
ni71 6.397750350454223e-65
ni72 7.192357749442414e-77
ni73 3.282084730020597e-91
ni74 9.033268562627533e-98
ni75 0.0
ni76 0.0
ni77 0.0
ni78 0.0
ni79 0.0
cu52 0.0
cu53 0.0
cu54 0.0
cu55 2.125284094615822e-96
cu56 6.735710531928776e-92
cu57 4.52959967864887e-40
cu58 1.086525765907431e-39
cu59 8.822648581670353e-21
cu60 1.4934267218212235e-16
cu61 2.2825586306015907e-12
cu62 4.9356527402877807e-14
cu63 2.2988218143348313e-08
cu64 3.429293815592872e-09
cu65 2.1655536944438274e-07
cu66 3.2555949493137344e-12
cu67 1.2924873397891038e-09
cu68 8.037345635378071e-22
cu69 2.5962419760482526e-19
cu70 1.7395503518779518e-36
cu71 1.2655137425947823e-35
cu72 3.167320813250396e-48
cu73 9.929877377153136e-58
cu74 4.01708463280157e-73
cu75 1.074822955274837e-81
cu76 2.4511162070534123e-95
cu77 0.0
cu78 0.0
cu79 0.0
cu80 0.0
cu81 0.0
cu82 0.0
zn55 0.0
zn56 0.0
zn57 0.0
zn58 6.145956066021861e-64
zn59 3.593890531318274e-63
zn60 4.41441778737669e-26
zn61 4.478395108596194e-27
zn62 8.351764011429608e-17
zn63 4.556373564404588e-19
zn64 1.5613704264826907e-08
zn65 4.751497084990941e-09
zn66 1.634058330319463e-07
zn67 5.5846543562328094e-08
zn68 1.7390713713735266e-07
zn69 8.293200181392945e-11
zn70 4.9708036688733695e-09
zn71 6.586263576374854e-15
zn72 4.051442734643448e-12
zn73 3.1449648991201686e-26
zn74 1.4307350609929694e-24
zn75 1.5364303481684804e-40
zn76 2.3320651452483057e-50
zn77 5.001977808548848e-67
zn78 1.2330657596632603e-77
zn79 7.455055682998948e-89
zn80 0.0
zn81 0.0
zn82 0.0
zn83 0.0
zn84 0.0
ga57 0.0
ga58 0.0
ga59 0.0
ga60 6.797405683726524e-92
ga61 8.798793385752947e-53
ga62 4.1796289615834296e-51
ga63 1.5802516884923876e-33
ga64 4.825157728924706e-28
ga65 3.8936539284950255e-16
ga66 2.882380632325269e-14
ga67 1.1044991414458733e-11
ga68 1.1257113301935694e-13
ga69 3.140719748637002e-08
ga70 1.7390340971090865e-11
ga71 7.70263279914845e-09
ga72 1.4982043638987484e-09
ga73 3.5129890749306503e-10
ga74 5.080734784363793e-16
ga75 8.739523172220333e-20
ga76 1.1356335430957062e-28
ga77 1.4407644394307108e-37
ga78 1.9073231859902234e-50
ga79 1.3122312975898867e-61
ga80 1.2636734628902901e-73
ga81 9.675618760513121e-83
ga82 0.0
ga83 0.0
ga84 0.0
ga85 0.0
ga86 0.0
ge59 0.0
ge60 0.0
ge61 0.0
ge62 6.755576049926445e-76
ge63 4.694832244295247e-75
ge64 4.07644806072832e-40
ge65 7.046746897868884e-41
ge66 8.926438094530359e-21
ge67 1.7361140584874072e-21
ge68 6.59331378493946e-16
ge69 9.564552329533687e-16
ge70 2.409458396763e-08
ge71 7.876871436241941e-09
ge72 2.4829899777421826e-08
ge73 1.4687586311903173e-08
ge74 3.032708783926136e-08
ge75 1.2820403736647545e-10
ge76 1.7517969908591107e-09
ge77 5.422849116721707e-13
ge78 1.2102553930390998e-13
ge79 3.194162577425297e-28
ge80 7.438301981617741e-31
ge81 7.93831836122607e-45
ge82 8.092365404255203e-55
ge83 2.4502293422733193e-72
ge84 7.937798813663984e-88
ge85 0.0
ge86 0.0
ge87 0.0
ge88 0.0
ge89 0.0
as61 0.0
as62 0.0
as63 0.0
as64 0.0
as65 4.1035200413383735e-69
as66 4.498628751211689e-66
as67 1.1220338581211246e-37
as68 5.639619649875261e-31
as69 4.237802825430685e-24
as70 1.2499005206690833e-22
as71 2.8289994175165115e-13
as72 1.0056830681388958e-13
as73 2.0351994296150354e-12
as74 9.271725610429283e-13
as75 6.30312153466855e-09
as76 2.6346849261469444e-09
as77 2.253312748797743e-09
as78 1.340817497245826e-11
as79 1.0897279685487263e-14
as80 4.1043075087477334e-29
as81 4.25524984218441e-28
as82 3.208077809264195e-35
as83 2.343158407437631e-41
as84 4.186764310588556e-59
as85 3.0524209427747093e-71
as86 1.015572069837506e-86
as87 0.0
as88 0.0
as89 0.0
as90 0.0
as91 0.0
se64 0.0
se65 0.0
se66 8.14148468324264e-95
se67 1.2094744199662705e-91
se68 2.0452503028572783e-47
se69 2.940492395837391e-44
se70 3.841934044247588e-30
se71 1.1489258928340034e-30
se72 7.214575208780836e-18
se73 7.665085718121518e-19
se74 1.8221726459724882e-14
se75 5.3934950970858464e-14
se76 3.366344012166012e-09
se77 4.142562701970784e-09
se78 9.939796342025139e-09
se79 6.332765168527858e-09
se80 1.6363426588735232e-08
se81 3.107035570980655e-12
se82 6.069909738705689e-10
se83 2.1363047443023622e-14
se84 1.9613859844184277e-19
se85 3.282589517005458e-30
se86 1.3785587317266601e-39
se87 4.898116290162792e-54
se88 4.4934428433946456e-72
se89 8.393757294666238e-92
se90 0.0
se91 0.0
se92 0.0
se93 0.0
br66 0.0
br67 0.0
br68 0.0
br69 3.467240724301162e-79
br70 4.507654840172471e-70
br71 6.558318551204026e-49
br72 1.462423729403631e-41
br73 9.114716959342155e-29
br74 5.100910614520975e-26
br75 3.0374748269413516e-21
br76 1.192569307064784e-19
br77 4.728529390769305e-14
br78 1.8762615524214797e-17
br79 2.3992850279021e-13
br80 4.785614948363575e-16
br81 3.1558407502803662e-09
br82 9.259810877769528e-10
br83 1.285815936854631e-10
br84 9.522373157027184e-14
br85 3.021819564023793e-18
br86 1.2130784189675302e-25
br87 1.0341202136219411e-29
br88 2.443588793525065e-40
br89 4.507204566793851e-55
br90 3.803269159479331e-70
br91 8.746540857407575e-88
br92 0.0
br93 0.0
br94 0.0
br95 0.0
kr69 0.0
kr70 0.0
kr71 8.782441772924203e-96
kr72 6.699107626504326e-62
kr73 2.325382534551756e-53
kr74 3.67181387000536e-34
kr75 1.944552572568538e-34
kr76 1.9763538109542128e-25
kr77 7.848754749540763e-26
kr78 7.39153509453257e-19
kr79 3.003450496382714e-19
kr80 2.4023786502230413e-13
kr81 1.0992276287187749e-13
kr82 2.5117663781178596e-09
kr83 3.3069880964481735e-09
kr84 1.043782364650647e-08
kr85 5.7075400852480655e-09
kr86 7.1746367123520545e-09
kr87 6.632962296992896e-13
kr88 1.142971193631102e-13
kr89 1.2627572743981017e-20
kr90 2.5171112957302694e-30
kr91 3.7520459799902417e-44
kr92 4.4549518383511095e-62
kr93 2.2515330664860747e-77
kr94 2.8113332943310987e-96
kr95 0.0
kr96 0.0
kr97 0.0
rb72 0.0
rb73 2.967238507125815e-95
rb74 1.6904739985909247e-79
rb75 4.4801159137273363e-54
rb76 9.687341345983143e-47
rb77 3.828693391941038e-36
rb78 3.368805742461485e-34
rb79 8.438554814473244e-27
rb80 1.248262811691565e-33
rb81 1.8348285639289933e-19
rb82 9.86836864214748e-24
rb83 1.5881511240891104e-14
rb84 9.947554020335715e-15
rb85 2.0193960368544548e-10
rb86 1.8627053420281187e-10
rb87 2.186603484517228e-09
rb88 1.2164052752808708e-13
rb89 3.800155453419696e-16
rb90 1.8417755486329202e-20
rb91 8.728919230131151e-27
rb92 1.1668685262721183e-43
rb93 9.541613005776827e-50
rb94 2.8397046145948092e-64
rb95 5.610187265374329e-82
rb96 0.0
rb97 0.0
rb98 0.0
rb99 0.0
sr75 0.0
sr76 2.5179583420102546e-78
sr77 2.6486413799290058e-68
sr78 7.657730108780068e-42
sr79 7.724029546429351e-39
sr80 1.4292325514159157e-31
sr81 9.45305746842022e-31
sr82 1.0684720807585917e-24
sr83 5.255894459773574e-23
sr84 9.821458441391839e-18
sr85 1.0312392755551635e-16
sr86 2.4303197524579304e-10
sr87 3.641815527267166e-10
sr88 6.211224162836196e-09
sr89 9.067458508282209e-10
sr90 2.5517166321417313e-10
sr91 3.3440314997983637e-12
sr92 8.605218516493364e-14
sr93 6.2746489639514125e-19
sr94 6.765176869028416e-26
sr95 1.7435733673456873e-36
sr96 1.072283053129367e-54
sr97 6.344766351214788e-74
sr98 5.700758188136056e-92
sr99 0.0
sr100 0.0
sr101 0.0
y77 0.0
y78 3.993670363324226e-95
y79 6.00839755000305e-65
y80 3.1755680898844797e-50
y81 2.5989314484446483e-42
y82 1.8056349448261816e-49
y83 1.2742462394689267e-33
y84 2.0824041315026365e-38
y85 1.39961271971354e-24
y86 4.2725154349672237e-23
y87 2.6161287661251477e-16
y88 6.892009960101234e-16
y89 5.560901486333411e-10
y90 3.169655598817897e-11
y91 8.899977126065662e-11
y92 3.9188964497640756e-12
y93 7.033119245335126e-12
y94 4.258995347433583e-15
y95 1.657374086511846e-17
y96 2.620791010616167e-34
y97 2.8036117091879825e-48
y98 1.5172002415558408e-66
y99 2.1748852449938723e-76
y100 3.792993733752636e-92
y101 0.0
y102 0.0
y103 0.0
zr80 1.4526630946660295e-92
zr81 8.618809504791891e-76
zr82 1.3465886422821263e-65
zr83 2.5157833985693127e-44
zr84 7.014081083791165e-36
zr85 4.4054575206918243e-35
zr86 1.1103358896174571e-29
zr87 5.401898126628661e-29
zr88 4.842286775989125e-22
zr89 6.170774908210777e-20
zr90 2.7997872810292793e-10
zr91 1.5085057778429643e-10
zr92 3.0651338460570884e-10
zr93 1.3995292337870612e-10
zr94 2.4510713361799e-10
zr95 7.331824353173161e-11
zr96 1.1798544518338555e-10
zr97 1.9751677975815882e-13
zr98 8.980563733013164e-26
zr99 1.6287550727653754e-43
zr100 1.0262760851620232e-58
zr101 7.71257204849619e-74
zr102 7.472715623974652e-91
zr103 0.0
zr104 0.0
zr105 0.0
nb83 1.1448114893643437e-92
nb84 9.171892508380844e-61
nb85 1.0746017175382942e-49
nb86 1.1001731351633537e-43
nb87 4.791661995243749e-38
nb88 1.508799291231231e-36
nb89 6.840073349212145e-30
nb90 1.4355442814546778e-26
nb91 3.4967993776249046e-16
nb92 2.91426084913955e-16
nb93 1.559397619857553e-15
nb94 1.4763115429011547e-15
nb95 8.950134649561947e-13
nb96 8.23896993318722e-13
nb97 3.7989883692154895e-14
nb98 1.7276763623153051e-26
nb99 1.1999668040846288e-32
nb100 1.8732229359942784e-49
nb101 5.9125820814299795e-46
nb102 1.743181433369849e-62
nb103 6.395880739624085e-71
nb104 2.3797566649852704e-88
nb105 0.0
nb106 0.0
nb107 0.0
mo85 5.3897863447838566e-89
mo86 9.971801731675252e-77
mo87 1.4126779730346979e-61
mo88 2.9904435566699943e-41
mo89 1.9648062407325076e-39
mo90 6.461811166649817e-33
mo91 3.030130570393737e-31
mo92 1.554594853141696e-14
mo93 4.423367163969524e-15
mo94 4.1037176715829063e-14
mo95 5.445019926975793e-13
mo96 3.9581706453789166e-12
mo97 4.8921046484246284e-12
mo98 2.4342868195613026e-11
mo99 1.45112594130731e-12
mo100 1.4867157968205275e-11
mo101 2.273255631620859e-15
mo102 7.73127558734463e-18
mo103 2.5251088897863065e-25
mo104 8.965597207485406e-29
mo105 2.402455520501186e-46
mo106 4.1879680900485156e-64
mo107 4.863635993305583e-83
mo108 0.0
mo109 0.0
tc88 1.6120366101028314e-89
tc89 6.747243428108033e-68
tc90 9.615182673856516e-58
tc91 1.8292883044048346e-42
tc92 6.470404108474925e-39
tc93 4.945042087069786e-22
tc94 5.23256021364848e-22
tc95 1.3774547813028045e-20
tc96 9.268703533583469e-20
tc97 1.3597890371812118e-18
tc98 1.0445406652461543e-18
tc99 9.694360436524465e-13
tc100 2.8201332814203417e-27
tc101 4.272878928086581e-15
tc102 6.068071164695982e-20
tc103 9.019870242530631e-25
tc104 1.4061232477763876e-22
tc105 9.086858942984867e-25
tc106 4.3310188142474114e-34
tc107 1.4339700923048156e-39
tc108 5.1227013561241165e-54
tc109 2.4093318162800312e-71
tc110 9.736753557264967e-90
ru91 1.847690496773817e-85
ru92 1.5169089995243093e-67
ru93 2.78068349470023e-40
ru94 2.7426930091049233e-29
ru95 1.6246301103420519e-28
ru96 1.2414892778914518e-20
ru97 5.3423678084822316e-21
ru98 6.059163176494313e-19
ru99 1.2431063204434053e-16
ru100 4.4632397033243105e-12
ru101 2.038453243468261e-12
ru102 1.073523768654756e-11
ru103 5.626268206922916e-12
ru104 1.6541337567063825e-11
ru105 5.637723019242621e-13
ru106 6.443817189857177e-12
ru107 1.7198570296158817e-17
ru108 3.4504668447463665e-19
ru109 1.2717708264819846e-28
ru110 1.0592062021278479e-36
ru111 1.0305711173361768e-55
ru112 1.3879836330225716e-74
rh93 5.734187112831811e-96
rh94 2.7782898016630097e-52
rh95 5.173554715446572e-39
rh96 2.7524137204345015e-37
rh97 4.419186675527282e-30
rh98 6.85096660675135e-31
rh99 7.971333931614339e-26
rh100 4.841268549286473e-24
rh101 2.3603730032930486e-19
rh102 1.456365244704192e-19
rh103 1.1181459586631891e-13
rh104 4.125586219096733e-23
rh105 1.3235438888975502e-12
rh106 7.748057429875004e-18
rh107 2.148170246601045e-15
rh108 2.262601580000139e-20
rh109 5.625812371331906e-24
rh110 2.9800389790300846e-37
rh111 2.371193000405443e-40
rh112 2.7220651463876905e-54
rh113 2.0912962036181252e-60
rh114 1.218564833000986e-69
pd96 8.573596256178627e-41
pd97 8.049146560107055e-37
pd98 1.63287856439064e-30
pd99 2.4960803973718663e-29
pd100 1.1109181790939661e-26
pd101 4.241063852272969e-28
pd102 8.813391339376549e-23
pd103 2.2663159210158726e-21
pd104 5.57545897613537e-13
pd105 4.645322138351995e-13
pd106 4.618542218617418e-12
pd107 1.5662209361409488e-12
pd108 1.0648006339094793e-11
pd109 2.145770151504425e-12
pd110 9.702619659321595e-12
pd111 9.459124876926328e-15
pd112 2.5698284184824155e-13
pd113 5.1369052940703446e-21
pd114 3.4550625715695083e-22
pd115 3.979665229981169e-31
ag98 4.155837620575061e-49
ag99 1.8444567432266883e-41
ag100 1.0569230178422786e-39
ag101 2.8219199680916274e-35
ag102 4.212528397627158e-33
ag103 2.0292884327060637e-30
ag104 1.4008072220001863e-28
ag105 7.242480574528923e-21
ag106 1.2707624631573797e-22
ag107 1.216258072132547e-18
ag108 5.661080151812694e-24
ag109 1.2092681659285155e-12
ag110 7.850459490691101e-22
ag111 8.732474493439132e-13
ag112 1.0945354356299515e-13
ag113 2.1062588463038518e-17
ag114 1.1303901044983225e-23
ag115 4.5939033803671587e-29
ag116 2.188562935521923e-34
cd101 1.707656880013302e-41
cd102 2.9975829400956504e-33
cd103 9.044757692560814e-32
cd104 9.296951060549894e-28
cd105 6.875081821427217e-29
cd106 1.943072812097933e-23
cd107 3.1581773391540285e-24
cd108 9.202580969641875e-18
cd109 1.9062835707339927e-18
cd110 2.3245078719166444e-12
cd111 7.31557182157058e-13
cd112 5.105077955341187e-12
cd113 2.1324243009643488e-12
cd114 1.7204453469047055e-11
cd115 3.202899364179044e-12
cd116 2.4848231552761357e-11
cd117 1.5829292799396664e-13
in102 2.838914876400596e-56
in103 7.334524178230246e-46
in104 2.467092122425793e-43
in105 3.3162620740512453e-38
in106 2.0287275786771245e-37
in107 3.297672694535658e-33
in108 8.295365713656934e-31
in109 6.4346343403518404e-27
in110 2.2191128435277486e-26
in111 7.819152165554474e-21
in112 3.797879358316263e-23
in113 3.2895964638976795e-16
in114 1.456181712813078e-23
in115 4.982413640245815e-13
in116 1.8122533687366804e-25
in117 4.8950628322386193e-14
in118 6.013054186923914e-18
