n 2.0973232814293975e-27
h1 1.9700676761439892e-23
he4 4.43534806723085e-16
h2 5.69710621687521e-31
h3 5.793069287249052e-24
he3 4.899652450473817e-24
li6 3.2543982840738237e-35
li7 6.355102652876519e-29
li8 5.3162240858894207e-45
li9 1.1655471284776093e-65
be7 5.100966355951621e-33
be9 1.5975337163202867e-40
be10 5.374955991934295e-37
be11 6.030720307352745e-67
be12 1.9193487465149253e-88
b8 1.817763129914347e-61
b10 1.740096804019583e-26
b11 3.3107278324530946e-17
b12 1.3330948632555404e-40
b13 9.012330264307765e-62
b14 9.584779137982759e-85
c10 0.0
c11 6.028408452119329e-25
c12 0.013307495135809692
c13 2.8856284019066953e-12
c14 1.0778303599854155e-10
c15 2.448215748518234e-33
c16 3.206486473772567e-53
c17 1.382054048844133e-77
c18 0.0
n11 0.0
n12 1.9329202449190703e-49
n13 3.6374419760928204e-16
n14 5.43567857227002e-10
n15 6.257244117358957e-11
n16 8.602956254597346e-32
n17 3.3931630389696663e-51
n18 2.378302125893176e-71
n19 8.251471311466237e-92
n20 0.0
n21 0.0
o13 1.2935290722912734e-70
o14 3.231407340471907e-27
o15 4.62753061655172e-19
o16 0.04766439851014675
o17 3.807875248014264e-10
o18 1.7329551077275693e-11
o19 6.623391450172911e-29
o20 2.1633300028285436e-40
o21 1.2318553651568377e-61
o22 2.47416174706458e-83
f16 7.185886841059068e-45
f17 8.362447325183701e-24
f18 6.842086991292991e-13
f19 6.879498151650603e-11
f20 1.003070924021364e-39
f21 8.63212735731277e-56
f22 2.8918936922723837e-61
f23 2.66681743697329e-73
f24 8.069780128287203e-96
f25 0.0
f26 0.0
ne16 0.0
ne17 0.0
ne18 3.05400354972407e-43
ne19 2.439160512515009e-30
ne20 0.002350061713207924
ne21 4.537185609280498e-06
ne22 0.0003922829047317559
ne23 1.5773601392705628e-20
ne24 4.38569970005408e-20
ne25 2.2614649224805697e-41
ne26 1.0903430472373651e-62
ne27 1.7017226423403676e-83
ne28 0.0
ne29 0.0
na19 6.517376062163429e-74
na20 1.8577886806255066e-52
na21 2.7524812450180227e-22
na22 1.580094012853609e-08
na23 5.5567758294409325e-05
na24 4.037820582179531e-08
na25 9.000452156058503e-20
na26 4.541671565716863e-40
na27 1.6151944808140852e-60
na28 1.4504088418299617e-80
na29 1.7127846344722573e-99
na30 0.0
na31 0.0
na32 0.0
mg20 3.059144323669045e-97
mg21 1.2955574920948831e-73
mg22 1.216750068233897e-38
mg23 1.2963799305460266e-24
mg24 0.0003724033244262269
mg25 0.0001606210161370057
mg26 0.00012238834326983394
mg27 4.589043519321992e-12
mg28 8.010083825130385e-12
mg29 1.9254525969791278e-32
mg30 4.7496284745140675e-51
mg31 4.393149012763058e-70
mg32 1.4317256031846728e-88
mg33 0.0
mg34 0.0
mg35 0.0
al22 0.0
al23 6.478508669480691e-65
al24 8.026144042778468e-43
al25 1.199010069737192e-20
al26 3.105380902487313e-09
al27 2.9251872802182997e-05
al28 2.0169829021999552e-13
al29 3.396244575279609e-15
al30 1.0397471616717087e-34
al31 3.0583636231422546e-54
al32 1.8555416025754637e-73
al33 2.7490545458925354e-92
al34 0.0
al35 0.0
al36 0.0
al37 0.0
al38 0.0
si23 0.0
si24 5.224091223091528e-85
si25 5.317015527748674e-62
si26 3.1122027004195324e-38
si27 8.311312818392933e-26
si28 4.1798404943427574e-05
si29 8.657566694137526e-06
si30 6.66984669963746e-06
si31 4.236243491351846e-09
si32 6.541852146333585e-10
si33 1.5124787453844917e-29
si34 3.8679545156696086e-47
si35 1.2278955947494564e-65
si36 7.714284293836756e-84
si37 0.0
si38 0.0
si39 0.0
si40 0.0
si41 0.0
p25 0.0
p26 9.039887403553336e-92
p27 1.2899984526277685e-57
p28 8.689331723959041e-45
p29 3.3312005971736703e-23
p30 3.973079060760173e-14
p31 2.7751830719810363e-06
p32 1.1648238248530984e-08
p33 2.265453442144775e-09
p34 7.480780979498624e-28
p35 5.257196895339171e-27
p36 7.232722113258673e-47
p37 4.943442610406815e-66
p38 2.306207544191899e-84
p39 0.0
p40 0.0
p41 0.0
p42 0.0
p43 0.0
p44 0.0
s27 0.0
s28 1.1818809660331484e-81
s29 5.5398347692285134e-64
s30 3.51858103641032e-42
s31 4.8616722793824263e-33
s32 8.299404839415378e-06
s33 1.507287382333152e-07
s34 7.494551532821008e-07
s35 4.836943984165604e-09
s36 6.985744334419312e-08
s37 2.4927036260816984e-17
s38 4.8242977903884856e-18
s39 3.0470420708727826e-37
s40 1.451919737422503e-48
s41 3.163523029591305e-68
s42 1.9263478457886602e-88
s43 0.0
s44 0.0
s45 0.0
s46 0.0
s47 0.0
cl29 0.0
cl30 1.6466985475624752e-95
cl31 5.257338610250299e-67
cl32 1.757884582328946e-55
cl33 5.788374336762148e-24
cl34 8.321004720571728e-26
cl35 6.339280322592133e-08
cl36 4.785821311190252e-09
cl37 1.3111659557080498e-06
cl38 2.2208426022510278e-12
cl39 1.2880760416918755e-14
cl40 1.803339585101526e-24
cl41 7.213280547416454e-32
cl42 1.8423472792109696e-49
cl43 1.760437571832185e-57
cl44 4.609356445200046e-78
cl45 6.529522607186324e-98
cl46 0.0
cl47 0.0
cl48 0.0
cl49 0.0
cl50 0.0
ar31 0.0
ar32 6.505773219864654e-92
ar33 9.204371633871758e-78
ar34 5.937937275003975e-43
ar35 1.853376350162276e-43
ar36 1.0337665510399197e-06
ar37 1.4946858345170184e-09
ar38 1.121448346484729e-06
ar39 2.982912077258461e-08
ar40 2.5298708451178783e-08
ar41 3.737470821082433e-12
ar42 3.1419106106180484e-12
ar43 1.0016230873164859e-18
ar44 1.2771795878884228e-21
ar45 6.848734882764365e-37
ar46 1.0958790298677498e-49
ar47 2.18805725789682e-70
ar48 5.995238634537193e-92
ar49 0.0
ar50 0.0
ar51 0.0
ar52 0.0
k32 0.0
k33 0.0
k34 0.0
k35 7.299524940271803e-70
k36 8.710364138484196e-65
k37 3.1698398320826324e-25
k38 1.849452063145524e-23
k39 1.668269242730855e-07
k40 1.9893747957116765e-08
k41 3.599044721033104e-08
k42 3.617406968769152e-10
k43 1.782151504233469e-11
k44 2.635021108419822e-16
k45 2.335464815687213e-19
k46 1.948153555523633e-27
k47 6.413954364931715e-41
k48 1.94909117578302e-56
k49 7.176292039084202e-76
k50 3.503541552813199e-97
k51 0.0
k52 0.0
k53 0.0
k54 0.0
k55 0.0
ca35 0.0
ca36 1.4218651442632116e-92
ca37 2.5634601055950163e-85
ca38 3.4051995160207293e-45
ca39 2.76474660478276e-44
ca40 9.11647807179589e-07
ca41 1.7930901356535836e-08
ca42 7.987587720093288e-08
ca43 2.389960787968383e-08
ca44 6.757283921069013e-08
ca45 2.895392582300073e-09
ca46 9.643951841414916e-10
ca47 3.8387990633496646e-11
ca48 3.1168431350578325e-09
ca49 2.1140931945792323e-16
ca50 1.3832357463569188e-34
ca51 4.774089624573935e-44
ca52 1.12609026367847e-58
ca53 2.826091118714338e-81
ca54 0.0
ca55 0.0
ca56 0.0
ca57 0.0
sc36 0.0
sc37 0.0
sc38 0.0
sc39 1.3592602213691825e-78
sc40 2.957427056886701e-69
sc41 2.343275039347174e-28
sc42 8.618978627138547e-29
sc43 1.034407572716014e-12
sc44 8.973688216615976e-13
sc45 7.368974531649476e-09
sc46 4.3230299556651956e-10
sc47 1.1402418923222008e-10
sc48 1.4949551061754002e-11
sc49 2.2639595570520216e-14
sc50 3.100968669519336e-23
sc51 4.39714261715588e-39
sc52 2.6477688816500024e-48
sc53 6.379829992237151e-69
sc54 2.4297777344344894e-90
sc55 0.0
sc56 0.0
sc57 0.0
sc58 0.0
sc59 0.0
ti39 0.0
ti40 0.0
ti41 1.9099203284482476e-92
ti42 2.344064014922977e-49
ti43 7.48669951281646e-49
ti44 8.595823442074461e-15
ti45 3.6134350430695353e-16
ti46 1.3779666690849625e-08
ti47 5.686287428060075e-09
ti48 1.1168136853686543e-08
ti49 2.101129586856891e-08
ti50 4.5485884673792816e-08
ti51 5.547140563573109e-15
ti52 1.3379779557551836e-21
ti53 6.328159943843599e-31
ti54 5.168728260510431e-36
ti55 5.520145585783486e-57
ti56 4.3149743342970124e-78
ti57 1.5543947883377114e-97
ti58 0.0
ti59 0.0
ti60 0.0
ti61 0.0
ti62 0.0
v41 0.0
v42 0.0
v43 1.8982621342595484e-75
v44 1.472224238977569e-70
v45 3.870569133874882e-38
v46 1.1896181180102964e-38
v47 3.600090026190208e-15
v48 1.9484964317095968e-13
v49 2.703234825769797e-11
v50 5.212898926441775e-11
v51 4.950016866612431e-09
v52 8.958196640037494e-16
v53 8.72399373874592e-22
v54 2.1273964580956297e-29
v55 4.045050682815303e-47
v56 2.3920424205646262e-67
v57 2.802009684948579e-84
v58 0.0
v59 0.0
v60 0.0
v61 0.0
v62 0.0
v63 0.0
v64 0.0
v65 0.0
cr43 0.0
cr44 8.43084504390755e-98
cr45 1.3698216809703515e-92
cr46 1.0009199439807501e-60
cr47 1.8883428004132742e-60
cr48 2.4979105721211983e-17
cr49 3.3969871956656287e-19
cr50 1.7965565425007155e-10
cr51 1.1830440661346319e-11
cr52 1.5242498182392848e-07
cr53 2.639164017707672e-08
cr54 1.4681725664711158e-07
cr55 3.5391588264518085e-15
cr56 1.0386593889113015e-17
cr57 2.496893266662211e-32
cr58 1.461252366958849e-46
cr59 1.0012529628735386e-66
cr60 3.0898425369498197e-86
cr61 0.0
cr62 0.0
cr63 0.0
cr64 0.0
cr65 0.0
cr66 0.0
cr67 0.0
cr68 0.0
mn45 0.0
mn46 0.0
mn47 4.923200364704937e-90
mn48 1.554797062430171e-84
mn49 8.8713722869949e-41
mn50 3.395455156661215e-42
mn51 4.5478077777396974e-17
mn52 1.198366179680076e-15
mn53 1.4533990776580995e-11
mn54 1.3559863825982732e-11
mn55 1.7644689830659733e-07
mn56 2.4465631278141644e-12
mn57 5.1776111932482677e-20
mn58 2.48891110994966e-38
mn59 1.8461428374908504e-48
mn60 1.7181403293617592e-42
mn61 1.5381221877258074e-61
mn62 8.391594994782252e-81
mn63 2.0519905941307226e-97
mn64 0.0
mn65 0.0
mn66 0.0
mn67 0.0
mn68 0.0
mn69 0.0
mn70 0.0
mn71 0.0
fe47 0.0
fe48 0.0
fe49 0.0
fe50 1.6770278220216024e-69
fe51 5.317225426113347e-66
fe52 1.5344769040676908e-20
fe53 2.814897868770889e-23
fe54 1.0703258462475147e-07
fe55 7.411681934856189e-09
fe56 8.309790637987366e-06
fe57 2.7101984193949806e-06
fe58 7.878059961649845e-06
fe59 2.2504688175635961e-07
fe60 8.701311387685829e-08
fe61 7.724917728833668e-14
fe62 9.688765711121493e-22
fe63 1.7959667958781968e-40
fe64 3.932554546789689e-59
fe65 1.2775554786222805e-76
fe66 3.900816437641525e-93
fe67 0.0
fe68 0.0
fe69 0.0
fe70 0.0
fe71 0.0
fe72 0.0
fe73 0.0
fe74 0.0
co48 0.0
co49 0.0
co50 0.0
co51 8.971418580561588e-97
co52 4.371972409875174e-91
co53 2.4877774937825077e-44
co54 1.7242478424674846e-47
co55 2.539568100168659e-13
co56 1.6388149075673228e-13
co57 3.2195686399636303e-10
co58 2.3720109002981295e-10
co59 1.8945473616482125e-06
co60 5.177867747893001e-08
co61 4.3429245480961863e-10
co62 2.7254238163394225e-16
co63 5.2222347516143734e-27
co64 1.0856058247369826e-46
co65 9.98148879065518e-65
co66 5.793103699039393e-82
co67 3.3057730582681506e-95
co68 0.0
co69 0.0
co70 0.0
co71 0.0
co72 0.0
co73 0.0
co74 0.0
co75 0.0
co76 0.0
co77 0.0
ni51 0.0
ni52 0.0
ni53 0.0
ni54 4.75902421288872e-69
ni55 1.0243217553416204e-71
ni56 1.7727092361899613e-17
ni57 8.9695366862712e-19
ni58 2.184430652896379e-08
ni59 1.2893264379944227e-08
ni60 1.717045920926193e-06
ni61 6.50751870786878e-07
ni62 9.11328097103734e-07
ni63 2.2384716972054238e-07
ni64 5.79105462803984e-07
ni65 6.985020142264678e-10
ni66 2.1538073076334582e-10
ni67 5.772913595025545e-27
ni68 1.0977675609194899e-29
ni69 1.0311678249040578e-41
ni70 4.570766756201396e-53
ni71 9.270313941315929e-70
ni72 1.0998926767826586e-82
ni73 5.09099409882771e-98
ni74 0.0
ni75 0.0
ni76 0.0
ni77 0.0
ni78 0.0
ni79 0.0
cu52 0.0
cu53 0.0
cu54 0.0
cu55 0.0
cu56 4.1546281943151225e-97
cu57 3.552475180988947e-42
cu58 6.055541340516103e-42
cu59 3.8307786563875464e-22
cu60 2.11046368156532e-17
cu61 4.210998876512426e-13
cu62 6.0117363050163854e-15
cu63 2.429861704436962e-07
cu64 6.458793446553744e-10
cu65 1.6450119210336288e-07
cu66 4.91565057658449e-13
cu67 2.438196697771097e-10
cu68 9.049220664773201e-24
cu69 2.330228913050129e-20
cu70 1.711450998032304e-38
cu71 8.05047504509245e-38
cu72 1.1141456007622136e-51
cu73 1.2499091649158263e-61
cu74 6.88855066373726e-79
cu75 6.932092072400417e-88
cu76 0.0
cu77 0.0
cu78 0.0
cu79 0.0
cu80 0.0
cu81 0.0
cu82 0.0
zn55 0.0
zn56 0.0
zn57 0.0
zn58 1.2349948211801559e-67
zn59 4.4172640255581105e-67
zn60 3.280526743271615e-27
zn61 2.4726817670762604e-28
zn62 1.575941414050693e-17
zn63 6.287822747392673e-20
zn64 9.345309334633817e-08
zn65 8.9630131693811e-10
zn66 1.1360930223279397e-07
zn67 2.601745759567565e-08
zn68 8.218585622573716e-08
zn69 1.3515615557763217e-11
zn70 1.0283033347099439e-09
zn71 5.237275184319354e-16
zn72 7.64180665265246e-13
zn73 2.3219235942998645e-28
zn74 8.831383784918719e-26
zn75 2.2306601872620883e-43
zn76 6.125645304411984e-54
zn77 3.043224730937769e-72
zn78 1.5398052618685347e-83
zn79 2.255379937889738e-95
zn80 0.0
zn81 0.0
zn82 0.0
zn83 0.0
zn84 0.0
ga57 0.0
ga58 0.0
ga59 0.0
ga60 5.129521783473278e-96
ga61 8.155532443357828e-55
ga62 4.4613432804074e-54
ga63 1.83822631488495e-35
ga64 3.787470009853423e-29
ga65 5.113818878589471e-17
ga66 5.408297525912171e-15
ga67 2.0822911851551565e-12
ga68 1.8613636143712188e-14
ga69 1.1364791696904145e-08
ga70 2.3576386592716745e-12
ga71 5.276898057278265e-09
ga72 2.821803235768009e-10
ga73 6.604756263589765e-11
ga74 5.206287754962763e-17
ga75 6.586344249179825e-21
ga76 1.531502506800184e-30
ga77 4.663214408590485e-40
ga78 4.1395383509095793e-54
ga79 4.77141650691386e-66
ga80 2.759374773693708e-79
ga81 6.099384491540816e-89
ga82 0.0
ga83 0.0
ga84 0.0
ga85 0.0
ga86 0.0
ge59 0.0
ge60 0.0
ge61 0.0
ge62 1.3351835207519155e-79
ge63 1.0250401417073814e-79
ge64 1.396345567156474e-41
ge65 8.346864828610475e-43
ge66 1.655519535510383e-21
ge67 2.319436659448362e-22
ge68 1.243399943379897e-16
ge69 1.8081049029668636e-16
ge70 1.1152421165623864e-08
ge71 1.4855246827616548e-09
ge72 9.534185711521967e-09
ge73 4.057064946945332e-09
ge74 9.951909908251249e-09
ge75 2.3073537626394116e-11
ge76 3.407861639875319e-10
ge77 8.354601029228053e-14
ge78 2.2739363606327047e-14
ge79 1.709232816760713e-30
ge80 8.188756083918721e-33
ge81 3.8332761185174053e-48
ge82 1.4627106181454057e-58
ge83 8.80299994204148e-78
ge84 1.720712745235917e-94
ge85 0.0
ge86 0.0
ge87 0.0
ge88 0.0
ge89 0.0
as61 0.0
as62 0.0
as63 0.0
as64 0.0
as65 1.0516175738260319e-71
as66 9.505781923418508e-70
as67 1.9466155130629312e-39
as68 4.200826814852833e-32
as69 5.803329965825444e-25
as70 1.886801971403496e-23
as71 5.333273539441398e-14
as72 1.8950913240032624e-14
as73 3.838654917288161e-13
as74 1.7483028164739989e-13
as75 1.5689667442521457e-09
as76 4.954986253134989e-10
as77 4.2459396510514346e-10
as78 2.4003898759645507e-12
as79 1.2751673980544533e-15
as80 1.6787694378941606e-31
as81 5.9086794307805434e-30
as82 1.983496883737852e-37
as83 8.442954374145606e-44
as84 8.800836998596639e-63
as85 1.3016952429979953e-76
as86 2.255680580709629e-93
as87 0.0
as88 0.0
as89 0.0
as90 0.0
as91 0.0
se64 0.0
se65 0.0
se66 3.4038642363342236e-99
se67 3.8020283729680926e-97
se68 2.9058686541116173e-49
se69 2.8115937806734983e-46
se70 5.32940983208652e-31
se71 1.1565837488906996e-31
se72 1.3604915959161918e-18
se73 1.4318394548434836e-19
se74 3.4420403913032717e-15
se75 1.0164936288747004e-14
se76 1.7897993325880853e-09
se77 1.2147175915035415e-09
se78 3.267403578736094e-09
se79 1.7209028067667158e-09
se80 5.376788643816385e-09
se81 4.139278551091893e-13
se82 1.7283494098059754e-10
se83 2.909085804878475e-15
se84 1.7120122887512495e-20
se85 3.928668981438984e-32
se86 5.577427333982883e-42
se87 1.0637559844517434e-57
se88 5.3902738734882814e-77
se89 8.591788816142461e-98
se90 0.0
se91 0.0
se92 0.0
se93 0.0
br66 0.0
br67 0.0
br68 0.0
br69 1.8614207531245567e-82
br70 7.552836245745885e-74
br71 4.091583269829025e-51
br72 6.586778674238602e-43
br73 7.82201791316633e-30
br74 7.420727878740763e-27
br75 5.205306696929383e-22
br76 2.2455714708979975e-20
br77 8.920085973284706e-15
br78 2.102306090210079e-18
br79 1.6127422579982917e-13
br80 6.369648701634396e-17
br81 8.867376865738999e-10
br82 1.7440089320778943e-10
br83 2.4004303872385985e-11
br84 1.3462219573750835e-14
br85 2.5441129469731006e-19
br86 3.612244354304437e-27
br87 3.3789813971489937e-31
br88 1.1184160480283041e-42
br89 7.180031225510826e-59
br90 1.144131576801656e-75
br91 2.0373106523052504e-94
br92 0.0
br93 0.0
br94 0.0
br95 0.0
kr69 0.0
kr70 0.0
kr71 0.0
kr72 1.979026863179171e-65
kr73 1.7690054953045776e-55
kr74 4.6060977355469246e-35
kr75 1.8545658023413127e-35
kr76 3.733625639031092e-26
kr77 1.3552349210999643e-26
kr78 1.394667828621571e-19
kr79 5.662206389501453e-20
kr80 1.5057905058688478e-13
kr81 5.637038324228287e-14
kr82 1.3352603056847999e-09
kr83 9.247599821517427e-10
kr84 3.4245855784107604e-09
kr85 1.0766429506406417e-09
kr86 1.5539763056119282e-09
kr87 1.1013336431602593e-13
kr88 2.1534110879693845e-14
kr89 1.079063466426614e-21
kr90 3.1031110275147776e-32
kr91 2.5134074291870937e-47
kr92 2.2971205005211768e-66
kr93 1.3626622063842914e-83
kr94 0.0
kr95 0.0
kr96 0.0
kr97 0.0
rb72 0.0
rb73 2.2653789989600507e-100
rb74 2.000595590861881e-83
rb75 4.7990262344104346e-57
rb76 2.9986062703692053e-49
rb77 3.2667980216112028e-37
rb78 3.9137687975652135e-35
rb79 1.1539502558060976e-27
rb80 4.012579332723803e-35
rb81 3.4294869104054527e-20
rb82 7.038093837134607e-25
rb83 2.9964121356541378e-15
rb84 1.875645450565535e-15
rb85 2.702073018489096e-10
rb86 3.5135552513980137e-11
rb87 4.5641169148817936e-10
rb88 1.6895031090374907e-14
rb89 4.6396826923673295e-17
rb90 1.5337392332169625e-21
rb91 2.943913961664501e-28
rb92 3.9618455300761104e-46
rb93 2.624954400541561e-53
rb94 4.456226834523145e-69
rb95 1.01315087798066e-87
rb96 0.0
rb97 0.0
rb98 0.0
rb99 0.0
sr75 0.0
sr76 4.547734788797397e-83
sr77 7.095395391074269e-73
sr78 1.7648313296257183e-44
sr79 1.9283878307514494e-41
sr80 7.366911638514122e-33
sr81 2.5211957025887977e-33
sr82 1.9301241371921919e-25
sr83 9.947889161783315e-24
sr84 1.8556223541239433e-18
sr85 1.948059208299292e-17
sr86 7.590823930339012e-10
sr87 5.12718213217132e-10
sr88 3.3905351440961273e-09
sr89 1.7102821580510563e-10
sr90 4.812845983163799e-11
sr91 6.269422655481209e-13
sr92 1.614506448749474e-14
sr93 7.359011927261956e-20
sr94 3.0114540809313404e-27
sr95 1.353834144463095e-38
sr96 9.724372640517229e-58
sr97 8.218446773687703e-78
sr98 1.4466959469939405e-94
sr99 0.0
sr100 0.0
sr101 0.0
y77 0.0
y78 0.0
y79 1.940371034632705e-69
y80 6.169257732933388e-53
y81 5.518462392060522e-45
y82 8.69478669269842e-53
y83 3.538337849396085e-35
y84 5.271325878355303e-41
y85 2.598436481374654e-25
y86 8.058667750892215e-24
y87 4.9369495926512603e-17
y88 1.3010605956520065e-16
y89 5.005821177225884e-10
y90 5.975900268459941e-12
y91 1.679037635197866e-11
y92 7.342406061396406e-13
y93 1.326401209259261e-12
y94 5.706823239745995e-16
y95 1.9358930581157213e-18
y96 3.6088212460885545e-36
y97 3.8573261266781494e-52
y98 6.01300593652279e-69
y99 4.5915577163969526e-83
y100 1.3296568255239945e-98
y101 0.0
y102 0.0
y103 0.0
zr80 5.8647900993034814e-99
zr81 2.3653817798886432e-80
zr82 3.752050273873738e-70
zr83 5.719747772324763e-47
zr84 1.7755202547051845e-38
zr85 1.1339164090569594e-37
zr86 8.068852340515594e-31
zr87 4.829034675330479e-30
zr88 9.134825003097937e-23
zr89 1.1671022369522339e-20
zr90 2.747570650898253e-10
zr91 9.068708337334203e-11
zr92 1.4897723253103836e-10
zr93 5.540792463106343e-11
zr94 1.3091974735604169e-10
zr95 1.3829007262644488e-11
zr96 2.4862580863446455e-11
zr97 3.6616560887243794e-14
zr98 9.885761715874074e-28
zr99 1.9603606754557906e-46
zr100 1.7909296142873333e-62
zr101 4.1770570570408536e-78
zr102 1.3504102293983087e-93
zr103 0.0
zr104 0.0
zr105 0.0
nb83 0.0
nb84 1.3812765794222842e-64
nb85 1.6558868443622855e-52
nb86 2.285331222120348e-46
nb87 1.0830912214265638e-40
nb88 8.136477573071431e-39
nb89 1.1560539151171537e-30
nb90 2.7083807298666974e-27
nb91 6.596836715952115e-17
nb92 5.4964784949456195e-17
nb93 8.061865412280475e-15
nb94 2.915635926412372e-15
nb95 1.692253800942093e-13
nb96 1.554217331764719e-13
nb97 6.896371724302368e-15
nb98 1.7735060058926862e-28
nb99 4.65731330159903e-35
nb100 7.747370234662585e-53
nb101 2.439149826954521e-49
nb102 6.641130726273428e-67
nb103 8.684578410342898e-77
nb104 3.355843379257968e-95
nb105 0.0
nb106 0.0
nb107 0.0
mo85 9.353913186415793e-95
mo86 1.8495583024299439e-81
mo87 1.2477111566419177e-66
mo88 7.103389552023686e-44
mo89 4.8848124558908595e-42
mo90 1.8784727048131275e-35
mo91 9.207508284562658e-34
mo92 1.847604474406685e-14
mo93 4.031854627757125e-15
mo94 4.215442088382e-14
mo95 7.59821560151578e-12
mo96 1.91674152404325e-11
mo97 7.019574942288502e-12
mo98 2.4054134276331625e-11
mo99 2.7237389588699456e-13
mo100 2.8063884316039527e-12
mo101 3.069171274851258e-16
mo102 9.436865574714215e-19
mo103 9.734017074324532e-27
mo104 3.242775877373693e-30
mo105 1.0984565621020487e-48
mo106 4.9885162272476034e-67
mo107 6.376093897724059e-84
mo108 0.0
mo109 0.0
tc88 1.5094996305732682e-96
tc89 2.0564322424783789e-72
tc90 4.501933221461316e-61
tc91 4.23058611568337e-45
tc92 1.5527658613121875e-41
tc93 9.207102935750698e-23
tc94 9.855224522050774e-23
tc95 2.6001754408864606e-21
tc96 1.7489333853216804e-20
tc97 2.572688577381661e-19
tc98 1.9763886814948794e-19
tc99 2.6709469267505075e-12
tc100 3.926946599013457e-25
tc101 6.199044205809055e-16
tc102 7.406743076794922e-21
tc103 3.6080009022888544e-26
tc104 1.674306045181887e-23
tc105 9.40458445561848e-26
tc106 6.460104828368743e-36
tc107 9.875086829059345e-42
tc108 1.1515686049926263e-57
tc109 6.544725557986295e-76
tc110 8.900265341949487e-94
ru91 9.495665769230687e-91
ru92 4.1516051650916255e-72
ru93 7.062487948157132e-43
ru94 5.030461170232231e-31
ru95 4.26275836657399e-30
ru96 4.310972267434748e-21
ru97 1.0083750121899174e-21
ru98 2.199619598474522e-19
ru99 2.9333778858585244e-15
ru100 1.009647866395388e-11
ru101 2.3174105137773282e-12
ru102 1.2027652657834904e-11
ru103 1.0610238490328918e-12
ru104 3.1847778762740404e-12
ru105 1.0463676703696095e-13
ru106 1.2157705312934895e-12
ru107 1.6231495793625765e-18
ru108 3.521125656028735e-20
ru109 1.8461550636129027e-30
ru110 4.106966336244346e-39
ru111 4.726527334299574e-59
ru112 9.354057710256657e-79
rh93 0.0
rh94 5.522151046351522e-55
rh95 2.1791446635203468e-41
rh96 1.0657029783135088e-39
rh97 6.116024944772223e-31
rh98 3.3846976581737935e-32
rh99 1.504467992331056e-26
rh100 9.179367341454988e-25
rh101 4.4585942847248674e-20
rh102 2.7482190412748465e-20
rh103 2.0052571342983545e-12
rh104 1.8275447687593514e-24
rh105 2.5009466713025376e-13
rh106 1.4016958151096686e-18
rh107 2.933445070452633e-16
rh108 2.308935226049354e-21
rh109 2.881807875638464e-25
rh110 1.1567989440812077e-39
rh111 4.806348455838702e-43
rh112 2.1481610352865345e-58
rh113 7.290820224943169e-65
rh114 3.932254922754233e-75
pd96 2.219729498254433e-43
pd97 2.1622428604015552e-39
pd98 5.4234748920506035e-33
pd99 8.191151924212308e-32
pd100 4.5191994896113946e-29
pd101 4.188994940487812e-29
pd102 1.6654410066926134e-23
pd103 4.280617953282829e-22
pd104 6.468167541996051e-12
pd105 1.666313538529439e-12
pd106 8.10909800996805e-12
pd107 1.6706951630894661e-12
pd108 1.0967359691786193e-11
pd109 4.036496744267967e-13
pd110 1.87052030041721e-12
pd111 1.3131691530421347e-15
pd112 4.846482276063458e-14
pd113 2.68673628628868e-22
pd114 2.8076512973845437e-23
pd115 3.9843464974538575e-33
ag98 8.978653410419132e-52
ag99 4.3624708578679595e-44
ag100 2.3796779207634503e-42
ag101 1.453569111014575e-37
ag102 1.905492751016612e-35
ag103 1.0395017085013032e-32
ag104 7.60102654732445e-30
ag105 1.3689617293658292e-21
ag106 1.8893182527351013e-23
ag107 4.5067525034024304e-17
ag108 4.279261140844482e-25
ag109 2.3481950177756166e-12
ag110 1.0207804745981558e-23
ag111 1.6452314967936e-13
ag112 2.0322714917142944e-14
ag113 2.2355333247730912e-18
ag114 9.18577067555657e-25
ag115 7.584002733378774e-31
ag116 3.08157601321909e-36
cd101 4.306895683073719e-44
cd102 9.317033902138106e-36
cd103 2.8926463889718242e-34
cd104 4.085292016659387e-30
cd105 5.184565982282259e-31
cd106 8.619082538289323e-24
cd107 5.938732813806058e-25
cd108 6.979684017089045e-17
cd109 3.597061254572918e-19
cd110 7.874356689435898e-12
cd111 1.904115348322437e-12
cd112 8.87692206027521e-12
cd113 3.0278936495482794e-12
cd114 1.8621389185191296e-11
cd115 6.029299890257004e-13
cd116 4.7011941726319145e-12
cd117 2.867893132353739e-14
in102 5.307593195854575e-59
in103 1.637601544441261e-48
in104 5.679420725409375e-46
in105 1.1655056691655444e-40
in106 1.4169771598417327e-39
in107 7.212946346104683e-35
in108 7.172665898370702e-33
in109 1.2007320903070371e-27
in110 4.18312575163154e-27
in111 1.4789583344737331e-21
in112 4.984258375188275e-24
in113 1.4281626847160658e-14
in114 5.943747529238407e-25
in115 2.8308083319246908e-12
in116 4.629589804908135e-25
in117 9.128537824833437e-15
in118 9.465633963665037e-19
