n 8.206650105626446e-28
h1 1.9628043663827845e-22
he4 1.5535605422279177e-16
h2 4.199526767739458e-33
h3 3.0485120852872304e-23
he3 2.619004736118786e-23
li6 5.008244796439672e-40
li7 3.110214404664727e-28
li8 1.3103858169349598e-45
li9 4.615880769462323e-65
be7 8.276079526200841e-33
be9 4.430373560994172e-42
be10 2.435924918272877e-36
be11 7.446266055054065e-65
be12 2.350597868040491e-86
b8 7.504376972021803e-59
b10 8.388517683670111e-26
b11 2.1154391497629305e-16
b12 6.36478576024852e-37
b13 1.419481719570733e-57
b14 8.331159451092289e-83
c10 0.0
c11 1.0517261168598913e-23
c12 0.0009933604916300006
c13 7.76045205796375e-15
c14 5.681487972910857e-10
c15 3.3826245638133224e-33
c16 4.296406124836449e-53
c17 2.1533254488338884e-79
c18 0.0
n11 0.0
n12 1.581500000123177e-46
n13 2.3336091024288874e-16
n14 2.896296940543551e-09
n15 3.162431109232772e-10
n16 6.470069135981843e-28
n17 9.825958342220595e-46
n18 1.0260559020073688e-65
n19 5.756881980601229e-86
n20 0.0
n21 0.0
o13 3.604472457093111e-64
o14 1.77636530885793e-24
o15 6.357089041916836e-17
o16 0.041647881636125664
o17 1.828937655153472e-09
o18 8.787361046811846e-11
o19 1.0543655596375007e-24
o20 8.881547796591417e-35
o21 1.1107564009479771e-51
o22 3.9418018038227035e-68
f16 3.818088656677257e-44
f17 4.640358108744635e-24
f18 5.414119675737485e-12
f19 3.7593857686809933e-10
f20 3.807215887262396e-34
f21 1.1329794098562264e-46
f22 1.890453077451186e-52
f23 3.430454694308259e-61
f24 2.1322846852556256e-80
f25 0.0
f26 0.0
ne16 0.0
ne17 0.0
ne18 2.2736048712321573e-41
ne19 1.8599553585199825e-25
ne20 0.011977663918449198
ne21 2.182201284929275e-05
ne22 2.9715933311987135e-05
ne23 1.9208095827488983e-17
ne24 2.0207857606442544e-18
ne25 1.127862299660642e-36
ne26 1.5698962068000857e-55
ne27 5.536471886575346e-77
ne28 0.0
ne29 0.0
na19 3.1803025721348373e-70
na20 1.869584210306554e-43
na21 6.47236802191444e-18
na22 8.567758685817242e-08
na23 0.0002608848392353819
na24 2.060244058924002e-07
na25 7.895280629262099e-17
na26 4.407510798800077e-34
na27 8.362852020823497e-52
na28 9.464485965412437e-72
na29 8.462135524159401e-91
na30 0.0
na31 0.0
na32 0.0
mg20 2.132564193832338e-91
mg21 4.343529855618111e-61
mg22 1.5429905312158745e-31
mg23 1.1443249549835286e-19
mg24 0.0018947258414658968
mg25 0.0004472075674374138
mg26 0.0002910472456698533
mg27 1.108134025402947e-10
mg28 4.2017654100027924e-11
mg29 9.229542857434375e-29
mg30 9.639094720374717e-47
mg31 6.936551311796656e-66
mg32 1.7290278608518294e-84
mg33 0.0
mg34 0.0
mg35 0.0
al22 1.572797424536172e-90
al23 5.906381224901113e-57
al24 3.1467875008832387e-35
al25 3.774922072250005e-17
al26 3.4902441001313035e-08
al27 0.00014581563674023786
al28 2.0013824844655803e-11
al29 1.0207577792834801e-13
al30 3.9804604564862254e-30
al31 3.28308858357474e-47
al32 1.7889356898859122e-66
al33 1.95949225843452e-85
al34 0.0
al35 0.0
al36 0.0
al37 0.0
al38 0.0
si23 0.0
si24 1.2708298647506747e-75
si25 1.870370004167787e-52
si26 2.4942228223611745e-32
si27 5.105079779463217e-22
si28 0.0001323189212287582
si29 2.294889519765435e-05
si30 1.0412241487499563e-05
si31 2.365834036378744e-08
si32 3.464337114680351e-09
si33 9.291366503337846e-26
si34 1.0301066634008712e-41
si35 1.211596125850189e-59
si36 1.9652436414287233e-76
si37 5.360897028321489e-96
si38 0.0
si39 0.0
si40 0.0
si41 0.0
p25 0.0
p26 7.325926432494397e-79
p27 1.7037032966747027e-52
p28 4.341083345043306e-39
p29 1.6715883271351926e-20
p30 3.711123315965264e-12
p31 4.5603933010430646e-06
p32 6.1809196599231e-08
p33 1.201404563993539e-08
p34 1.1748094284649421e-23
p35 8.152286511315114e-24
p36 3.5005883463595705e-40
p37 8.192241536991073e-55
p38 5.261356870518036e-72
p39 1.1093632458790538e-89
p40 0.0
p41 0.0
p42 0.0
p43 0.0
p44 0.0
s27 0.0
s28 3.546465003914962e-74
s29 3.2656726949635887e-56
s30 2.0283232969194813e-37
s31 2.478121591313894e-27
s32 8.344402993462743e-06
s33 1.0803167349406629e-07
s34 1.0428766130193966e-06
s35 2.565180288376902e-08
s36 9.017984507921016e-08
s37 1.0113413947212644e-15
s38 2.653593783129256e-17
s39 3.4428519446662715e-33
s40 1.2257729755248645e-41
s41 4.904588731718805e-57
s42 1.9888348054034938e-74
s43 3.478100934885446e-93
s44 0.0
s45 0.0
s46 0.0
s47 0.0
cl29 0.0
cl30 6.462539029706558e-86
cl31 8.679924968312278e-62
cl32 9.354149523742436e-46
cl33 1.2258753634840618e-21
cl34 9.264599823945197e-24
cl35 1.1402569103924872e-07
cl36 5.73223139732081e-09
cl37 9.218222091006127e-07
cl38 3.236754303366708e-11
cl39 8.066329112309114e-14
cl40 5.799885855291755e-22
cl41 2.3495708882162702e-28
cl42 6.81798832842344e-42
cl43 1.5781762402387256e-46
cl44 7.242627226907507e-64
cl45 7.702473261476482e-80
cl46 1.611084608888403e-97
cl47 0.0
cl48 0.0
cl49 0.0
cl50 0.0
ar31 0.0
ar32 3.148178874706764e-84
ar33 1.4450772569818282e-64
ar34 2.0246641209609818e-38
ar35 5.740160926463806e-39
ar36 9.337675762922653e-07
ar37 7.921846562906861e-09
ar38 1.184963789321364e-06
ar39 1.2208497232701669e-07
ar40 5.364933851420948e-08
ar41 2.2195734239362127e-11
ar42 1.6654552756687563e-11
ar43 3.5488462795114465e-17
ar44 3.097085987960975e-20
ar45 2.173785457556241e-32
ar46 1.1455087249749902e-42
ar47 3.247511734006065e-60
ar48 1.1231577210451065e-78
ar49 6.2495625985227045e-99
ar50 0.0
ar51 0.0
ar52 0.0
k32 0.0
k33 0.0
k34 0.0
k35 2.3210491140477684e-64
k36 3.8648180132539375e-58
k37 1.5150097725189207e-23
k38 6.3207332962078895e-21
k39 1.5762345264663645e-07
k40 1.5600558576277496e-08
k41 3.926015444088474e-08
k42 1.9396550720014694e-09
k43 9.181872241062694e-11
k44 4.168990312650141e-15
k45 4.926654495032915e-18
k46 2.741217984024835e-25
k47 4.0687549605211076e-36
k48 3.5810409926763814e-49
k49 3.542589342548057e-65
k50 1.1868335282606154e-82
k51 7.363630680667935e-96
k52 0.0
k53 0.0
k54 0.0
k55 0.0
ca35 0.0
ca36 2.2142656038362823e-84
ca37 3.0342661352720834e-76
ca38 2.9441666261543064e-41
ca39 7.149609389999974e-38
ca40 8.163653744567828e-07
ca41 1.6743711717759078e-08
ca42 6.917814073479677e-08
ca43 2.8850918887934363e-08
ca44 6.744112978002915e-08
ca45 1.5357226473061825e-08
ca46 4.901543237342932e-09
ca47 2.0420924629264585e-10
ca48 2.832708484916654e-09
ca49 5.254229307033505e-15
ca50 3.8776210646538955e-29
ca51 1.5101419896363734e-37
ca52 5.036808448259649e-50
ca53 1.705479561197081e-69
ca54 1.7010247818409224e-88
ca55 0.0
ca56 0.0
ca57 0.0
sc36 0.0
sc37 0.0
sc38 0.0
sc39 3.2078221757713686e-72
sc40 1.1459138868671865e-60
sc41 4.8733667951312074e-26
sc42 1.2790848517034593e-26
sc43 6.1730534677352716e-12
sc44 5.395702428658387e-12
sc45 4.813358041891679e-09
sc46 2.290472428048905e-09
sc47 6.064547928021776e-10
sc48 7.946803927776904e-11
sc49 2.34727131064711e-13
sc50 5.7312877637226714e-21
sc51 2.851962603895067e-33
sc52 3.262320777917891e-41
sc53 9.775740112720592e-59
sc54 4.540578337936289e-77
sc55 4.808848470005984e-96
sc56 0.0
sc57 0.0
sc58 0.0
sc59 0.0
ti39 0.0
ti40 3.310472465960988e-92
ti41 7.245669645721428e-80
ti42 9.734759234954083e-45
ti43 2.866409987876233e-44
ti44 4.558538538462171e-14
ti45 2.0805171030856798e-15
ti46 7.1237706861650175e-09
ti47 7.57678399723608e-09
ti48 1.0192416515945089e-08
ti49 2.4163732075256417e-08
ti50 4.830286704057879e-08
ti51 1.8180101153554628e-13
ti52 2.0034477002876917e-19
ti53 3.5980361447529626e-27
ti54 2.5110305438085143e-32
ti55 3.1553337219219594e-50
ti56 1.9547699024091336e-68
ti57 1.4885693945539934e-87
ti58 0.0
ti59 0.0
ti60 0.0
ti61 0.0
ti62 0.0
v41 0.0
v42 0.0
v43 3.922483746299382e-70
v44 1.3527443560516884e-63
v45 8.874406306818472e-34
v46 8.612963229191187e-34
v47 5.291675320547928e-14
v48 1.0237205120805953e-12
v49 1.4350093946300967e-10
v50 2.760253945300885e-10
v51 6.648205615536109e-09
v52 4.396627350322317e-14
v53 1.4468691352664277e-19
v54 2.2383224414884118e-26
v55 5.614713269781404e-40
v56 2.866442517479133e-57
v57 9.481968124280656e-74
v58 3.788566176271562e-91
v59 0.0
v60 0.0
v61 0.0
v62 0.0
v63 0.0
v64 0.0
v65 0.0
cr43 0.0
cr44 5.4999853364202966e-90
cr45 4.908678231823447e-83
cr46 2.2734370049159675e-52
cr47 1.0083033641085448e-51
cr48 1.307638380125881e-16
cr49 4.805353270555425e-18
cr50 1.3552556952937976e-10
cr51 6.268917744855987e-11
cr52 1.281384257309596e-07
cr53 2.9433350868265005e-08
cr54 1.4667236946025782e-07
cr55 1.876544241266139e-13
cr56 3.3402269094980175e-16
cr57 7.644153135763982e-28
cr58 4.147579974944952e-39
cr59 4.0539541589656813e-56
cr60 5.309885010954205e-72
cr61 2.675037383528183e-88
cr62 0.0
cr63 0.0
cr64 0.0
cr65 0.0
cr66 0.0
cr67 0.0
cr68 0.0
mn45 0.0
mn46 0.0
mn47 3.102244021580501e-78
mn48 5.212997144964093e-72
mn49 3.883190061231876e-36
mn50 7.761669230872781e-37
mn51 5.90482797418332e-16
mn52 6.325122010933501e-15
mn53 7.715118122495465e-11
mn54 7.197342544744065e-11
mn55 1.5497777112246354e-07
mn56 2.455978279610553e-11
mn57 1.2419390085997404e-17
mn58 1.0637009284200244e-32
mn59 1.3583695081019805e-39
mn60 6.138886732071315e-40
mn61 6.1281488218769935e-56
mn62 2.533697669386295e-72
mn63 1.1554312616026075e-88
mn64 0.0
mn65 0.0
mn66 0.0
mn67 0.0
mn68 0.0
mn69 0.0
mn70 0.0
mn71 0.0
fe47 0.0
fe48 2.170735567302104e-98
fe49 6.615515934678695e-93
fe50 1.6182757091535078e-60
fe51 2.434132370718818e-56
fe52 8.105258945945805e-20
fe53 7.229432701560855e-22
fe54 7.112120038968311e-08
fe55 3.9282730555715025e-08
fe56 6.514128655836106e-06
fe57 3.2656342774543737e-06
fe58 6.9817428389227934e-06
fe59 1.1925492592738676e-06
fe60 4.6044761639551436e-07
fe61 2.4647308387494226e-12
fe62 4.555346572990972e-19
fe63 2.832649332411423e-34
fe64 8.243840158830106e-49
fe65 7.745884799050883e-66
fe66 8.215741155639936e-77
fe67 8.86091177979781e-84
fe68 0.0
fe69 0.0
fe70 0.0
fe71 0.0
fe72 0.0
fe73 0.0
fe74 0.0
co48 0.0
co49 0.0
co50 0.0
co51 4.494312450244881e-86
co52 2.9109826282207867e-77
co53 1.2261584843459455e-39
co54 8.461195125984694e-42
co55 1.3765069334989175e-12
co56 8.728550130410646e-13
co57 1.7090388774161623e-09
co58 1.2595705960873772e-09
co59 1.433424560869657e-06
co60 2.731435955152912e-07
co61 2.6694502209182713e-09
co62 1.6959452212539814e-14
co63 6.143810308282313e-23
co64 1.517386397648693e-39
co65 6.702260835153029e-54
co66 1.4881824349901447e-70
co67 3.759575274853517e-77
co68 1.31573792143063e-92
co69 2.7906621807183978e-95
co70 0.0
co71 0.0
co72 0.0
co73 0.0
co74 0.0
co75 0.0
co76 0.0
co77 0.0
ni51 0.0
ni52 0.0
ni53 4.1511201705183665e-98
ni54 4.554438561916777e-60
ni55 8.92677728598843e-62
ni56 9.417775118332224e-17
ni57 4.806043948210759e-18
ni58 1.311741046100088e-08
ni59 8.822613064093204e-09
ni60 9.43493034654786e-07
ni61 9.751840579183464e-07
ni62 9.949138650265384e-07
ni63 1.1289183085065859e-06
ni64 1.0357955781694034e-06
ni65 3.906757218675318e-09
ni66 1.1434869616013313e-09
ni67 2.232293735865926e-22
ni68 1.0193406873094392e-25
ni69 1.118196965281753e-35
ni70 3.394057008636005e-45
ni71 3.658699936088539e-58
ni72 7.733709118205246e-69
ni73 1.4250726392246324e-81
ni74 2.677329328168463e-88
ni75 0.0
ni76 0.0
ni77 0.0
ni78 0.0
ni79 0.0
cu52 0.0
cu53 0.0
cu54 0.0
cu55 4.547723116255741e-89
cu56 8.193744195379356e-85
cu57 2.837446318744894e-38
cu58 4.4723247428481904e-37
cu59 1.4921384993447365e-19
cu60 3.1551194145521996e-16
cu61 2.5087396502403435e-12
cu62 1.4249824508535617e-13
cu63 2.2947679381881504e-08
cu64 3.4539195112879054e-09
cu65 2.1643152870917148e-07
cu66 7.346543462248515e-12
cu67 1.2925151088327896e-09
cu68 7.695467067540635e-20
cu69 1.2741483102820001e-18
cu70 1.7382526905586997e-33
cu71 2.7416838181273825e-33
cu72 4.783595440696916e-44
cu73 1.9212427752549624e-52
cu74 3.882572813674634e-65
cu75 4.7860717345010295e-73
cu76 4.5411810109845024e-85
cu77 1.5656034720358235e-94
cu78 0.0
cu79 0.0
cu80 0.0
cu81 0.0
cu82 0.0
zn55 0.0
zn56 0.0
zn57 0.0
zn58 1.8981953053387092e-59
zn59 8.892852452645356e-58
zn60 3.1440561646774194e-25
zn61 5.342994057531855e-26
zn62 8.343340356988835e-17
zn63 1.0382959325025504e-18
zn64 1.559004064746669e-08
zn65 4.752462415738306e-09
zn66 1.634420016182475e-07
zn67 5.585876020867141e-08
zn68 1.739568329227828e-07
zn69 1.3501543361381747e-10
zn70 4.969128768086849e-09
zn71 3.9110875890871194e-14
zn72 4.053905730506811e-12
zn73 5.722901278042511e-24
zn74 1.4421099808716184e-23
zn75 5.455809237537502e-37
zn76 6.1010588218069564e-46
zn77 9.442800975679894e-60
zn78 1.8366082588386267e-69
zn79 1.1919144729187573e-79
zn80 7.573127754674925e-93
zn81 0.0
zn82 0.0
zn83 0.0
zn84 0.0
ga57 0.0
ga58 0.0
ga59 8.15959259675881e-93
ga60 1.0229146846073673e-84
ga61 2.298474709612955e-50
ga62 3.490048668653708e-47
ga63 1.6229910240787902e-31
ga64 3.043788704947461e-27
ga65 9.783968878120231e-16
ga66 2.9519461118276445e-14
ga67 1.1075715983514451e-11
ga68 1.762925431886242e-13
ga69 3.136187772069762e-08
ga70 4.109643584899364e-11
ga71 7.689584523958111e-09
ga72 1.5088121997942876e-09
ga73 3.56611962816394e-10
ga74 2.122096466493748e-15
ga75 5.992247964412653e-19
ga76 8.462782574338185e-27
ga77 1.4479846032290945e-34
ga78 8.376757889399281e-46
ga79 2.688839325367284e-55
ga80 8.189260616758822e-66
ga81 4.467333159639741e-74
ga82 3.103914800538874e-89
ga83 0.0
ga84 0.0
ga85 0.0
ga86 0.0
ge59 0.0
ge60 0.0
ge61 0.0
ge62 8.95245551851864e-71
ge63 2.071905315939882e-68
ge64 9.810732029355129e-39
ge65 6.14581293136132e-39
ge66 9.647400405985726e-21
ge67 4.2104980608024474e-21
ge68 6.60273105907235e-16
ge69 9.476430173104687e-16
ge70 2.409195168276725e-08
ge71 7.886366898987187e-09
ge72 2.4828005137579463e-08
ge73 1.4685017508210169e-08
ge74 3.0337620895861215e-08
ge75 1.551303812560387e-10
ge76 1.7509620520700457e-09
ge77 9.899566278061099e-13
ge78 1.2333810968766438e-13
ge79 9.531484204102238e-26
ge80 7.017719434966022e-29
ge81 7.879237706885017e-41
ge82 5.779606038080999e-50
ge83 1.0194105605888579e-64
ge84 1.6480022685005857e-78
ge85 9.753078190562228e-94
ge86 0.0
ge87 0.0
ge88 0.0
ge89 0.0
as61 0.0
as62 0.0
as63 0.0
as64 5.338022683361587e-96
as65 7.688884012918605e-66
as66 2.9492037238756816e-61
as67 6.36678428845274e-36
as68 3.975004786839624e-30
as69 1.0051005986639857e-23
as70 2.3892821289155445e-22
as71 2.837441105654021e-13
as72 1.0107219769772986e-13
as73 2.036754754862764e-12
as74 9.28966327430142e-13
as75 6.261327058340197e-09
as76 2.670606348969331e-09
as77 2.264714160132777e-09
as78 1.6524006461497913e-11
as79 3.360124483733732e-14
as80 2.923564795107759e-26
as81 3.0240803445704134e-26
as82 7.48240914347243e-33
as83 1.9994357648151102e-38
as84 1.923867741569999e-53
as85 7.741277969334274e-64
as86 2.213079704619714e-77
as87 1.4789571388767164e-90
as88 0.0
as89 0.0
as90 0.0
as91 0.0
se64 0.0
se65 0.0
se66 1.2295261082432043e-88
se67 6.908913046754661e-84
se68 1.4635744571596713e-45
se69 3.371640780295144e-42
se70 8.606581901134278e-30
se71 4.6150559139260725e-30
se72 7.226658542924777e-18
se73 8.0055320685614e-19
se74 1.811227028049727e-14
se75 5.4166099980439423e-14
se76 3.354451047637037e-09
se77 4.13022265503369e-09
se78 9.94067105208158e-09
se79 6.3350502235190365e-09
se80 1.637044490635078e-08
se81 7.58702326551046e-12
se82 6.069476512558897e-10
se83 4.9812266763786753e-14
se84 1.0202547625962906e-18
se85 2.88614806537061e-28
se86 8.361746714847101e-37
se87 2.586093729369669e-49
se88 1.3823560153191912e-64
se89 5.517444000858536e-82
se90 2.484657520169659e-99
se91 0.0
se92 0.0
se93 0.0
br66 0.0
br67 0.0
br68 0.0
br69 5.185123250335044e-75
br70 3.9184603685472245e-65
br71 2.102711588476663e-46
br72 2.3645426113796224e-40
br73 5.198833887937816e-28
br74 1.049923570297885e-25
br75 4.2972606762404526e-21
br76 1.2028997152537724e-19
br77 4.728902356334318e-14
br78 6.322930083220429e-17
br79 2.396140507433283e-13
br80 1.171936631138782e-15
br81 3.1503642375431505e-09
br82 9.331779833299018e-10
br83 1.3462834742292973e-10
br84 2.0678931940907398e-13
br85 1.684250357440452e-17
br86 3.528525473206898e-24
br87 2.684343711367791e-28
br88 1.139980799228226e-37
br89 5.610471353047884e-50
br90 1.4683055266217005e-62
br91 5.464876349965427e-78
br92 1.1632339880539864e-92
br93 0.0
br94 0.0
br95 0.0
kr69 0.0
kr70 2.9039964760644147e-98
kr71 7.31164690902371e-88
kr72 5.784855656408781e-58
kr73 5.150132341809502e-51
kr74 1.0019708643342364e-33
kr75 2.3254526149287262e-33
kr76 2.6816214489278376e-25
kr77 3.638213238265759e-25
kr78 7.430337007655334e-19
kr79 3.012889646966183e-19
kr80 2.4046831778955084e-13
kr81 1.1046291681392607e-13
kr82 2.5088245036189046e-09
kr83 3.3005741241277794e-09
kr84 1.0441690472989846e-08
kr85 5.70961587418416e-09
kr86 7.1799651898989345e-09
kr87 1.0265089706922458e-12
kr88 1.1498039461853076e-13
kr89 7.144741881697092e-20
kr90 2.094299168041099e-28
kr91 2.6431831820824318e-40
kr92 8.269608098747653e-56
kr93 9.438087413676387e-69
kr94 1.810393531525857e-85
kr95 0.0
kr96 0.0
kr97 0.0
rb72 0.0
rb73 8.301730568670053e-89
rb74 3.4266784926562e-74
rb75 6.848211420321491e-51
rb76 5.527654879023188e-44
rb77 1.3807630203099754e-34
rb78 3.46433947619792e-33
rb79 2.039390115103858e-26
rb80 4.878717460388238e-31
rb81 1.9082089802656837e-19
rb82 6.86984821831151e-23
rb83 1.5872050201426304e-14
rb84 9.969296922196985e-15
rb85 2.0233186877317157e-10
rb86 1.863475295697618e-10
rb87 2.186986003871239e-09
rb88 2.7960843261188705e-13
rb89 1.0695318878657545e-15
rb90 1.0035966485862268e-19
rb91 2.1474910215044677e-25
rb92 5.630354009952097e-40
rb93 2.223285617859536e-45
rb94 1.2557113296818876e-57
rb95 3.2193276625227395e-73
rb96 3.0061158987987108e-90
rb97 0.0
rb98 0.0
rb99 0.0
sr75 3.0682789341283035e-97
sr76 2.7067065879789413e-72
sr77 2.969071715860709e-62
sr78 3.283805874871983e-39
sr79 2.8388890569935564e-36
sr80 3.614651625781526e-29
sr81 3.181057354654525e-28
sr82 1.702537122134783e-23
sr83 5.392851066826089e-23
sr84 9.755806398009404e-18
sr85 1.0250478827124821e-16
sr86 2.426790811902267e-10
sr87 3.63854685430674e-10
sr88 6.211477562646761e-09
sr89 9.07313641314669e-10
sr90 2.5536531662072784e-10
sr91 3.4361165525459865e-12
sr92 8.817453416175476e-14
sr93 1.9925903919356965e-18
sr94 1.1255764266266241e-24
sr95 3.0347722723374424e-34
sr96 2.9197244769391786e-50
sr97 2.9127544314215124e-67
sr98 9.156868819813837e-83
sr99 0.0
sr100 0.0
sr101 0.0
y77 5.401873848917936e-99
y78 4.1388035917738605e-86
y79 2.102832848965328e-59
y80 2.1424741190708958e-47
y81 1.343150046215993e-39
y82 1.746301217076527e-45
y83 4.125817494705364e-31
y84 7.622858308189569e-36
y85 1.5142261603698352e-24
y86 4.2782691692496595e-23
y87 2.612196962441457e-16
y88 6.870797176813667e-16
y89 5.558674122853127e-10
y90 3.177878458330223e-11
y91 8.897357865743052e-11
y92 4.039359415541034e-12
y93 7.0415834384896715e-12
y94 1.0289150322376394e-14
y95 5.048175873264265e-17
y96 1.4422169720923425e-31
y97 8.78606941204374e-43
y98 8.519807946160116e-59
y99 1.138692300876768e-65
y100 1.0920637306714935e-79
y101 7.821820799463647e-95
y102 0.0
y103 0.0
zr80 5.352874533494835e-84
zr81 5.838870458117793e-70
zr82 6.527080054380057e-60
zr83 1.1575281450010344e-41
zr84 2.5675777687669757e-33
zr85 1.5097071000683196e-32
zr86 2.399876791260075e-27
zr87 9.77742620375635e-27
zr88 5.19312725714468e-22
zr89 6.101800704808519e-20
zr90 2.7984862336267843e-10
zr91 1.5082866597720603e-10
zr92 3.064651573302632e-10
zr93 1.3995557729660288e-10
zr94 2.451911925793135e-10
zr95 7.336663373711329e-11
zr96 1.1807216456946698e-10
zr97 2.1237930742493491e-13
zr98 8.815614342611216e-24
zr99 2.79861368284672e-39
zr100 6.19845766520201e-51
zr101 3.554267502795225e-63
zr102 3.924791072167475e-78
zr103 1.3199124009557022e-94
zr104 0.0
zr105 0.0
nb83 7.044126162285096e-84
nb84 2.286677228677546e-56
nb85 1.344944891567572e-46
nb86 5.413068231448267e-41
nb87 2.1024091898838495e-35
nb88 6.213423520243961e-34
nb89 1.0966907892083899e-28
nb90 1.5377457977476116e-26
nb91 3.4961591872426794e-16
nb92 2.916947810461192e-16
nb93 1.5573119287359548e-15
nb94 1.4753652114623036e-15
nb95 8.858674797742216e-13
nb96 8.239359141739595e-13
nb97 4.4502477797217677e-14
nb98 1.9117610437787844e-24
nb99 7.9098156157021e-30
nb100 2.1965165548797156e-44
nb101 6.761511982109855e-42
nb102 3.7075814393437647e-56
nb103 8.454428401036409e-63
nb104 4.612470411973785e-78
nb105 3.1998349952790114e-93
nb106 0.0
nb107 0.0
mo85 1.7767516673952382e-81
mo86 1.6631593660004686e-70
mo87 2.8627533028852736e-55
mo88 1.2264950813903683e-38
mo89 7.30694950897982e-37
mo90 2.2002747711288625e-30
mo91 9.753341536443824e-29
mo92 1.5521942795087606e-14
mo93 4.41674750941916e-15
mo94 4.098009195750389e-14
mo95 5.422229839905619e-13
mo96 3.9513688666982644e-12
mo97 4.876091486287491e-12
mo98 2.433365462477862e-11
mo99 1.4832951779907563e-12
mo100 1.485457497837569e-11
mo101 5.5297724557158395e-15
mo102 2.198242677581081e-17
mo103 5.122303639653183e-24
mo104 2.0281614530346947e-27
mo105 7.993412777252874e-43
mo106 2.049639989685831e-58
mo107 3.7640439705468803e-75
mo108 3.608695144214852e-92
mo109 0.0
tc88 4.7021439644158204e-80
tc89 3.2833316694528136e-62
tc90 9.499388328401889e-54
tc91 7.787455612536126e-40
tc92 2.700072482084075e-36
tc93 5.237862492819477e-22
tc94 5.28476741762018e-22
tc95 1.3735356699897237e-20
tc96 9.259384557002029e-20
tc97 1.3571429526501527e-18
tc98 1.0422020077053666e-18
tc99 9.590244252146148e-13
tc100 1.4917157081205964e-24
tc101 8.787330426073864e-15
tc102 1.7253418122485233e-19
tc103 1.693573443993052e-23
tc104 3.9857342255142873e-22
tc105 3.3097190352118605e-24
tc106 2.906957171295825e-32
tc107 2.7273598517875676e-37
tc108 2.6960584321322995e-49
tc109 1.785462962271495e-64
tc110 1.076806810454962e-80
ru91 2.7373391146979414e-78
ru92 6.901605305647382e-62
ru93 9.852906691689298e-38
ru94 7.857298745103016e-27
ru95 4.456054616262122e-26
ru96 1.2357564263341259e-20
ru97 5.3289528104010594e-21
ru98 6.038497199808196e-19
ru99 1.231985914084208e-16
ru100 4.454718116517123e-12
ru101 2.0397768268440907e-12
ru102 1.072474877092912e-11
ru103 5.63421463613864e-12
ru104 1.6523555212461452e-11
ru105 6.045448734736689e-13
ru106 6.439518177322466e-12
ru107 7.99787627560662e-17
ru108 1.3273352930702766e-18
ru109 8.806130707737506e-27
ru110 7.12788152408181e-34
ru111 1.061938143995447e-50
ru112 2.1724234962551495e-67
rh93 3.8649966250654564e-87
rh94 1.7341208099322286e-49
rh95 2.0784334900609664e-36
rh96 1.083506994769907e-34
rh97 1.0712731864929838e-29
rh98 1.2757191173958638e-28
rh99 8.537892931622949e-26
rh100 4.7365643365462544e-24
rh101 2.3469932001683725e-19
rh102 1.4542908257274986e-19
rh103 1.0999389461848091e-13
rh104 2.1531809195645508e-21
rh105 1.3133810816208108e-12
rh106 8.602743900432833e-18
rh107 4.9908303029392624e-15
rh108 8.703843894530243e-20
rh109 7.576616422773514e-23
rh110 2.0167399983576403e-34
rh111 5.401643124633041e-37
rh112 1.5143306993317302e-48
rh113 4.63235620051813e-54
rh114 4.713625280368418e-62
pd96 2.970279363848546e-38
pd97 2.6634866976325153e-34
pd98 5.160749621605084e-28
pd99 7.861345402853329e-27
pd100 3.425051986750301e-24
pd101 6.095955054656675e-26
pd102 9.428154160048193e-23
pd103 2.2539129876952015e-21
pd104 5.556557704793451e-13
pd105 4.586125269907204e-13
pd106 4.6158267254201535e-12
pd107 1.5615029477155098e-12
pd108 1.0638087071384781e-11
pd109 2.172710737929047e-12
pd110 9.692645304123383e-12
pd111 2.1419805720617055e-14
pd112 2.5733254961188143e-13
pd113 6.616251580837703e-20
pd114 2.06955618099375e-21
pd115 4.202498260435873e-29
ag98 2.0611557376686866e-46
ag99 7.967923415945387e-39
ag100 4.679332056911439e-37
ag101 1.0453794072092487e-32
ag102 1.2905202608888032e-30
ag103 6.229993196377359e-28
ag104 2.8360755892577024e-26
ag105 7.179821995730762e-21
ag106 2.5086180080895436e-22
ag107 1.1928851613650964e-18
ag108 3.952404652833449e-23
ag109 1.189510158994826e-12
ag110 6.465826875003154e-20
ag111 8.772292462636539e-13
ag112 1.1719514587670775e-13
ag113 7.975859791701832e-17
ag114 6.770950878893635e-23
ag115 2.7505250676641635e-27
ag116 1.7436838987429288e-32
cd101 6.268332307960286e-39
cd102 9.707615563330918e-31
cd103 2.885933100717721e-29
cd104 2.8486630097222463e-25
cd105 2.020820333971636e-26
cd106 2.665089931905816e-23
cd107 3.233096900609812e-24
cd108 9.18171531150307e-18
cd109 1.9040092506238678e-18
cd110 2.3301954554495746e-12
cd111 7.286108409218331e-13
cd112 5.094222552952236e-12
cd113 2.1282068638622333e-12
cd114 1.719339488687893e-11
cd115 3.2323402444667373e-12
cd116 2.4836152530733172e-11
cd117 1.8629619584699322e-13
in102 2.247082201934445e-53
in103 3.383121162613375e-43
in104 1.1152207011682072e-40
in105 1.3129079003089443e-35
in106 7.2504650787772e-35
in107 9.094007688681342e-31
in108 2.3022211602736172e-28
in109 1.2844080261913892e-26
in110 5.916698207468679e-26
in111 7.729026693206213e-21
in112 9.553942951443676e-23
in113 3.2279945956003476e-16
in114 2.8100446773332954e-22
in115 4.87295392788056e-13
in116 7.518473638739362e-23
in117 5.1375094375885006e-14
in118 1.0416778462248245e-17
