n 2.0748953291452722e-17
h1 1.0571852752667062e-11
he4 2.2708210969999203e-10
h2 8.99170340699713e-28
h3 2.0221369298822427e-27
he3 7.721746162974236e-24
li6 1.675778696983862e-32
li7 1.2301538668708886e-33
li8 1.102541138872301e-48
li9 1.85996510210426e-57
be7 3.3631955616224593e-31
be9 5.152774943758969e-34
be10 2.2849514595875773e-30
be11 2.2215038669427363e-50
be12 3.068294115111158e-65
b8 8.850498039372498e-46
b10 1.7689258481041124e-28
b11 6.438689649699975e-21
b12 3.041599131580468e-35
b13 4.591635542178058e-46
b14 2.503600731142123e-65
c10 0.0
c11 1.0124384114208364e-19
c12 2.2103126815454337e-07
c13 3.605672129097359e-15
c14 7.44055332568158e-17
c15 1.936418716910059e-35
c16 4.685606610557588e-48
c17 3.477179637792272e-67
c18 0.0
n11 0.0
n12 2.8278093226676465e-34
n13 1.203209997543108e-18
n14 1.2081370760303894e-12
n15 9.758167341461992e-16
n16 2.000440092340783e-31
n17 1.4691498410791165e-40
n18 1.6731385101907496e-55
n19 7.26629575736291e-66
n20 7.14529961816133e-83
n21 0.0
o13 1.4038647589929842e-46
o14 1.1429379467883537e-24
o15 5.903787908123988e-13
o16 0.016768418330164608
o17 4.932640513096031e-14
o18 2.560311697256519e-19
o19 2.3608702964510865e-31
o20 4.6988759028051437e-35
o21 1.0403507611507694e-47
o22 2.4762770550720763e-54
f16 1.0816671352656283e-28
f17 3.3747719882255156e-16
f18 5.337663861552577e-18
f19 1.2445726950978449e-19
f20 1.423347110534798e-24
f21 8.049018487569585e-27
f22 4.5831416736108415e-37
f23 6.480541938748868e-41
f24 2.1186764149358857e-56
f25 1.0415882463528792e-68
f26 1.6524239610366622e-87
ne16 5.094781886907689e-46
ne17 1.8370298340088353e-41
ne18 2.9126164530864196e-24
ne19 3.1219847048664387e-20
ne20 3.6600816194298927e-07
ne21 3.14378644988365e-11
ne22 5.2722562819042395e-11
ne23 1.6019781830327113e-20
ne24 1.3284212256359425e-25
ne25 1.0910023061415462e-37
ne26 1.5175098065676413e-47
ne27 2.182230927953198e-65
ne28 2.626527882349902e-80
ne29 1.1331391903531217e-98
na19 7.936318492754004e-40
na20 7.40584150420782e-31
na21 5.641278235001462e-17
na22 4.308607161053388e-12
na23 4.6016267457445374e-10
na24 1.6835878339618744e-15
na25 3.938449979135268e-18
na26 1.624897679857013e-27
na27 3.943431972965735e-35
na28 3.180798905340129e-49
na29 4.257015375417716e-61
na30 2.5571615814630815e-77
na31 1.3750355205218975e-90
na32 0.0
mg20 1.1812919743311356e-50
mg21 9.350784398307836e-40
mg22 1.4621176684700625e-21
mg23 6.92568476541136e-11
mg24 2.1425974406337954e-05
mg25 2.021953876640629e-08
mg26 4.157104336816187e-08
mg27 9.434978964614282e-16
mg28 3.7635072261257416e-17
mg29 5.2659581600572795e-30
mg30 1.5524951117445401e-38
mg31 2.642724692856213e-54
mg32 6.91189337062056e-64
mg33 7.288638500112752e-80
mg34 3.5401181410095186e-93
mg35 0.0
al22 3.49790171129565e-55
al23 2.96278843961475e-36
al24 2.684406807406564e-22
al25 1.803883198354224e-15
al26 3.4372844250926106e-10
al27 3.5530051580295767e-07
al28 7.147221205545395e-12
al29 1.0591613242409929e-13
al30 1.0319570653500624e-22
al31 3.1578671625899715e-28
al32 8.941266391840911e-41
al33 2.865935642602614e-50
al34 2.920615668033588e-66
al35 1.9647181758088948e-76
al36 3.3755705139890077e-93
al37 0.0
al38 0.0
si23 2.6764819278438243e-67
si24 1.194668363763914e-45
si25 7.363131815146114e-31
si26 3.552072629736067e-19
si27 2.837918530850316e-08
si28 0.01384460567896748
si29 1.7881272394775376e-05
si30 1.0143073609708833e-05
si31 2.1314077947180415e-12
si32 1.8645081325997937e-14
si33 1.102775314137573e-25
si34 4.8757744718815146e-32
si35 2.0367338232124743e-47
si36 2.8237077554554033e-56
si37 1.87580385325367e-72
si38 1.4850262754443334e-82
si39 9.978953900358944e-99
si40 0.0
si41 0.0
p25 9.633281319202508e-63
p26 3.387250750273246e-46
p27 1.600817365314756e-32
p28 2.2985448937668338e-19
p29 4.039091652910645e-12
p30 6.124029296673983e-09
p31 1.4769628458652913e-05
p32 1.1897889529741868e-09
p33 3.333423835720651e-10
p34 7.10329641155028e-18
p35 1.7769431427423278e-22
p36 5.447684333479986e-36
p37 2.7654656440760985e-43
p38 5.362426088017081e-56
p39 2.919009936033024e-63
p40 4.056053967339304e-77
p41 8.999027720440643e-88
p42 0.0
p43 0.0
p44 0.0
s27 1.320143630553021e-60
s28 2.057488588549347e-43
s29 3.1796310452062946e-28
s30 4.7726883620005955e-18
s31 9.310049922541994e-10
s32 0.008253880386451303
s33 2.6363493658938263e-05
s34 0.0004624926614921511
s35 7.912766701748673e-10
s36 4.5241035194614835e-11
s37 2.230075049450275e-22
s38 7.654658017405045e-23
s39 2.721483301711469e-34
s40 5.240459245423484e-40
s41 1.3900788953728331e-51
s42 2.3838983500852844e-59
s43 7.122378036178261e-75
s44 5.169189901709233e-86
s45 0.0
s46 0.0
s47 0.0
cl29 3.23559199134706e-62
cl30 7.942961195250461e-45
cl31 1.6091761835964048e-32
cl32 1.0324318822095312e-21
cl33 4.673599503881779e-13
cl34 6.836278665239103e-10
cl35 1.858182656464781e-05
cl36 1.1992229005385488e-08
cl37 9.946707352505654e-09
cl38 6.66028372165752e-17
cl39 2.3751803569112016e-19
cl40 4.27614158489473e-28
cl41 6.755284418319407e-33
cl42 8.230150183821735e-42
cl43 1.1687840639409083e-43
cl44 1.7068996793426418e-55
cl45 4.251043170868231e-64
cl46 3.421722592419278e-76
cl47 2.279930145320645e-89
cl48 0.0
cl49 0.0
cl50 0.0
ar31 1.060680825584709e-59
ar32 1.0831409353172878e-43
ar33 1.5565160434416873e-30
ar34 2.3778296362035366e-19
ar35 5.341240509527338e-13
ar36 0.0007790084248679474
ar37 4.35147029757933e-06
ar38 0.0004118402845983745
ar39 1.8314953530787986e-10
ar40 9.938482381788838e-12
ar41 4.995423417287993e-19
ar42 6.6252042468894e-16
ar43 1.5598427494676131e-24
ar44 1.2693817160880135e-25
ar45 1.2340730995776403e-35
ar46 1.4790438832679512e-40
ar47 2.9103773374954567e-52
ar48 1.0663340202198123e-61
ar49 2.5729671044461803e-77
ar50 9.46327285894738e-90
ar51 0.0
ar52 0.0
k32 5.2865222831090694e-79
k33 1.3546131239323402e-62
k34 5.367830857418314e-47
k35 2.738881130588575e-34
k36 5.727169176283325e-25
k37 5.477163419925933e-15
k38 1.8554384188757224e-10
k39 1.762059264370388e-05
k40 1.3153226106334061e-09
k41 9.936801051989051e-11
k42 3.4274145167121104e-14
k43 1.5409384109234008e-15
k44 8.031835974260664e-21
k45 3.5133655985138345e-23
k46 1.0823967225027731e-29
k47 3.720596803774374e-32
k48 1.6436441727850312e-41
k49 1.1253756535794138e-49
k50 1.4054056902719611e-64
k51 7.111422098250996e-76
k52 5.4677747309601314e-92
k53 0.0
k54 0.0
k55 0.0
ca35 2.481488437234762e-60
ca36 4.25681994464814e-45
ca37 2.4297923034400848e-34
ca38 1.5925214397047723e-21
ca39 4.529292161313318e-14
ca40 0.0003368493848298613
ca41 7.00024528823253e-07
ca42 7.956187238206283e-06
ca43 3.196696106108629e-09
ca44 6.64689790038221e-10
ca45 3.1574890809671613e-13
ca46 5.039762506882763e-13
ca47 3.387709340293349e-15
ca48 2.0489759114800884e-13
ca49 3.23216544559558e-23
ca50 1.3512205239819487e-31
ca51 4.194780509592627e-43
ca52 4.962724204208851e-55
ca53 1.9046242051096784e-68
ca54 8.99058885348738e-82
ca55 1.719285065122771e-97
ca56 0.0
ca57 0.0
sc36 1.528715488873654e-79
sc37 4.7449049428255e-64
sc38 4.679380865364976e-49
sc39 6.693189111111444e-38
sc40 2.999720047435383e-28
sc41 1.0182788950101699e-16
sc42 4.702037325434006e-14
sc43 6.366723225633162e-10
sc44 2.730511526361405e-10
sc45 8.994092386186295e-10
sc46 9.667522814887153e-13
sc47 5.448359470198655e-13
sc48 1.627069121550861e-13
sc49 2.1659166957688137e-14
sc50 1.3880217128738083e-22
sc51 1.2775804400480537e-29
sc52 8.2968955285618e-40
sc53 7.158202993733929e-50
sc54 2.8686904057354318e-61
sc55 2.8286458487400506e-75
sc56 1.7526554915950763e-88
sc57 0.0
sc58 0.0
sc59 0.0
ti39 2.3224936849519568e-63
ti40 5.53412816991174e-50
ti41 4.882395192492765e-39
ti42 3.1046152802544406e-25
ti43 1.787656189307329e-19
ti44 6.325306599312595e-08
ti45 9.845834737578828e-09
ti46 3.087417244106868e-06
ti47 4.146276713670749e-08
ti48 9.278672190150122e-09
ti49 8.586557987627819e-12
ti50 1.9202017545762123e-11
ti51 1.3908241367651643e-18
ti52 2.0661971818264502e-22
ti53 1.3925430381925439e-31
ti54 6.102109369238306e-39
ti55 3.548580978290635e-51
ti56 1.7087503045341476e-61
ti57 1.4382534432384857e-76
ti58 2.755669133363844e-87
ti59 0.0
ti60 0.0
ti61 0.0
ti62 0.0
v41 5.287993818733388e-68
v42 5.092708384241738e-55
v43 4.113564679477506e-40
v44 1.1860591813671166e-30
v45 5.491081986384825e-19
v46 4.665034628523556e-14
v47 9.551208956086615e-10
v48 5.205036043593654e-09
v49 7.851962035521175e-09
v50 6.426886662868328e-11
v51 5.689335420283449e-10
v52 3.2785061378961628e-15
v53 3.9014624492625837e-19
v54 1.6460054180647446e-27
v55 3.030774979879771e-33
v56 5.277287406003232e-44
v57 2.5402366504598694e-52
v58 7.278407794515106e-65
v59 2.0655303767689836e-75
v60 2.309889891370596e-88
v61 8.988642736544942e-100
v62 0.0
v63 0.0
v64 0.0
v65 0.0
cr43 3.661516447832119e-68
cr44 2.3879619346373344e-50
cr45 6.445753313648106e-42
cr46 2.0833288390874923e-25
cr47 7.427361843833475e-19
cr48 5.864168088145007e-09
cr49 1.1978245796393205e-08
cr50 3.3163935922390286e-06
cr51 1.9939098203860713e-07
cr52 1.1422040714946072e-06
cr53 1.9270243427802307e-10
cr54 3.782817461448438e-11
cr55 1.7924447658834696e-18
cr56 6.1792144273967955e-21
cr57 2.870110510608067e-30
cr58 1.5948918401181184e-36
cr59 2.442671220405827e-48
cr60 6.300446919212197e-55
cr61 1.6711649618546534e-67
cr62 3.9409012226660404e-76
cr63 9.51965150324708e-90
cr64 2.3665424185761987e-100
cr65 0.0
cr66 0.0
cr67 0.0
cr68 0.0
mn45 2.0899082486880696e-67
mn46 7.211470836107266e-56
mn47 4.256002800317628e-40
mn48 6.664673982586634e-30
mn49 2.3859578209986976e-19
mn50 1.0508692030679696e-14
mn51 1.0780449858768591e-09
mn52 8.969294414785523e-09
mn53 2.914252716199987e-07
mn54 1.6557493548387493e-09
mn55 6.838936857651369e-10
mn56 2.2900064740671354e-15
mn57 4.037214788821106e-18
mn58 1.356131095749418e-25
mn59 1.3241756317796252e-28
mn60 9.712862529479866e-37
mn61 9.704204462758e-44
mn62 3.1944622188511282e-55
mn63 9.79111643870284e-63
mn64 1.3910844390360839e-74
mn65 2.2488546141010242e-82
mn66 1.0357514589381013e-95
mn67 0.0
mn68 0.0
mn69 0.0
mn70 0.0
mn71 0.0
fe47 2.1429312951274435e-68
fe48 8.58874539007203e-50
fe49 3.728208319895735e-40
fe50 4.6984177918753e-27
fe51 1.0508894476440876e-19
fe52 3.5819739950379763e-10
fe53 2.8053976210007376e-09
fe54 1.9215461934709893e-05
fe55 1.0726613351693445e-06
fe56 9.821696871148651e-06
fe57 1.251112664086232e-09
fe58 2.844971091536253e-09
fe59 1.5911800530554368e-14
fe60 3.9755585594236947e-11
fe61 5.961988114391285e-20
fe62 1.1253135982120204e-24
fe63 3.892015117681194e-35
fe64 1.8324288681986025e-40
fe65 1.6127442004923313e-52
fe66 1.3807028924125748e-59
fe67 1.5900479564598658e-71
fe68 1.0341373248680252e-81
fe69 2.4491448600327176e-95
fe70 0.0
fe71 0.0
fe72 0.0
fe73 0.0
fe74 0.0
co48 6.1522561625301934e-86
co49 4.196346497346361e-62
co50 5.111034083234198e-56
co51 1.1238365786087103e-41
co52 1.7127507514176094e-33
co53 1.3452536173536658e-21
co54 1.001417586643149e-15
co55 2.323067301080449e-09
co56 2.5652554591923896e-09
co57 1.6732232963507462e-07
co58 6.330813182832845e-10
co59 3.307103584412797e-09
co60 9.739476911489368e-13
co61 9.82381124038628e-13
co62 1.153394433798922e-19
co63 9.319733573519418e-23
co64 2.7147157434321767e-31
co65 6.723530149060964e-33
co66 3.2222539284839254e-43
co67 1.7455579632446314e-47
co68 3.990715813928068e-59
co69 1.7932992655274066e-66
co70 8.671297305634672e-80
co71 1.2615606390604263e-87
co72 0.0
co73 0.0
co74 0.0
co75 0.0
co76 0.0
co77 0.0
ni51 1.1403952607456578e-68
ni52 1.6047435825985103e-52
ni53 4.24786280055698e-43
ni54 6.39898475877614e-30
ni55 1.9684706667255888e-21
ni56 3.3417112831710995e-10
ni57 1.2630458532001761e-09
ni58 1.0829907709743111e-06
ni59 3.803668346827833e-08
ni60 5.881220575356913e-06
ni61 1.716041825065372e-09
ni62 1.7472835115442277e-07
ni63 2.5805973361932953e-13
ni64 4.0159586235404973e-10
ni65 3.9244309651188016e-17
ni66 4.044020752724945e-13
ni67 9.423244945978166e-22
ni68 8.097475599615053e-27
ni69 1.9619067978593377e-37
ni70 2.083244323238705e-43
ni71 2.1088253395074528e-55
ni72 4.5637344574408775e-60
ni73 3.4092062837296854e-72
ni74 1.1164695458977457e-76
ni75 1.5227411487001508e-89
ni76 1.7639882876859843e-99
ni77 0.0
ni78 0.0
ni79 0.0
cu52 1.8267936544418759e-87
cu53 6.941186442888549e-72
cu54 1.5903766905779297e-59
cu55 6.321057680870735e-46
cu56 7.964103381039798e-36
cu57 7.471887620680123e-24
cu58 3.5039624300647703e-19
cu59 1.94361035893012e-14
cu60 6.325676250586227e-14
cu61 9.78725352863474e-11
cu62 2.1231341770580634e-12
cu63 2.241425866162619e-09
cu64 1.0362487102255932e-12
cu65 1.61496446674389e-10
cu66 4.114885690002345e-16
cu67 4.789785320727784e-13
cu68 1.1553915063835456e-20
cu69 5.885070357224741e-23
cu70 1.9388482750314554e-32
cu71 4.952686631291446e-33
cu72 3.8913839569143986e-43
cu73 2.266917423825322e-47
cu74 1.9847842852393285e-57
cu75 5.317074400238514e-66
cu76 6.070530933353794e-76
cu77 1.6246912185749252e-85
cu78 2.603041476486115e-97
cu79 0.0
cu80 0.0
cu81 0.0
cu82 0.0
zn55 4.021762788119923e-74
zn56 6.296635533194188e-59
zn57 2.0381262952864496e-48
zn58 2.865131734763566e-35
zn59 1.1541525447102259e-28
zn60 9.68668106833176e-20
zn61 2.5517383272031265e-18
zn62 5.879428084724331e-13
zn63 2.63970704748801e-13
zn64 1.4750762079721598e-09
zn65 5.143761494922102e-12
zn66 5.900694620001376e-09
zn67 4.3784223356527536e-14
zn68 2.1161093828234377e-10
zn69 7.97014533683464e-17
zn70 1.3849201673448332e-12
zn71 2.0715671045080077e-20
zn72 3.7244026901527577e-16
zn73 2.2483032125730643e-25
zn74 1.351251699277221e-28
zn75 7.953466926930126e-39
zn76 2.808264849743864e-42
zn77 6.028508995629326e-53
zn78 1.3059945163949807e-60
zn79 3.8294340005598916e-72
zn80 1.795784511168281e-75
zn81 1.4758206806020567e-91
zn82 0.0
zn83 0.0
zn84 0.0
ga57 2.321718579153808e-79
ga58 3.354216470413145e-67
ga59 1.5568304462198295e-52
ga60 4.75068976746676e-44
ga61 1.8208270256435008e-34
ga62 7.745866952818451e-28
ga63 3.441413149204787e-22
ga64 2.348492004214851e-20
ga65 6.59368398657139e-16
ga66 1.2769406421968462e-16
ga67 1.4761387012349767e-12
ga68 1.2632218339433904e-14
ga69 3.343056545194882e-11
ga70 2.7614737580325647e-15
ga71 4.0076213679900484e-12
ga72 7.260640847281234e-18
ga73 1.6292362022274365e-13
ga74 1.156469134178644e-20
ga75 6.717213719603498e-23
ga76 9.316438866294195e-32
ga77 2.5878171991541587e-35
ga78 3.129589212446273e-44
ga79 2.8792438824305312e-49
ga80 1.1702907656218951e-60
ga81 5.569934997849225e-63
ga82 1.0105338106694526e-77
ga83 6.946860423947044e-90
ga84 0.0
ga85 0.0
ga86 0.0
ge59 3.1634270497950983e-82
ge60 1.817456096553862e-66
ge61 9.32249482371795e-58
ge62 1.6961991000953568e-45
ge63 5.052044587724774e-39
ge64 1.1019409110640901e-27
ge65 7.799762225879534e-26
ge66 5.541272158896975e-19
ge67 9.438421199298297e-19
ge68 1.4799879829061544e-12
ge69 7.932018171333098e-14
ge70 1.1591871633698554e-09
ge71 7.199585944571967e-14
ge72 1.83373771707989e-09
ge73 6.710341055506885e-15
ge74 1.5922832283790923e-11
ge75 3.451085428520906e-17
ge76 5.554754137971634e-13
ge77 2.460608721353674e-20
ge78 1.1489924609072652e-17
ge79 4.2807246709815145e-26
ge80 5.4183657713461115e-31
ge81 4.384623722840968e-41
ge82 6.218674598682359e-46
ge83 2.1267593503963313e-59
ge84 4.398579016386417e-70
ge85 1.078120451024539e-84
ge86 1.949859603187382e-96
ge87 0.0
ge88 0.0
ge89 0.0
as61 1.2696868082084513e-86
as62 3.5001173138599655e-76
as63 9.494903176768944e-63
as64 1.5900910338859938e-54
as65 8.587423724310954e-43
as66 3.3665913228235134e-36
as67 5.867108578610563e-29
as68 9.336704163048841e-27
as69 6.483061751212777e-20
as70 1.5905595705928886e-19
as71 1.8562400943852174e-14
as72 1.2472503074501697e-16
as73 7.32248569033686e-12
as74 3.092144654018777e-15
as75 7.766516628808752e-12
as76 1.5582404360819865e-16
as77 1.1369729880722723e-12
as78 2.723279162346502e-19
as79 3.93173959751746e-18
as80 2.8542394647290427e-25
as81 1.0364169789216583e-28
as82 2.0648367595598535e-37
as83 3.723642063832543e-40
as84 1.8807395561516563e-52
as85 1.4339408552201421e-62
as86 2.728071712200943e-75
as87 1.682779247036452e-86
as88 0.0
as89 0.0
as90 0.0
as91 0.0
se64 1.5787679864517494e-76
se65 5.585536129390758e-69
se66 6.836450556022705e-55
se67 2.8335251059860625e-47
se68 5.677358241062849e-35
se69 1.4505851008819902e-32
se70 4.543807799960089e-23
se71 9.079526206697302e-22
se72 3.152207339054802e-13
se73 7.562682576479131e-14
se74 2.3524915343455975e-09
se75 3.898239559497964e-12
se76 4.991352406948963e-09
se77 2.164622194132634e-13
se78 4.313821390053707e-11
se79 8.976054390039387e-16
se80 6.747168144379909e-12
se81 3.665282880128673e-17
se82 1.5206306438675729e-13
se83 1.7018029034436537e-21
se84 1.5547282087522175e-24
se85 2.413737938533732e-35
se86 2.0958586821630904e-44
se87 4.827518159047203e-56
se88 6.088697771238284e-67
se89 4.1132189359211885e-80
se90 3.4292816429130944e-92
se91 0.0
se92 0.0
se93 0.0
br66 1.2723356198292055e-87
br67 7.551451126106638e-73
br68 1.223729744363355e-63
br69 1.5797441634138684e-50
br70 1.111094207000728e-42
br71 8.172949698030013e-33
br72 1.8232128991939227e-30
br73 2.662555499989067e-21
br74 5.599822224177152e-20
br75 9.208836119330887e-15
br76 5.927187220732194e-16
br77 4.105438784265405e-12
br78 2.450702099313108e-15
br79 4.890944762144333e-12
br80 1.4402488179366009e-15
br81 2.9059997124974173e-12
br82 3.785577973494503e-16
br83 7.340691587423271e-14
br84 2.971724210982788e-20
br85 1.9333624966416834e-21
br86 1.4766396019981849e-31
br87 7.620746820619543e-40
br88 2.259653812948567e-50
br89 2.939555523211569e-59
br90 2.393997169520415e-71
br91 1.5180897965557356e-82
br92 9.014113908140705e-97
br93 0.0
br94 0.0
br95 0.0
kr69 2.2618094552929728e-77
kr70 8.526723587695265e-62
kr71 1.4351108468485816e-52
kr72 1.6056554725150745e-40
kr73 7.311706844671214e-36
kr74 5.194304166872017e-25
kr75 9.90210555484206e-22
kr76 2.4466365340851355e-14
kr77 8.067625488578477e-14
kr78 7.530919268721457e-10
kr79 5.017323391929209e-12
kr80 5.663052756858617e-09
kr81 3.88043768888861e-12
kr82 2.3041021940700645e-10
kr83 4.934629525972011e-14
kr84 1.3304196159978125e-11
kr85 1.5870641038982367e-15
kr86 2.875056013708213e-12
kr87 4.333554564724747e-21
kr88 6.2611709032857476e-27
kr89 1.3498125189272904e-36
kr90 2.7912285904922016e-45
kr91 1.4508436030654848e-56
kr92 8.252981560682648e-67
kr93 2.9798689546135313e-80
kr94 2.704355714196499e-90
kr95 0.0
kr96 0.0
kr97 0.0
rb72 9.43627259362565e-65
rb73 1.6314453751645034e-56
rb74 9.75508815491382e-46
rb75 2.7331973650603675e-35
rb76 3.56840800192827e-30
rb77 2.0077159172450968e-22
rb78 3.841645768810237e-21
rb79 6.986635312174938e-16
rb80 4.017038717304337e-17
rb81 4.720433811111263e-13
rb82 4.2940087798740425e-15
rb83 3.308465335977864e-12
rb84 8.267061325552088e-15
rb85 5.1975300407604745e-12
rb86 5.027342036082172e-14
rb87 2.0610662746745647e-12
rb88 3.31670584374276e-20
rb89 1.4356825645335708e-26
rb90 1.6304588379144114e-35
rb91 3.780075948534481e-43
rb92 9.264445893503549e-54
rb93 1.7874816528334246e-59
rb94 4.774777579976556e-72
rb95 5.458634291160339e-80
rb96 0.0
rb97 8.862188072615688e-99
rb98 0.0
rb99 0.0
sr75 2.237782095371515e-57
sr76 3.602565459650179e-42
sr77 6.236626763000525e-36
sr78 8.964194239395008e-27
sr79 7.814537335940693e-24
sr80 3.618173297893234e-17
sr81 5.609833935587757e-16
sr82 1.7095712985994994e-11
sr83 1.1117672677790027e-12
sr84 1.3303211326937272e-09
sr85 1.42918465335555e-11
sr86 1.273440582067667e-09
sr87 8.207327226046913e-12
sr88 7.07192971035134e-10
sr89 8.155063060867298e-17
sr90 2.346812720667064e-16
sr91 1.7343921500141442e-24
sr92 1.1360203380587422e-26
sr93 5.905010697699586e-36
sr94 3.93859929334762e-42
sr95 7.090496706518915e-54
sr96 9.735044022411778e-63
sr97 7.386184723624759e-75
sr98 4.067916716431062e-74
sr99 2.0323747642762714e-87
sr100 4.795585953011824e-96
sr101 0.0
y77 1.9257974585922007e-57
y78 4.905435568607472e-47
y79 1.516329900586643e-36
y80 8.4330393059006e-33
y81 1.388325359365119e-25
y82 2.341792111092679e-23
y83 4.0714428582665895e-18
y84 9.67466861413837e-19
y85 1.6272170579633256e-14
y86 3.940693983963217e-15
y87 3.292091557798974e-12
y88 9.716732065148209e-13
y89 3.1087394892756365e-10
y90 2.5101208194756656e-16
y91 5.6325754215652165e-18
y92 8.746593332301183e-25
y93 1.6452968024199978e-24
y94 4.772490233166845e-32
y95 3.571422591771773e-37
y96 2.4644119034946473e-45
y97 2.3255047098173338e-54
y98 2.0320758454754013e-65
y99 9.1721827927304e-69
y100 1.9564491476846862e-78
y101 4.6628482235856335e-80
y102 0.0
y103 0.0
zr80 2.5528653225934737e-43
zr81 1.0499943009916894e-39
zr82 2.229577464046773e-30
zr83 6.462031180973207e-27
zr84 7.232067860891908e-21
zr85 8.697128471089603e-20
zr86 1.5041312601156428e-14
zr87 6.804776082639604e-14
zr88 9.771187469188713e-11
zr89 1.98155927563503e-11
zr90 4.4295220109998855e-09
zr91 3.146315163884882e-14
zr92 4.945655119664588e-14
zr93 6.192117653463703e-17
zr94 1.2409588997208414e-15
zr95 2.344714495296763e-19
zr96 3.1835886869350564e-18
zr97 2.0952278392843898e-27
zr98 2.2531019477142448e-35
zr99 3.803534549886855e-46
zr100 1.6461377454999745e-45
zr101 9.71552007839904e-56
zr102 7.09754558579193e-64
zr103 9.608974330204305e-75
zr104 9.27745792864538e-84
zr105 6.804058894261193e-96
nb83 1.0757888218806955e-40
nb84 2.471450156364885e-36
nb85 2.7869605409690825e-29
nb86 1.33836857888776e-26
nb87 2.6122715934789404e-21
nb88 1.8028082569116847e-20
nb89 4.955114371140245e-16
nb90 1.4545111345587994e-15
nb91 1.5179250606591386e-12
nb92 1.227349295466905e-16
nb93 5.094241741408486e-17
nb94 1.6588640581025486e-19
nb95 5.242705885640785e-18
nb96 2.1302435403445816e-23
nb97 6.556342198001648e-22
nb98 2.911391257224489e-30
nb99 3.065607573088165e-35
nb100 2.6813736630788193e-43
nb101 5.436024165782399e-44
nb102 1.1886119238897926e-52
nb103 1.6978912420907233e-56
nb104 6.15255690025667e-67
nb105 9.774564276907771e-73
nb106 1.927320620922684e-84
nb107 1.234631205671718e-93
mo85 2.9427956150462404e-43
mo86 5.7239055930358036e-36
mo87 1.6209808806295402e-31
mo88 1.4964376277870965e-25
mo89 9.497541024324788e-23
mo90 1.1815110270788512e-17
mo91 1.006849740056882e-16
mo92 1.507012001856461e-12
mo93 2.2767225250652127e-15
mo94 2.0623794405607696e-14
mo95 9.004731442977226e-17
mo96 8.412311334505542e-15
mo97 7.88250027144541e-18
mo98 8.465004606099433e-16
mo99 9.46112956859726e-21
mo100 1.5895463984345643e-17
mo101 4.350789792244882e-26
mo102 2.4132537561029364e-25
mo103 1.6826336744638323e-34
mo104 2.312009626909304e-37
mo105 3.370643656066195e-47
mo106 2.811772817534607e-54
mo107 7.056249157496906e-65
mo108 2.984461343712254e-73
mo109 1.4031476149183366e-85
tc88 6.765325257443288e-42
tc89 3.3693879786428517e-35
tc90 1.9400650348838522e-31
tc91 1.250421547728278e-25
tc92 2.45273176654649e-23
tc93 2.8828384869620423e-18
tc94 3.940424657695963e-18
tc95 1.414943834259641e-16
tc96 1.6727911833728655e-19
tc97 1.5424112792063722e-17
tc98 9.390245111085052e-21
tc99 2.832127435389415e-18
tc100 9.1722998012107e-24
tc101 8.753175079852368e-21
tc102 8.536185288236887e-29
tc103 1.0989068623864447e-29
tc104 9.396245798265702e-37
tc105 8.452952070667613e-34
tc106 6.9744470198358264e-43
tc107 3.9800305485106906e-47
tc108 3.007517878546504e-57
tc109 4.725877101057153e-64
tc110 1.932676051139572e-75
ru91 1.615385436736955e-36
ru92 7.208704643610872e-30
ru93 4.1088269277934354e-25
ru94 4.466103905850981e-16
ru95 2.3200848925801005e-15
ru96 1.8227131227338928e-13
ru97 7.848292857048791e-16
ru98 8.83929393156982e-14
ru99 3.0371849427595884e-17
ru100 8.988994435352498e-15
ru101 3.978991906038661e-18
ru102 2.830462778421387e-15
ru103 2.9569011795973694e-19
ru104 7.560754632552678e-16
ru105 4.245611890042934e-21
ru106 1.0332527362274584e-17
ru107 3.6375387677314793e-26
ru108 2.084682900918184e-29
ru109 8.541119279127271e-39
ru110 1.0285797198395328e-44
ru111 4.083906372963259e-55
ru112 1.5470901238208807e-62
rh93 2.711142861585942e-40
rh94 3.5214621298568774e-34
rh95 3.423886947097779e-24
rh96 7.92138735043159e-23
rh97 1.6519865627149872e-19
rh98 9.704333877200248e-20
rh99 1.7415035862302033e-16
rh100 1.0175329829263551e-18
rh101 1.346483499886585e-16
rh102 2.1728032021263072e-20
rh103 2.681822332092496e-17
rh104 5.3404805324153326e-21
rh105 9.269046946837013e-18
rh106 6.387490818306227e-24
rh107 7.739386023462214e-21
rh108 2.362241093676682e-28
rh109 2.07872638449098e-31
rh110 1.5477054163397928e-39
rh111 2.355994527259712e-37
rh112 1.959801036970884e-46
rh113 1.7172726296983907e-51
rh114 5.845416060971541e-62
pd96 8.444222195863298e-27
pd97 5.841020871081899e-23
pd98 3.8128105854958154e-17
pd99 5.403643462132013e-16
pd100 1.4795216219348336e-13
pd101 1.6385832369614805e-15
pd102 2.797102931998839e-13
pd103 4.661745553742731e-17
pd104 8.511101398439482e-15
pd105 3.4949705437575336e-18
pd106 2.846347902629848e-15
pd107 6.570478687514654e-19
pd108 1.0402340430728104e-15
pd109 6.0583984550926e-20
pd110 1.1891046636261454e-16
pd111 1.3594327906643222e-23
pd112 3.4898176143927444e-20
pd113 6.850761291731077e-29
pd114 7.658488935854501e-33
pd115 1.8001999434794732e-42
ag98 1.1287179112942411e-32
ag99 7.140280043435503e-26
ag100 2.6344429499645786e-24
ag101 4.880474964346275e-21
ag102 1.7109443629999645e-20
ag103 3.9426679528446173e-17
ag104 2.8231620156466545e-17
ag105 5.641295071454263e-16
ag106 2.295393570257093e-19
ag107 7.226475277004527e-17
ag108 4.357088061507624e-20
ag109 3.7538881915425226e-17
ag110 2.2175971604361942e-21
ag111 4.6341632363571885e-18
ag112 7.064996317704952e-25
ag113 5.329624031522246e-24
ag114 4.663354395964171e-32
ag115 6.659216294452327e-32
ag116 6.653919304671898e-41
cd101 7.777341671827638e-27
cd102 1.642673595899332e-19
cd103 3.7260714972787825e-18
cd104 1.6589527638550665e-14
cd105 9.32220558668626e-16
cd106 3.4043408460069205e-13
cd107 3.104024439065724e-16
cd108 5.389427981335548e-14
cd109 1.2543685236662478e-17
cd110 8.550205151725277e-15
cd111 4.09960044613019e-18
cd112 4.209179941471784e-15
cd113 8.872610575700757e-19
cd114 1.459658944183633e-15
cd115 1.045248774584996e-19
cd116 1.833557448476017e-16
cd117 2.6613077243162025e-24
in102 1.8477133471296641e-37
in103 1.887035056208053e-29
in104 2.016857792085732e-27
in105 3.017945822194426e-23
in106 2.099975480631971e-23
in107 1.942131607937757e-19
in108 6.004558936023762e-19
in109 3.27474037056567e-16
in110 2.9552685670429795e-18
in111 2.2733054117186894e-16
in112 1.4899418153521037e-20
in113 7.544008653595028e-18
in114 3.642793081350797e-21
in115 3.133202416915502e-18
in116 5.281570481026343e-23
in117 5.516009464842703e-20
in118 4.852312619409493e-27
