n 8.686021774726584e-22
h1 6.565623425656648e-18
he4 1.5783644662933307e-13
h2 5.466207808843559e-33
h3 2.985800933867204e-23
he3 2.6796501282570003e-23
li6 2.0538588754497258e-37
li7 2.7989608795815516e-29
li8 1.0084127146609919e-45
li9 1.6418032638913073e-58
be7 1.5312112601064873e-33
be9 1.4779174654531685e-46
be10 8.946880442615684e-37
be11 2.2791416793674983e-60
be12 2.2798969250943407e-75
b8 3.4330738174151404e-55
b10 6.165044798235915e-26
b11 2.544436189192144e-16
b12 2.0516515316866257e-30
b13 1.63477724876787e-44
b14 4.370632792423849e-66
c10 0.0
c11 3.1192200427598663e-23
c12 0.0009699358490747669
c13 2.6359445688076955e-15
c14 5.644319825699938e-10
c15 3.670783299469383e-30
c16 2.6665062790925673e-43
c17 2.522449641954026e-65
c18 0.0
n11 0.0
n12 6.704119628585717e-43
n13 1.477039711745735e-16
n14 2.9368554649530783e-09
n15 2.71663031564107e-10
n16 2.787564380196736e-24
n17 1.0784221396985894e-35
n18 3.6705949205650105e-49
n19 7.333715351445799e-63
n20 5.964182796124516e-80
n21 0.0
o13 6.1523085266565986e-58
o14 7.848070545990209e-22
o15 4.9584558675201255e-15
o16 0.04164231937681089
o17 1.5870648861794523e-09
o18 7.662726700940458e-11
o19 7.411902402543782e-20
o20 6.662696357068655e-28
o21 2.1932589410879068e-38
o22 7.095017801373726e-50
f16 4.740117667873664e-43
f17 6.757862624824503e-21
f18 1.0840866958098466e-11
f19 4.073449359295939e-10
f20 1.5162613336845985e-27
f21 2.850215616393795e-34
f22 3.698340927914533e-40
f23 3.797121715266771e-45
f24 1.5432978703378679e-58
f25 1.680623340724659e-72
f26 0.0
ne16 1.893130235675324e-70
ne17 2.7606944585582597e-68
ne18 4.626474445372836e-32
ne19 1.4958459986445374e-19
ne20 0.011989873733130027
ne21 2.1777112978871564e-05
ne22 2.929059603731731e-05
ne23 1.3597048237022012e-13
ne24 2.6555171858631704e-17
ne25 5.387646118553085e-29
ne26 1.952457441058217e-41
ne27 2.5780471603426905e-60
ne28 0.0
ne29 0.0
na19 2.4073157952999745e-55
na20 2.1547287803413394e-31
na21 4.223075957242159e-13
na22 9.113127589262908e-08
na23 0.0002609547534298695
na24 1.8519392812422984e-07
na25 6.212597027362364e-14
na26 5.026227208448827e-25
na27 1.960528052588237e-36
na28 2.3222933419794403e-49
na29 3.2759516633940175e-62
na30 4.305610826276335e-77
na31 2.4384863324446844e-90
na32 0.0
mg20 2.917799246212504e-70
mg21 2.6417187641069256e-43
mg22 1.75941971041798e-21
mg23 3.501666242531934e-12
mg24 0.0018987641761122399
mg25 0.0004474639397988988
mg26 0.0002914018478849784
mg27 6.108029731972812e-10
mg28 4.074124221256601e-11
mg29 2.8302233332480635e-22
mg30 7.740699242598065e-34
mg31 3.4484088945265444e-48
mg32 2.062088579012414e-60
mg33 2.4553588047638593e-75
mg34 5.313450592710527e-89
mg35 0.0
al22 1.6153765112728618e-65
al23 1.5112038234837044e-42
al24 2.618395574173118e-25
al25 3.131665632465965e-14
al26 8.892641218760017e-08
al27 0.00014612320432367602
al28 1.1346429233405804e-09
al29 6.203088680320847e-13
al30 1.132376849197871e-22
al31 2.2456854624124845e-33
al32 3.0407180722396405e-46
al33 8.226017010018002e-59
al34 3.4071290786381396e-73
al35 5.310651750949039e-84
al36 2.0215591672029183e-100
al37 0.0
al38 0.0
si23 1.0180672077037996e-84
si24 7.4110574634500075e-56
si25 8.480095287821015e-37
si26 7.439762106301072e-24
si27 1.0455263637601809e-14
si28 0.00013266984340030058
si29 2.3017600737635313e-05
si30 1.0432659667773685e-05
si31 2.7293815261119522e-08
si32 3.4541888282048423e-09
si33 1.0891279229757663e-18
si34 2.1496288999976754e-27
si35 4.097758576440175e-41
si36 6.642982573579868e-53
si37 2.9519403432239653e-68
si38 1.2553175289441386e-76
si39 3.0047347543303894e-92
si40 0.0
si41 0.0
p25 5.449158407769631e-86
p26 1.7002306984671603e-58
p27 1.2250366685077617e-41
p28 3.972706060374717e-27
p29 6.357867333128117e-15
p30 1.710735852489682e-10
p31 4.563381549750042e-06
p32 6.198821000856516e-08
p33 1.2028075308972977e-08
p34 9.901717894638077e-17
p35 1.2168496637299818e-20
p36 8.794814864222535e-31
p37 5.774691461989722e-40
p38 4.323750571035492e-51
p39 1.934205847272392e-62
p40 1.3030547156114651e-73
p41 1.281614738263432e-85
p42 0.0
p43 0.0
p44 0.0
s27 9.608961646633019e-78
s28 8.821863477089132e-57
s29 2.47092076851411e-38
s30 6.391609817244268e-26
s31 2.291347273849156e-19
s32 8.343650082631975e-06
s33 1.0801468070565872e-07
s34 1.043651591057916e-06
s35 2.568400311232932e-08
s36 9.021755028336989e-08
s37 1.524970815084728e-14
s38 2.9422442575331794e-17
s39 3.1794330975412634e-26
s40 4.192735879287408e-33
s41 3.5076784134763405e-42
s42 3.337915417408934e-53
s43 2.37173615331648e-67
s44 2.9494082039823296e-80
s45 9.756281132666396e-96
s46 0.0
s47 0.0
cl29 3.5528197720854996e-88
cl30 1.5146537488255043e-62
cl31 2.3232293784324604e-46
cl32 6.023668838890123e-34
cl33 9.004188275375067e-17
cl34 2.4950256908984705e-17
cl35 1.1421847340936481e-07
cl36 5.730524770836333e-09
cl37 9.211471783949111e-07
cl38 1.0332867305856869e-10
cl39 1.253496699109049e-13
cl40 1.2619139892378417e-19
cl41 9.504804570263696e-25
cl42 3.3939045039000023e-32
cl43 8.17388861752583e-34
cl44 5.716317863975671e-45
cl45 7.230040396022076e-56
cl46 1.0932205143090572e-68
cl47 1.1467678087781985e-80
cl48 2.7065779944333815e-96
cl49 0.0
cl50 0.0
ar31 4.777119690125716e-83
ar32 3.7163297994826637e-62
ar33 2.26573913784188e-46
ar34 1.7118243077476074e-27
ar35 5.1599873604346127e-26
ar36 9.331762506003679e-07
ar37 7.918321483029098e-09
ar38 1.1852729681078706e-06
ar39 1.2217627149293786e-07
ar40 5.368792561796557e-08
ar41 2.951073063723016e-11
ar42 1.6652730824879165e-11
ar43 3.540523995576444e-16
ar44 1.389255432111813e-19
ar45 4.144596159742949e-27
ar46 5.591549206306272e-34
ar47 5.171681882462874e-45
ar48 5.126603075817254e-57
ar49 3.0997572685917e-71
ar50 7.384031120561558e-84
ar51 0.0
ar52 0.0
k32 0.0
k33 2.7401413621147522e-92
k34 2.9874707190966398e-83
k35 5.840300772884727e-49
k36 2.267516673885332e-40
k37 1.0665096468858386e-19
k38 3.2919071130334406e-17
k39 1.5779003781489402e-07
k40 1.560717297569017e-08
k41 3.925223445150693e-08
k42 2.0031059007617552e-09
k43 8.487135972388871e-11
k44 1.0721579373466683e-14
k45 1.7537643464163803e-17
k46 1.7845538871983384e-23
k47 2.9385455735971747e-30
k48 1.2009779963880177e-39
k49 1.3566694169220942e-46
k50 9.531866084891549e-59
k51 1.6839298511110954e-69
k52 1.4147047793003484e-84
k53 3.7516811469634675e-97
k54 0.0
k55 0.0
ca35 7.894664059073927e-101
ca36 1.8462507011615043e-62
ca37 3.236880985551973e-52
ca38 4.643524463492491e-31
ca39 1.0598016299703735e-27
ca40 8.159536491844554e-07
ca41 1.6735626132318526e-08
ca42 6.910720353245929e-08
ca43 2.8866336669842244e-08
ca44 6.746138790856671e-08
ca45 1.5383538329855894e-08
ca46 4.914591743484196e-09
ca47 2.062930457303958e-10
ca48 2.8316031734523804e-09
ca49 3.135108216744255e-14
ca50 2.2036381077156454e-22
ca51 1.4164514550082115e-29
ca52 3.310227670669045e-38
ca53 3.028171147389848e-51
ca54 7.878028620988088e-64
ca55 1.277702221879875e-78
ca56 1.000768903598358e-92
ca57 0.0
sc36 0.0
sc37 1.6472841659740538e-93
sc38 9.513804770843372e-99
sc39 8.79681116484404e-56
sc40 3.4498344585112105e-47
sc41 3.727539110816587e-23
sc42 2.8344049400110043e-20
sc43 8.208762143391263e-12
sc44 7.2424217269444184e-12
sc45 4.81726752255405e-09
sc46 2.28777618801274e-09
sc47 6.123131369828752e-10
sc48 8.017125918428775e-11
sc49 5.936237389696849e-13
sc50 7.476457576820857e-19
sc51 4.0557817920611095e-26
sc52 2.0369134972016477e-32
sc53 1.5488194091115095e-43
sc54 2.0425954544785016e-55
sc55 5.054335584637006e-68
sc56 1.5844987134397168e-78
sc57 6.254448008675992e-91
sc58 0.0
sc59 0.0
ti39 0.0
ti40 1.6926748907935558e-69
ti41 6.208678757559106e-60
ti42 1.9312990757037226e-35
ti43 2.082523869173411e-31
ti44 4.567369722728606e-14
ti45 2.5930681049314544e-15
ti46 7.118342831063173e-09
ti47 7.570329062590342e-09
ti48 1.0187344695557065e-08
ti49 2.4158145514694442e-08
ti50 4.832040872920264e-08
ti51 1.5609779645279562e-12
ti52 1.697693999258591e-17
ti53 3.479675145280767e-23
ti54 1.8059142475169813e-28
ti55 1.026965888585123e-38
ti56 2.210294413125159e-50
ti57 1.505095482273997e-63
ti58 1.4311440916364136e-73
ti59 1.8497528639534249e-87
ti60 8.951114709027213e-99
ti61 0.0
ti62 0.0
v41 4.660352193245997e-98
v42 2.2564517794816694e-83
v43 1.2193256217308966e-56
v44 2.6932481455966035e-44
v45 8.361755944037225e-28
v46 9.111551057922879e-27
v47 1.6832835919666767e-13
v48 1.0021567558055978e-12
v49 1.4409375047389712e-10
v50 2.7701347283047206e-10
v51 6.6488478763001e-09
v52 7.407756537569688e-13
v53 1.3453640555751783e-17
v54 1.6568108442144406e-23
v55 3.782031887047972e-30
v56 1.0067473048993419e-40
v57 7.993300638763129e-51
v58 4.183919696055376e-62
v59 2.8081268978957104e-63
v60 1.287164551217868e-73
v61 5.0965625645115014e-85
v62 8.906760338723412e-98
v63 0.0
v64 0.0
v65 0.0
cr43 1.0723376540800047e-100
cr44 6.145358560806787e-70
cr45 4.70946750284821e-57
cr46 7.796217656857947e-40
cr47 3.5483086342455725e-38
cr48 1.2712251082878032e-16
cr49 1.6039390754060923e-17
cr50 1.352430279132864e-10
cr51 6.262286234042704e-11
cr52 1.2805441044874394e-07
cr53 2.9425458475474147e-08
cr54 1.467023020108804e-07
cr55 3.5473997542798275e-12
cr56 2.2240141553636985e-15
cr57 1.4889544216507126e-22
cr58 1.51641382428606e-29
cr59 7.16250574776691e-40
cr60 7.323112218162443e-50
cr61 2.324659351184944e-60
cr62 4.002189086387348e-70
cr63 1.3916477051812536e-81
cr64 1.7890732955628916e-90
cr65 0.0
cr66 0.0
cr67 0.0
cr68 0.0
mn45 1.2146606888551508e-96
mn46 5.852647960212493e-76
mn47 4.2892667897850514e-61
mn48 3.3114831379149416e-51
mn49 1.51292369739308e-29
mn50 3.054291735724944e-29
mn51 1.7256743358993682e-15
mn52 6.2715215384980754e-15
mn53 7.746237331836e-11
mn54 7.224401152187727e-11
mn55 1.5478471556052772e-07
mn56 3.509474006136905e-11
mn57 2.093375974348744e-15
mn58 1.108256625975771e-22
mn59 6.122988886495501e-28
mn60 2.5734577448748587e-38
mn61 9.146353880005697e-46
mn62 3.3196329474998535e-52
mn63 1.0498766118875646e-61
mn64 1.5284078222584856e-72
mn65 1.277882495929453e-82
mn66 1.1681775117212386e-93
mn67 0.0
mn68 0.0
mn69 0.0
mn70 0.0
mn71 0.0
fe47 1.492224442009293e-91
fe48 1.2243391150128078e-74
fe49 4.604599481275716e-65
fe50 1.961816896619764e-46
fe51 1.401285287958671e-41
fe52 8.93850418297214e-20
fe53 5.137859392963286e-20
fe54 7.094260548887985e-08
fe55 3.9263953193023187e-08
fe56 6.508018382425541e-06
fe57 3.2649474473496418e-06
fe58 6.9822007339540766e-06
fe59 1.1916698115219271e-06
fe60 4.6170511303969274e-07
fe61 2.0520943242559624e-11
fe62 1.6458505493454854e-16
fe63 1.2068212693000355e-24
fe64 1.0798262621504449e-32
fe65 2.5552505228162753e-43
fe66 8.53076619833016e-52
fe67 5.496497889150276e-59
fe68 4.2011453056598216e-70
fe69 2.633081806897156e-81
fe70 1.7533773038276304e-87
fe71 1.8079210580890485e-99
fe72 0.0
fe73 0.0
fe74 0.0
co48 0.0
co49 0.0
co50 6.705525298278479e-88
co51 1.5280725833537426e-67
co52 1.546222830997864e-59
co53 9.325038648238283e-34
co54 1.1671496739895744e-32
co55 1.463726301021354e-12
co56 8.849134082053488e-13
co57 1.7158985161972597e-09
co58 1.2659102480462268e-09
co59 1.4362487947255865e-06
co60 2.6965838331170236e-07
co61 3.793928591368133e-09
co62 3.456544462675521e-13
co63 2.0547998180618802e-18
co64 1.505715813418563e-28
co65 2.710768069956633e-35
co66 1.591340634421238e-45
co67 1.246673570318467e-51
co68 9.962295651252164e-62
co69 6.914906324232905e-67
co70 1.6118020506848933e-77
co71 6.516320423553184e-84
co72 2.8701454009860663e-95
co73 0.0
co74 0.0
co75 0.0
co76 0.0
co77 0.0
ni51 0.0
ni52 5.030771784499435e-82
ni53 1.4701638208399247e-73
ni54 2.5422597406483714e-47
ni55 7.640504326897088e-46
ni56 9.484267759762518e-17
ni57 5.129660041036388e-18
ni58 1.3067409182349399e-08
ni59 8.790884359302756e-09
ni60 9.466441591535457e-07
ni61 9.745920737684574e-07
ni62 9.95435978496669e-07
ni63 1.130303318549573e-06
ni64 1.0366488950072182e-06
ni65 4.525075150133891e-09
ni66 1.1485764909101504e-09
ni67 6.035111548168699e-17
ni68 2.25239064533698e-21
ni69 3.0466334322207023e-28
ni70 7.636712047863802e-35
ni71 4.5267141124920515e-43
ni72 9.197772367821045e-51
ni73 4.905008514379144e-60
ni74 7.51556641772542e-67
ni75 1.1380453972431884e-76
ni76 6.524250761089516e-88
ni77 9.010289118464071e-97
ni78 0.0
ni79 0.0
cu52 0.0
cu53 0.0
cu54 7.808522445896636e-98
cu55 7.0428077145031934e-71
cu56 1.3294692770222921e-65
cu57 2.9773173048333964e-35
cu58 1.4984292275813054e-30
cu59 4.3557297824570865e-17
cu60 7.460031874737954e-16
cu61 3.3282093513675824e-12
cu62 7.588952826321691e-13
cu63 2.2803609695064805e-08
cu64 3.542182640629993e-09
cu65 2.1596719377582408e-07
cu66 5.744242788453016e-11
cu67 1.2926499368108453e-09
cu68 1.510777813492029e-15
cu69 2.3167955845599557e-17
cu70 5.566509676584133e-25
cu71 7.078617539749575e-28
cu72 3.2093101379796273e-34
cu73 1.1301788464565995e-39
cu74 3.7051446213695475e-47
cu75 2.8070639682226034e-53
cu76 8.999931749257622e-62
cu77 2.0158001466871346e-69
cu78 4.333473479316645e-78
cu79 1.9173755612439287e-88
cu80 0.0
cu81 0.0
cu82 0.0
zn55 0.0
zn56 5.134091354082939e-87
zn57 5.197082583013902e-81
zn58 2.075606155047791e-49
zn59 4.319854026539226e-44
zn60 1.5252015934022502e-23
zn61 7.389308040147972e-24
zn62 8.329648395033469e-17
zn63 3.3697487723481297e-18
zn64 1.5505590371847317e-08
zn65 4.755836600819547e-09
zn66 1.6353530725200516e-07
zn67 5.5902197850801555e-08
zn68 1.741338250616183e-07
zn69 3.4025172252546673e-10
zn70 4.9632533270054634e-09
zn71 7.54874704824498e-13
zn72 4.0628345978592644e-12
zn73 6.996486770232295e-19
zn74 1.4232659440782456e-21
zn75 4.14934915822628e-29
zn76 2.5238437923661343e-35
zn77 2.0240057981533696e-43
zn78 7.691151613284806e-51
zn79 9.136758990136401e-59
zn80 1.0130870067088295e-68
zn81 1.7275151143934224e-83
zn82 5.27094443605479e-95
zn83 0.0
zn84 0.0
ga57 0.0
ga58 0.0
ga59 8.621125043066978e-76
ga60 2.4026732412831933e-66
ga61 1.863048046695503e-44
ga62 1.1158230788413408e-37
ga63 4.708203532835112e-27
ga64 9.688802803111776e-26
ga65 4.0662489052450505e-15
ga66 3.198621442973108e-14
ga67 1.1185502184960804e-11
ga68 4.215774907657079e-13
ga69 3.1180837399608946e-08
ga70 1.5232433738154485e-10
ga71 7.643058576814875e-09
ga72 1.546832770611918e-09
ga73 3.758967383371976e-10
ga74 3.872852614081704e-14
ga75 2.5200139571241576e-17
ga76 7.832697897470795e-23
ga77 9.742984206853166e-28
ga78 1.3962754496992824e-34
ga79 1.1114174314443034e-40
ga80 4.18192626559815e-48
ga81 2.588099991957711e-54
ga82 5.861555306406859e-66
ga83 2.4751289537413192e-76
ga84 2.5672613508969384e-89
ga85 0.0
ga86 0.0
ge59 0.0
ge60 4.895641979792228e-94
ge61 6.339401911291923e-84
ge62 1.1488078974871063e-57
ge63 8.464908507448335e-52
ge64 6.048473102795351e-36
ge65 8.87306207948109e-35
ge66 1.2454112915960643e-20
ge67 1.6070740892129342e-20
ge68 6.637074581730937e-16
ge69 9.163999377755971e-16
ge70 2.4055152990304307e-08
ge71 7.92003314694709e-09
ge72 2.4821039801853954e-08
ge73 1.467546145650715e-08
ge74 3.037512221066068e-08
ge75 2.5789091060080837e-10
ge76 1.7480441049716387e-09
ge77 2.6314086816984618e-12
ge78 1.3279664965468442e-13
ge79 2.0974271338349395e-20
ge80 1.3519782431057362e-24
ge81 1.1694637600699663e-31
ge82 3.866405664702249e-38
ge83 2.3353056331852263e-48
ge84 3.719860831425399e-58
ge85 2.5948031280574237e-70
ge86 2.478993881768604e-81
ge87 3.111004693306349e-95
ge88 0.0
ge89 0.0
as61 0.0
as62 0.0
as63 7.783372450057483e-85
as64 2.0411014452043205e-74
as65 4.359756243441946e-58
as66 1.4421796816113224e-49
as67 4.19501190747793e-32
as68 1.6723143577534882e-28
as69 4.445582839897082e-23
as70 6.721515124955467e-22
as71 2.8675414125288914e-13
as72 1.0288277303117428e-13
as73 2.042328321203718e-12
as74 9.353453193802565e-13
as75 6.1062906530154996e-09
as76 2.7979861453368336e-09
as77 2.3056773027143822e-09
as78 2.8343408921669785e-11
as79 1.9418168095215843e-13
as80 8.106846962758211e-20
as81 2.433281177183476e-22
as82 2.452710678099856e-27
as83 1.1166477915625863e-31
as84 2.884399428021333e-40
as85 2.1899437734606607e-47
as86 6.958879023869003e-57
as87 3.6512577828463164e-66
as88 5.524819609733328e-78
as89 5.957328121237486e-89
as90 0.0
as91 0.0
se64 0.0
se65 8.779060285348553e-94
se66 2.7042210192074703e-73
se67 1.7163498373031893e-64
se68 1.2083643900105105e-41
se69 1.1315716012029246e-37
se70 2.820842828726893e-29
se71 5.675727257175549e-29
se72 7.273166116801404e-18
se73 9.256179073869189e-19
se74 1.7753234608969158e-14
se75 5.497392353193551e-14
se76 3.3116009836524423e-09
se77 4.086261748185301e-09
se78 9.942956200306326e-09
se79 6.343124232107016e-09
se80 1.6395447832129058e-08
se81 2.9486889554945605e-11
se82 6.068140589723136e-10
se83 1.7978696315043555e-13
se84 2.0674433569602285e-17
se85 4.5179201952101134e-24
se86 1.8711454469357372e-30
se87 2.8517772954213107e-38
se88 2.429311151501521e-47
se89 2.0295115495779892e-58
se90 2.0377232193631724e-69
se91 4.2294325945662126e-83
se92 1.400769803934398e-94
se93 0.0
br66 0.0
br67 0.0
br68 3.625274001343151e-89
br69 3.468863485393604e-65
br70 4.118868724629366e-53
br71 8.013535334337734e-41
br72 7.793139702321731e-38
br73 1.4942560605157904e-26
br74 3.188655967537564e-25
br75 8.98726920559346e-21
br76 1.2409045494970005e-19
br77 4.730537285498865e-14
br78 4.772206964701917e-16
br79 2.385112476147981e-13
br80 4.616192155844945e-15
br81 3.1250032954092213e-09
br82 9.615371454838833e-10
br83 1.5704376484741175e-10
br84 6.636510472736414e-13
br85 4.082781717487429e-16
br86 3.071279044621336e-21
br87 1.733932269350681e-25
br88 1.546200784599055e-31
br89 5.320666170198998e-38
br90 4.416821050640595e-46
br91 1.389461760208945e-55
br92 1.378639181628841e-66
br93 5.688305242811532e-77
br94 9.898440490719885e-90
br95 0.0
kr69 0.0
kr70 1.0017419666687607e-80
kr71 5.206517407201282e-68
kr72 3.078680522825843e-51
kr73 3.868076120227145e-46
kr74 8.97099672085067e-33
kr75 4.086173188190201e-30
kr76 1.575472592211944e-22
kr77 5.332876530320279e-22
kr78 9.82417465741604e-18
kr79 5.230123020633629e-19
kr80 2.404556699309386e-13
kr81 1.123713146513493e-13
kr82 2.4954805137757996e-09
kr83 3.2768597659348724e-09
kr84 1.0455395123565224e-08
kr85 5.717880317976813e-09
kr86 7.198949781255738e-09
kr87 2.4192107406320594e-12
kr88 1.1773531900762378e-13
kr89 1.925156418260912e-18
kr90 2.700650825360007e-24
kr91 1.3237589334561067e-31
kr92 2.6757091400591797e-40
kr93 2.2355604137322705e-50
kr94 9.503174469670598e-61
kr95 3.9358960685180913e-72
kr96 7.433500446232982e-83
kr97 1.6019061906421638e-95
rb72 0.0
rb73 9.417786102677795e-76
rb74 1.3188887984618185e-61
rb75 9.881767064977003e-45
rb76 2.969939318061246e-39
rb77 7.08275921880983e-31
rb78 1.0611228372464482e-29
rb79 2.5886331738092017e-24
rb80 4.914205195257929e-27
rb81 2.2297980085417027e-19
rb82 2.1064636338474336e-21
rb83 1.583888737013147e-14
rb84 1.0045519574515761e-14
rb85 2.0285824784147596e-10
rb86 1.8661807137340197e-10
rb87 2.18824410129972e-09
rb88 1.0627335758261251e-12
rb89 4.700494804094794e-15
rb90 1.8205230581574864e-18
rb91 1.2614764454733868e-22
rb92 3.377628170519947e-30
rb93 6.43870425552635e-35
rb94 4.574421145734573e-43
rb95 1.595223066082346e-52
rb96 2.5603623210291356e-63
rb97 3.1068311915604376e-73
rb98 9.268085419468748e-84
rb99 8.282605819087998e-95
sr75 8.413853864306772e-77
sr76 1.7393563883982277e-58
sr77 9.894311839515582e-50
sr78 1.4529708297695657e-35
sr79 1.0923466664652387e-32
sr80 9.448903485054553e-26
sr81 7.742700824106975e-25
sr82 4.0240717747590904e-20
sr83 5.922815723658179e-21
sr84 1.479780682468498e-17
sr85 1.0052237597883417e-16
sr86 2.4142382797228846e-10
sr87 3.626911834735176e-10
sr88 6.212155223469208e-09
sr89 9.093354158593033e-10
sr90 2.5605496648652835e-10
sr91 3.767706017636252e-12
sr92 9.607650999412034e-14
sr93 1.454486478337468e-17
sr94 3.03098669390845e-22
sr95 3.4254157344730907e-29
sr96 1.1666202252644282e-38
sr97 4.457968441078167e-49
sr98 8.96553276454428e-58
sr99 1.4709383929529002e-68
sr100 3.119016630862093e-79
sr101 2.7128818282584e-91
y77 2.0565447576057854e-80
y78 5.62144872448515e-66
y79 5.870043816492702e-48
y80 2.1048231646434906e-42
y81 2.3711246392302782e-35
y82 1.767934848398977e-36
y83 1.4296718090486848e-27
y84 3.099765267746125e-32
y85 5.439739459081032e-23
y86 9.089676904819547e-23
y87 2.598419032115534e-16
y88 6.796007632304017e-16
y89 5.550742713212179e-10
y90 3.2071533358759093e-11
y91 8.887856033150309e-11
y92 4.4800757554171335e-12
y93 7.07233522384137e-12
y94 3.93940108127807e-14
y95 2.6026676106855083e-16
y96 6.429130203535083e-24
y97 8.312808292150598e-30
y98 3.322362444627383e-39
y99 2.7127341252604663e-43
y100 7.33713444784213e-52
y101 9.681050385705438e-61
y102 1.5862964437934178e-70
y103 9.410681935199183e-81
zr80 9.359878019841251e-65
zr81 5.093475803182818e-57
zr82 1.698718552530296e-47
zr83 2.775183105576371e-37
zr84 9.415487152300987e-30
zr85 4.5825207049193327e-29
zr86 7.127920981145508e-24
zr87 2.780012894940078e-23
zr88 9.876571654735087e-20
zr89 1.0590919210017659e-19
zr90 2.7938503145718426e-10
zr91 1.5074902951819882e-10
zr92 3.0628147813198136e-10
zr93 1.3996451618221147e-10
zr94 2.4548228231997324e-10
zr95 7.353900298149209e-11
zr96 1.1838176268663545e-10
zr97 2.65044443277634e-13
zr98 1.8588514023464011e-19
zr99 4.2507867130924615e-28
zr100 6.945755982994397e-33
zr101 2.2436592820881557e-40
zr102 2.4395832310199578e-49
zr103 1.791477796127155e-59
zr104 6.246122853954672e-70
zr105 1.6283247658332972e-81
nb83 2.5099901936991637e-63
nb84 2.0716500211768827e-48
nb85 1.4291345757311913e-40
nb86 4.286607958718735e-37
nb87 1.0688178519111948e-31
nb88 2.3173477173731268e-30
nb89 3.818112749508693e-25
nb90 3.584962137512913e-24
nb91 3.493940786287127e-16
nb92 2.926562947431985e-16
nb93 1.5499253959426383e-15
nb94 1.4719814861100614e-15
nb95 8.533806210058894e-13
nb96 8.241054294796219e-13
nb97 6.91018876048014e-14
nb98 6.76728804147083e-20
nb99 2.1130253021656806e-23
nb100 3.5819481916901596e-31
nb101 1.935742049821192e-32
nb102 7.468873238519621e-40
nb103 3.408641143503841e-44
nb104 3.994699032864749e-53
nb105 5.716203420694189e-62
nb106 2.523506809594955e-72
nb107 1.6809197290284055e-82
mo85 2.59140157160004e-65
mo86 3.474909433440907e-56
mo87 8.668904277260569e-45
mo88 6.318563990738809e-35
mo89 5.369430688576813e-33
mo90 6.2008151953930834e-27
mo91 1.8084291054529098e-25
mo92 1.543660679533118e-14
mo93 4.393194425694772e-15
mo94 4.077703716992276e-14
mo95 5.341397468355021e-13
mo96 3.9271423107564106e-12
mo97 4.817251263633076e-12
mo98 2.4300810102482358e-11
mo99 1.5977018665868545e-12
mo100 1.4810181304607477e-11
mo101 2.499534222263626e-14
mo102 1.0638918139305392e-16
mo103 2.061067174054151e-21
mo104 9.816218866632334e-25
mo105 1.1722856474818553e-33
mo106 7.770499283454254e-43
mo107 4.184785285824955e-53
mo108 1.0062993833630983e-63
mo109 2.68388720517242e-75
tc88 2.7014904181004867e-61
tc89 2.9948407135721985e-50
tc90 9.23750510014643e-45
tc91 4.755358615582551e-36
tc92 8.571312999027453e-33
tc93 6.30891419770074e-22
tc94 5.559494770576686e-22
tc95 1.3600561664527753e-20
tc96 9.226882538237864e-20
tc97 1.3476798776678384e-18
tc98 1.0338939680077947e-18
tc99 9.219971398297623e-13
tc100 3.093510289093735e-18
tc101 2.584097484270165e-14
tc102 8.3789206619122415e-19
tc103 4.4136920365502226e-21
tc104 1.466177614406511e-21
tc105 2.1155750254479164e-23
tc106 1.9943523215956304e-28
tc107 4.332612754315098e-32
tc108 3.4488737704034037e-38
tc109 4.466909004271648e-47
tc110 5.862998960394456e-57
ru91 6.727696361640293e-61
ru92 6.502756179509335e-50
ru93 3.41026007497573e-34
ru94 1.3220215941567568e-23
ru95 7.33432882193368e-23
ru96 1.9021070772301524e-20
ru97 5.358657844987182e-21
ru98 5.997008710842251e-19
ru99 1.1926718475436326e-16
ru100 4.424241085502146e-12
ru101 2.0353037938202288e-12
ru102 1.0687394620133344e-11
ru103 5.66242712623025e-12
ru104 1.6460612422471856e-11
ru105 7.525488535967399e-13
ru106 6.4244065124477706e-12
ru107 1.3509228940005242e-15
ru108 1.171829587534911e-17
ru109 6.569355500925173e-23
ru110 2.089997524679149e-27
ru111 9.416194795591867e-38
ru112 4.7966059098005574e-48
rh93 6.7549335713838e-67
rh94 9.697759987606592e-45
rh95 6.56182790220242e-33
rh96 2.7718747689062094e-31
rh97 1.6407902011607474e-27
rh98 1.9285151689380145e-25
rh99 9.28525438009451e-24
rh100 9.744693811217902e-24
rh101 2.300962770002587e-19
rh102 1.4465445389836642e-19
rh103 1.0355864683457795e-13
rh104 7.900254691067697e-18
rh105 1.2737180921366022e-12
rh106 1.9884814901320867e-16
rh107 1.7120369634211143e-14
rh108 8.311341031122677e-19
rh109 1.2763096992616264e-20
rh110 2.4166340527518538e-27
rh111 1.690997294181044e-29
rh112 3.947449702080317e-35
rh113 2.7525235994909998e-39
rh114 8.34835636908907e-45
pd96 7.854713911887956e-35
pd97 5.574389792731313e-31
pd98 8.875728690539606e-25
pd99 1.3181797289142398e-23
pd100 5.564680971358071e-21
pd101 1.3572169074491655e-22
pd102 1.1175506846823937e-20
pd103 2.284244528901719e-21
pd104 5.489069332108108e-13
pd105 4.376770690799753e-13
pd106 4.605976176102843e-12
pd107 1.5418623897136248e-12
pd108 1.06025638380083e-11
pd109 2.2691564076735093e-12
pd110 9.657952317337915e-12
pd111 7.565015006670838e-14
pd112 2.587970856984462e-13
pd113 1.0661932615944783e-17
pd114 6.298473632263165e-20
pd115 6.463916169537138e-25
ag98 3.189865940608619e-42
ag99 3.6824443523247736e-35
ag100 1.5820037958519887e-33
ag101 2.6216954820522425e-29
ag102 2.1510725180181147e-27
ag103 1.0317072344641863e-24
ag104 4.165717415217234e-23
ag105 6.97946530248557e-21
ag106 7.36200846242273e-22
ag107 1.110992264177727e-18
ag108 1.7491565580081307e-21
ag109 1.1184691787793908e-12
ag110 2.1209941893723637e-16
ag111 8.787900543831664e-13
ag112 1.4546152999447773e-13
ag113 8.836102389026498e-16
ag114 2.219480084845501e-21
ag115 2.0015235473879783e-23
ag116 2.631225757560887e-27
cd101 2.2563431524354492e-35
cd102 1.9454587565031036e-27
cd103 5.351329956393473e-26
cd104 4.76939444463989e-22
cd105 3.862091044659052e-23
cd106 1.2102284234629614e-20
cd107 1.1037427798731277e-22
cd108 9.106279064005536e-18
cd109 1.8957658835636216e-18
cd110 2.3501710459637525e-12
cd111 7.183415645314189e-13
cd112 5.054617606355469e-12
cd113 2.1129362876585545e-12
cd114 1.7153776869488383e-11
cd115 3.33340588840361e-12
cd116 2.479394609050316e-11
cd117 2.880697330508828e-13
in102 3.915760839154081e-48
in103 3.663821247146997e-39
in104 5.870199579254455e-37
in105 3.574188501523149e-32
in106 2.1303545739724277e-31
in107 2.042622729854244e-27
in108 3.815606469189948e-25
in109 1.022777535422189e-23
in110 5.624919200939383e-23
in111 7.426133214233139e-21
in112 3.9628781066272295e-22
in113 3.0063135068646885e-16
in114 1.0575842008025804e-19
in115 4.5193817880046915e-13
in116 1.2703301712465232e-17
in117 5.791574872638249e-14
in118 3.298790570242645e-17
