n 1.81776836e-39
h1 0.677113973
he4 0.076961135
h2 2.36491448e-06
h3 6.977105866666667e-33
he3 1.1088442299999998e-05
li6 2.1107147333333333e-11
li7 2.5705593571428574e-10
li8 1.548964975e-16
li9 6.711219644444444e-53
be7 1.7836454000000002e-16
be9 3.6939888e-12
be10 1.1967565e-20
be11 1.2651983363636362e-55
be12 0.0
b8 6.708788137499999e-31
b10 1.7203255e-11
b11 6.963878609090909e-11
b12 5.2400281249999996e-58
b13 2.0952756230769228e-95
b14 0.0
c10 0.0
c11 2.2331513818181816e-28
c12 0.00012187642249999999
c13 6.674036030769231e-06
c14 3.3466510357142857e-17
c15 8.851271266666668e-55
c16 0.0
c17 0.0
c18 0.0
n11 0.0
n12 2.010897175e-50
n13 1.8123659307692306e-21
n14 0.00018687433428571428
n15 8.835617999999999e-08
n16 1.4438475874999997e-44
n17 6.831266117647058e-81
n18 0.0
n19 0.0
n20 0.0
n21 0.0
o13 4.067342161538461e-73
o14 0.0
o15 6.881763866666668e-25
o16 0.00036137113749999997
o17 3.972502935294118e-07
o18 5.587631722222222e-07
o19 6.5597398947368414e-43
o20 1.7190012199999998e-85
o21 0.0
o22 0.0
f16 0.0
f17 3.208888794117647e-27
f18 3.450794927777778e-28
f19 2.0823468789473688e-08
f20 1.4203708699999996e-85
f21 0.0
f22 0.0
f23 0.0
f24 0.0
f25 0.0
f26 0.0
ne16 0.0
ne17 0.0
ne18 5.710670333333333e-55
ne19 4.561015194736841e-51
ne20 5.8447245e-05
ne21 1.9625200666666665e-07
ne22 3.542896527272727e-06
ne23 7.451609130434782e-40
ne24 1.0555285083333332e-71
ne25 0.0
ne26 0.0
ne27 0.0
ne28 0.0
ne29 0.0
na19 0.0
na20 1.6346729499999999e-83
na21 2.394187138095238e-29
na22 1.13232305e-24
na23 2.4267433565217394e-06
na24 2.9418502208333336e-35
na25 5.730121999999998e-67
na26 0.0
na27 0.0
na28 0.0
na29 0.0
na30 0.0
na31 0.0
na32 0.0
mg20 0.0
mg21 0.0
mg22 1.6680963545454543e-61
mg23 3.291086752173913e-48
mg24 2.354127558333333e-05
mg25 2.738624952e-06
mg26 3.5266735999999996e-06
mg27 2.6480583555555555e-38
mg28 2.79820185e-67
mg29 0.0
mg30 0.0
mg31 0.0
mg32 0.0
mg33 0.0
mg34 0.0
mg35 0.0
al22 0.0
al23 0.0
al24 1.152868695833333e-82
al25 7.794183959999999e-35
al26 1.3442512000000002e-09
al27 2.4614597111111114e-06
al28 1.452110392857143e-37
al29 7.842737172413791e-68
al30 0.0
al31 0.0
al32 0.0
al33 0.0
al34 0.0
al35 0.0
al36 0.0
al37 0.0
al38 0.0
si23 0.0
si24 0.0
si25 0.0
si26 3.009388753846153e-70
si27 2.1560592407407406e-44
si28 2.6963877428571426e-05
si29 1.369233720689655e-06
si30 9.033139966666665e-07
si31 6.040830193548386e-36
si32 1.8425937812499996e-58
si33 6.966716515151514e-92
si34 0.0
si35 0.0
si36 0.0
si37 0.0
si38 0.0
si39 0.0
si40 0.0
si41 0.0
p25 0.0
p26 0.0
p27 0.0
p28 3.19964435e-78
p29 1.0162199931034481e-35
p30 1.2195551666666665e-43
p31 2.4490032903225804e-07
p32 5.711561999999999e-35
p33 1.947901215151515e-35
p34 9.882521617647057e-68
p35 3.3067637714285705e-86
p36 0.0
p37 0.0
p38 0.0
p39 0.0
p40 0.0
p41 0.0
p42 0.0
p43 0.0
p44 0.0
s27 0.0
s28 0.0
s29 0.0
s30 2.260994533333333e-81
s31 8.813400451612902e-77
s32 1.2374732156249999e-05
s33 9.777377363636362e-08
s34 5.470582088235294e-07
s35 4.4861342571428574e-34
s36 2.222295725e-09
s37 9.728056891891891e-42
s38 7.910415157894735e-74
s39 0.0
s40 0.0
s41 0.0
s42 0.0
s43 0.0
s44 0.0
s45 0.0
s46 0.0
s47 0.0
cl29 0.0
cl30 0.0
cl31 0.0
cl32 0.0
cl33 4.82915403030303e-49
cl34 3.5806911176470586e-40
cl35 1.1599554342857142e-07
cl36 3.2130262500000004e-14
cl37 3.710052540540541e-08
cl38 2.0193416289473684e-38
cl39 1.2756858923076922e-67
cl40 5.825632299999999e-99
cl41 0.0
cl42 0.0
cl43 0.0
cl44 0.0
cl45 0.0
cl46 0.0
cl47 0.0
cl48 0.0
cl49 0.0
cl50 0.0
ar31 0.0
ar32 0.0
ar33 0.0
ar34 0.0
ar35 1.8502568542857137e-76
ar36 2.5360282638888887e-06
ar37 6.0706706216216215e-33
ar38 4.6051899210526316e-07
ar39 1.1909035410256411e-30
ar40 7.026130875000001e-10
ar41 1.1313720341463413e-39
ar42 1.2525240047619047e-63
ar43 1.3831368348837203e-94
ar44 0.0
ar45 0.0
ar46 0.0
ar47 0.0
ar48 0.0
ar49 0.0
ar50 0.0
ar51 0.0
ar52 0.0
k32 0.0
k33 0.0
k34 0.0
k35 0.0
k36 0.0
k37 1.663316118918919e-40
k38 5.470402210526314e-71
k39 1.0076914025641027e-07
k40 1.608652655e-10
k41 7.3096701707317084e-09
k42 7.461928333333333e-37
k43 5.090921279069767e-64
k44 1.5488728159090906e-93
k45 0.0
k46 0.0
k47 0.0
k48 0.0
k49 0.0
k50 0.0
k51 0.0
k52 0.0
k53 0.0
k54 0.0
k55 0.0
ca35 0.0
ca36 0.0
ca37 0.0
ca38 0.0
ca39 0.0
ca40 1.7824495875000002e-06
ca41 1.1170307609756099e-13
ca42 1.190473069047619e-08
ca43 2.4884505116279064e-09
ca44 3.840822090909091e-08
ca45 4.2889809555555556e-34
ca46 7.304188456521739e-11
ca47 1.260787008510638e-38
ca48 3.4583051666666673e-09
ca49 1.3612547408163265e-40
ca50 4.31379948e-76
ca51 0.0
ca52 0.0
ca53 0.0
ca54 0.0
ca55 0.0
ca56 0.0
ca57 0.0
sc36 0.0
sc37 0.0
sc38 0.0
sc39 0.0
sc40 0.0
sc41 4.899047707317073e-41
sc42 3.12242438095238e-76
sc43 1.4803326674418605e-45
sc44 7.664922909090908e-74
sc45 1.0009200333333334e-09
sc46 5.27513660869565e-35
sc47 9.30915959574468e-39
sc48 6.021252062499999e-66
sc49 8.931381755102038e-40
sc50 3.888850239999999e-71
sc51 0.0
sc52 0.0
sc53 0.0
sc54 0.0
sc55 0.0
sc56 0.0
sc57 0.0
sc58 0.0
sc59 0.0
ti39 0.0
ti40 0.0
ti41 0.0
ti42 0.0
ti43 0.0
ti44 0.0
ti45 0.0
ti46 5.847572130434783e-09
ti47 5.2543317659574466e-09
ti48 5.2287603958333335e-08
ti49 3.841651612244897e-09
ti50 3.6802853000000005e-09
ti51 3.651558588235294e-40
ti52 2.87603348076923e-71
ti53 0.0
ti54 0.0
ti55 0.0
ti56 0.0
ti57 0.0
ti58 0.0
ti59 0.0
ti60 0.0
ti61 0.0
ti62 0.0
v41 0.0
v42 0.0
v43 0.0
v44 0.0
v45 0.0
v46 0.0
v47 0.0
v48 6.294831979166666e-44
v49 1.8511189408163264e-40
v50 2.0995464e-11
v51 8.413027549019608e-09
v52 7.401628884615385e-39
v53 3.2957706981132067e-69
v54 0.0
v55 0.0
v56 0.0
v57 0.0
v58 0.0
v59 0.0
v60 0.0
v61 0.0
v62 0.0
v63 0.0
v64 0.0
v65 0.0
cr43 0.0
cr44 0.0
cr45 0.0
cr46 0.0
cr47 0.0
cr48 0.0
cr49 0.0
cr50 1.633732784e-08
cr51 1.5375742568627448e-34
cr52 3.153756423076923e-07
cr53 3.5660460188679247e-08
cr54 8.89709937037037e-09
cr55 9.010209327272726e-40
cr56 5.285517017857142e-70
cr57 0.0
cr58 0.0
cr59 0.0
cr60 0.0
cr61 0.0
cr62 0.0
cr63 0.0
cr64 0.0
cr65 0.0
cr66 0.0
cr67 0.0
cr68 0.0
mn45 0.0
mn46 0.0
mn47 0.0
mn48 0.0
mn49 0.0
mn50 0.0
mn51 0.0
mn52 0.0
mn53 3.355457698113207e-26
mn54 3.704198796296296e-51
mn55 2.6736080727272724e-07
mn56 9.525684589285715e-36
mn57 6.962608526315788e-66
mn58 5.5700457586206886e-98
mn59 0.0
mn60 0.0
mn61 0.0
mn62 0.0
mn63 0.0
mn64 0.0
mn65 0.0
mn66 0.0
mn67 0.0
mn68 0.0
mn69 0.0
mn70 0.0
mn71 0.0
fe47 0.0
fe48 0.0
fe49 0.0
fe50 0.0
fe51 0.0
fe52 0.0
fe53 0.0
fe54 1.431343811111111e-06
fe55 2.7843468363636363e-31
fe56 2.2499163214285714e-05
fe57 5.19955296491228e-07
fe58 6.906594896551724e-08
fe59 2.306223016949152e-34
fe60 4.171544116666666e-18
fe61 1.5053435868852456e-48
fe62 8.669339419354838e-82
fe63 0.0
fe64 0.0
fe65 0.0
fe66 0.0
fe67 0.0
fe68 0.0
fe69 0.0
fe70 0.0
fe71 0.0
fe72 0.0
fe73 0.0
fe74 0.0
co48 0.0
co49 0.0
co50 0.0
co51 0.0
co52 0.0
co53 0.0
co54 0.0
co55 0.0
co56 0.0
co57 0.0
co58 1.1183456103448275e-41
co59 6.808076813559321e-08
co60 1.4667888066666666e-23
co61 2.492288213114754e-47
co62 1.4401973709677416e-77
co63 1.1445936666666662e-95
co64 0.0
co65 0.0
co66 0.0
co67 0.0
co68 0.0
co69 0.0
co70 0.0
co71 0.0
co72 0.0
co73 0.0
co74 0.0
co75 0.0
co76 0.0
co77 0.0
ni51 0.0
ni52 0.0
ni53 0.0
ni54 0.0
ni55 0.0
ni56 0.0
ni57 0.0
ni58 9.515963344827587e-07
ni59 2.2782753728813563e-13
ni60 3.66641895e-07
ni61 1.5961791655737703e-08
ni62 5.0806146774193545e-08
ni63 4.425445650793651e-31
ni64 1.2923819546874998e-08
ni65 7.811505046153845e-38
ni66 4.576661136363635e-65
ni67 4.804452835820895e-97
ni68 6.327753088235293e-91
ni69 0.0
ni70 0.0
ni71 0.0
ni72 0.0
ni73 0.0
ni74 0.0
ni75 0.0
ni76 0.0
ni77 0.0
ni78 0.0
ni79 0.0
cu52 0.0
cu53 0.0
cu54 0.0
cu55 0.0
cu56 0.0
cu57 0.0
cu58 0.0
cu59 0.0
cu60 0.0
cu61 6.440567540983606e-64
cu62 2.2294888387096775e-93
cu63 1.0668280809523809e-08
cu64 4.41112503125e-36
cu65 4.756728876923077e-09
cu66 5.4782061969696964e-39
cu67 1.322048962686567e-53
cu68 2.1006818529411757e-71
cu69 6.261020057971012e-80
cu70 0.0
cu71 0.0
cu72 0.0
cu73 0.0
cu74 0.0
cu75 0.0
cu76 0.0
cu77 0.0
cu78 0.0
cu79 0.0
cu80 0.0
cu81 0.0
cu82 0.0
zn55 0.0
zn56 0.0
zn57 0.0
zn58 0.0
zn59 0.0
zn60 0.0
zn61 0.0
zn62 0.0
zn63 0.0
zn64 1.7498144375e-08
zn65 1.7189677692307693e-33
zn66 9.999571393939396e-09
zn67 1.4719184865671642e-09
zn68 6.720965279411764e-09
zn69 3.313608376811594e-38
zn70 2.2284258428571425e-10
zn71 5.392907788732394e-41
zn72 5.488465666666665e-68
zn73 0.0
zn74 0.0
zn75 0.0
zn76 0.0
zn77 0.0
zn78 0.0
zn79 0.0
zn80 0.0
zn81 0.0
zn82 0.0
zn83 0.0
zn84 0.0
ga57 0.0
ga58 0.0
ga59 0.0
ga60 0.0
ga61 0.0
ga62 0.0
ga63 0.0
ga64 0.0
ga65 0.0
ga66 0.0
ga67 0.0
ga68 0.0
ga69 6.319652869565217e-10
ga70 9.824163557142856e-39
ga71 4.197542028169014e-10
ga72 2.322570222222222e-37
ga73 1.3060615999999999e-64
ga74 5.512455499999999e-94
ga75 0.0
ga76 0.0
ga77 0.0
ga78 0.0
ga79 0.0
ga80 0.0
ga81 0.0
ga82 0.0
ga83 0.0
ga84 0.0
ga85 0.0
ga86 0.0
ge59 0.0
ge60 0.0
ge61 0.0
ge62 0.0
ge63 0.0
ge64 0.0
ge65 0.0
ge66 0.0
ge67 0.0
ge68 0.0
ge69 0.0
ge70 7.486682942857143e-10
ge71 5.118339985915493e-36
ge72 9.763442861111111e-10
ge73 2.725820780821918e-10
ge74 1.2662348716216217e-09
ge75 2.689530746666666e-38
ge76 2.631286592105263e-10
ge77 2.813491896103896e-38
ge78 9.615828269230767e-67
ge79 1.607302632911392e-98
ge80 0.0
ge81 0.0
ge82 0.0
ge83 0.0
ge84 0.0
ge85 0.0
ge86 0.0
ge87 0.0
ge88 0.0
ge89 0.0
as61 0.0
as62 0.0
as63 0.0
as64 0.0
as65 0.0
as66 0.0
as67 0.0
as68 0.0
as69 0.0
as70 0.0
as71 0.0
as72 0.0
as73 0.0
as74 0.0
as75 1.78565804e-10
as76 7.618325210526317e-37
as77 9.667965246753247e-38
as78 9.848348615384613e-66
as79 1.1516548417721517e-93
as80 0.0
as81 0.0
as82 0.0
as83 0.0
as84 0.0
as85 0.0
as86 0.0
as87 0.0
as88 0.0
as89 0.0
as90 0.0
as91 0.0
se64 0.0
se65 0.0
se66 0.0
se67 0.0
se68 0.0
se69 0.0
se70 0.0
se71 0.0
se72 0.0
se73 0.0
se74 1.7013251486486487e-11
se75 3.530111813333333e-36
se76 1.8050021710526314e-10
se77 1.467014220779221e-10
se78 4.577035756410256e-10
se79 3.2204022151898733e-15
se80 9.548821025e-10
se81 3.7710474197530866e-39
se82 1.6828668170731706e-10
se83 1.7100569277108431e-40
se84 1.5571247380952377e-73
se85 0.0
se86 0.0
se87 0.0
se88 0.0
se89 0.0
se90 0.0
se91 0.0
se92 0.0
se93 0.0
br66 0.0
br67 0.0
br68 0.0
br69 0.0
br70 0.0
br71 0.0
br72 0.0
br73 0.0
br74 0.0
br75 0.0
br76 0.0
br77 0.0
br78 7.239489358974358e-71
br79 1.6822612151898733e-10
br80 7.5871387625e-39
br81 1.629626074074074e-10
br82 5.250603658536585e-37
br83 1.1042519975903615e-39
br84 2.5286459880952377e-68
br85 7.700650705882352e-94
br86 0.0
br87 0.0
br88 0.0
br89 0.0
br90 0.0
br91 0.0
br92 0.0
br93 0.0
br94 0.0
br95 0.0
kr69 0.0
kr70 0.0
kr71 0.0
kr72 0.0
kr73 0.0
kr74 0.0
kr75 0.0
kr76 0.0
kr77 0.0
kr78 5.841380525641025e-12
kr79 1.5002710126582278e-38
kr80 3.7608475625e-11
kr81 1.7114851728395062e-16
kr82 1.8791760365853658e-10
kr83 1.8664552771084335e-10
kr84 9.178972107142857e-10
kr85 9.678182847058825e-34
kr86 2.7790226511627905e-10
kr87 3.7564521264367815e-40
kr88 4.035174011363635e-71
kr89 0.0
kr90 0.0
kr91 0.0
kr92 0.0
kr93 0.0
kr94 0.0
kr95 0.0
kr96 0.0
kr97 0.0
rb72 0.0
rb73 0.0
rb74 0.0
rb75 0.0
rb76 0.0
rb77 0.0
rb78 0.0
rb79 0.0
rb80 0.0
rb81 0.0
rb82 0.0
rb83 0.0
rb84 0.0
rb85 1.3885557529411765e-10
rb86 3.465048895348837e-36
rb87 5.700176390804598e-11
rb88 8.812546636363637e-41
rb89 5.161218561797752e-70
rb90 0.0
rb91 0.0
rb92 0.0
rb93 0.0
rb94 0.0
rb95 0.0
rb96 0.0
rb97 0.0
rb98 0.0
rb99 0.0
sr75 0.0
sr76 0.0
sr77 0.0
sr78 0.0
sr79 0.0
sr80 0.0
sr81 0.0
sr82 0.0
sr83 0.0
sr84 3.829304488095238e-12
sr85 5.595456717647059e-37
sr86 6.797846186046512e-11
sr87 4.7481663563218384e-11
sr88 5.681812681818182e-10
sr89 1.373057808988764e-36
sr90 6.318038488888889e-46
sr91 4.8582333406593395e-60
sr92 2.288770119565217e-78
sr93 0.0
sr94 0.0
sr95 0.0
sr96 0.0
sr97 0.0
sr98 0.0
sr99 0.0
sr100 0.0
sr101 0.0
y77 0.0
y78 0.0
y79 0.0
y80 0.0
y81 0.0
y82 0.0
y83 0.0
y84 0.0
y85 0.0
y86 0.0
y87 0.0
y88 0.0
y89 1.3483465393258426e-10
y90 5.177118055555556e-38
y91 7.127310208791209e-52
y92 5.341296021739129e-76
y93 2.409437967741935e-96
y94 1.034006679787234e-88
y95 0.0
y96 0.0
y97 0.0
y98 0.0
y99 0.0
y100 0.0
y101 0.0
y102 0.0
y103 0.0
zr80 0.0
zr81 0.0
zr82 0.0
zr83 0.0
zr84 0.0
zr85 0.0
zr86 0.0
zr87 0.0
zr88 0.0
zr89 1.6603013483146066e-57
zr90 1.6999525555555556e-10
zr91 3.725730835164835e-11
zr92 5.684916836956522e-11
zr93 1.7837337956989246e-16
zr94 5.7547692127659575e-11
zr95 7.371361915789473e-37
zr96 9.270442e-12
zr97 5.34457286597938e-40
zr98 1.4022349285714287e-73
zr99 0.0
zr100 0.0
zr101 0.0
zr102 0.0
zr103 0.0
zr104 0.0
zr105 0.0
nb83 0.0
nb84 0.0
nb85 0.0
nb86 0.0
nb87 0.0
nb88 0.0
nb89 0.0
nb90 0.0
nb91 1.4169107142857142e-71
nb92 6.950613282608695e-36
nb93 2.2035801397849465e-11
nb94 2.3658060851063827e-18
nb95 4.0296518e-37
nb96 3.89854784375e-54
nb97 3.835640577319588e-41
nb98 3.729875183673469e-72
nb99 0.0
nb100 0.0
nb101 0.0
nb102 0.0
nb103 0.0
nb104 0.0
nb105 0.0
nb106 0.0
nb107 0.0
mo85 0.0
mo86 0.0
mo87 0.0
mo88 0.0
mo89 0.0
mo90 0.0
mo91 0.0
mo92 1.1302094456521739e-11
mo93 5.703482967741935e-24
mo94 7.055601680851064e-12
mo95 1.210119947368421e-11
mo96 1.2715081354166665e-11
mo97 7.276791731958763e-12
mo98 1.8369252448979592e-11
mo99 3.8417656767676765e-38
mo100 7.33719841e-12
mo101 6.091854217821783e-41
mo102 4.827401892156862e-73
mo103 0.0
mo104 0.0
mo105 0.0
mo106 0.0
mo107 0.0
mo108 0.0
mo109 0.0
tc88 0.0
tc89 0.0
tc90 0.0
tc91 0.0
tc92 0.0
tc93 0.0
tc94 0.0
tc95 0.0
tc96 7.600991718749999e-54
tc97 2.5675010824742264e-16
tc98 1.1261669489795915e-21
tc99 3.4780245353535355e-17
tc100 8.954891609999998e-47
tc101 5.929237831683169e-41
tc102 1.4004904313725489e-71
tc103 0.0
tc104 0.0
tc105 0.0
tc106 0.0
tc107 0.0
tc108 0.0
tc109 0.0
tc110 0.0
ru91 0.0
ru92 0.0
ru93 0.0
ru94 0.0
ru95 0.0
ru96 3.0813971354166666e-12
ru97 1.1713133195876287e-38
ru98 1.0402389591836736e-12
ru99 7.076519707070707e-12
ru100 6.996534259999999e-12
ru101 9.454224584158416e-12
ru102 1.7566857156862746e-11
ru103 8.85152608737864e-37
ru104 1.037924096153846e-11
ru105 2.150716876190476e-39
ru106 2.718449688679245e-63
ru107 0.0
ru108 0.0
ru109 0.0
ru110 0.0
ru111 0.0
ru112 0.0
rh93 0.0
rh94 0.0
rh95 0.0
rh96 0.0
rh97 0.0
rh98 0.0
rh99 0.0
rh100 0.0
rh101 0.0
rh102 0.0
rh103 1.0863933786407768e-11
rh104 2.236552528846154e-41
rh105 1.7128242285714284e-38
rh106 4.899937594339622e-59
rh107 1.0987351775700933e-81
rh108 5.70951999074074e-94
rh109 0.0
rh110 0.0
rh111 0.0
rh112 0.0
rh113 0.0
rh114 0.0
pd96 0.0
pd97 0.0
pd98 0.0
pd99 0.0
pd100 0.0
pd101 0.0
pd102 4.269854852941176e-13
pd103 1.7071038446601943e-38
pd104 4.699263942307693e-12
pd105 9.345756323809525e-12
pd106 1.1526353679245284e-11
pd107 2.1417953925233643e-15
pd108 1.110469648148148e-11
pd109 8.38084895412844e-39
pd110 4.906888654545455e-12
pd111 7.851011486486486e-41
pd112 2.8566795178571422e-67
pd113 0.0
pd114 0.0
pd115 0.0
ag98 0.0
ag99 0.0
ag100 0.0
ag101 0.0
ag102 0.0
ag103 0.0
ag104 0.0
ag105 0.0
ag106 1.2432720849056602e-56
ag107 7.44258393457944e-12
ag108 4.62521587962963e-41
ag109 6.9097403853211e-12
ag110 9.090803536363636e-42
ag111 3.5993968738738734e-38
ag112 5.3557025e-62
ag113 6.16497224778761e-83
ag114 0.0
ag115 0.0
ag116 0.0
cd101 0.0
cd102 0.0
cd103 0.0
cd104 0.0
cd105 0.0
cd106 5.788333452830189e-13
cd107 2.4226030934579437e-40
cd108 4.241513472222222e-13
cd109 2.390170495412844e-37
cd110 5.8015228363636365e-12
cd111 5.926291315315316e-12
cd112 1.117012e-11
cd113 5.6684935663716825e-12
cd114 1.333974543859649e-11
cd115 2.3984315304347825e-38
cd116 3.482153879310345e-12
cd117 1.3480182136752137e-40
in102 0.0
in103 0.0
in104 0.0
in105 0.0
in106 0.0
in107 0.0
in108 0.0
in109 0.0
in110 0.0
in111 0.0
in112 4.704709142857143e-78
in113 2.2847383008849557e-13
in114 6.8385811228070174e-43
in115 5.0565618347826086e-12
in116 3.361107767241379e-42
in117 3.8978841367521364e-41
in118 1.2678976101694913e-64
